
J48 pruned tree
------------------

cosine_similarity <= 0.995
|   comp <= 0
|   |   bmfu <= 2.37
|   |   |   PCh071 <= 0
|   |   |   |   bmfu <= 1.18
|   |   |   |   |   PCh051 <= 1.09: non (216.0/2.0)
|   |   |   |   |   PCh051 > 1.09
|   |   |   |   |   |   cosine_similarity <= 0.858: non (27.0/1.0)
|   |   |   |   |   |   cosine_similarity > 0.858
|   |   |   |   |   |   |   PCh021 <= 2.65: non (2.0)
|   |   |   |   |   |   |   PCh021 > 2.65: dup (6.0)
|   |   |   |   bmfu > 1.18
|   |   |   |   |   PCh101 <= 0.97
|   |   |   |   |   |   PCh031 <= 1.19
|   |   |   |   |   |   |   PCh121 <= 1.06: non (28.0/6.0)
|   |   |   |   |   |   |   PCh121 > 1.06: dup (11.0)
|   |   |   |   |   |   PCh031 > 1.19: non (15.0)
|   |   |   |   |   PCh101 > 0.97: dup (21.0)
|   |   |   PCh071 > 0
|   |   |   |   PCh042 <= 3.07
|   |   |   |   |   PCh122 <= 3.04
|   |   |   |   |   |   PCh062 <= 2.83
|   |   |   |   |   |   |   bmfu <= 0.92
|   |   |   |   |   |   |   |   PCh102 <= 0.84: non (458.0/2.0)
|   |   |   |   |   |   |   |   PCh102 > 0.84
|   |   |   |   |   |   |   |   |   PCh072 <= 1.14
|   |   |   |   |   |   |   |   |   |   PCh062 <= 2.16
|   |   |   |   |   |   |   |   |   |   |   PCh011 <= 0.17: dup (4.0/1.0)
|   |   |   |   |   |   |   |   |   |   |   PCh011 > 0.17: non (24.0)
|   |   |   |   |   |   |   |   |   |   PCh062 > 2.16: dup (3.0)
|   |   |   |   |   |   |   |   |   PCh072 > 1.14: non (126.0/1.0)
|   |   |   |   |   |   |   bmfu > 0.92
|   |   |   |   |   |   |   |   PCh072 <= 0.86
|   |   |   |   |   |   |   |   |   PCh072 <= 0.84
|   |   |   |   |   |   |   |   |   |   PCh122 <= 0.66: non (30.0/1.0)
|   |   |   |   |   |   |   |   |   |   PCh122 > 0.66
|   |   |   |   |   |   |   |   |   |   |   PCh111 <= 0.76: non (6.0)
|   |   |   |   |   |   |   |   |   |   |   PCh111 > 0.76: dup (6.0/1.0)
|   |   |   |   |   |   |   |   |   PCh072 > 0.84: dup (11.0)
|   |   |   |   |   |   |   |   PCh072 > 0.86: non (109.0/2.0)
|   |   |   |   |   |   PCh062 > 2.83
|   |   |   |   |   |   |   PCh082 <= 1.96
|   |   |   |   |   |   |   |   PCh082 <= 1.76: non (30.0/1.0)
|   |   |   |   |   |   |   |   PCh082 > 1.76: dup (20.0)
|   |   |   |   |   |   |   PCh082 > 1.96: non (28.0)
|   |   |   |   |   PCh122 > 3.04
|   |   |   |   |   |   PCh051 <= 3.04: dup (38.0)
|   |   |   |   |   |   PCh051 > 3.04: non (3.0/1.0)
|   |   |   |   PCh042 > 3.07
|   |   |   |   |   bmfu <= 0.96
|   |   |   |   |   |   PCh072 <= 0
|   |   |   |   |   |   |   PCh102 <= 1.12: non (84.0)
|   |   |   |   |   |   |   PCh102 > 1.12
|   |   |   |   |   |   |   |   bmfu <= 0.12: non (7.0)
|   |   |   |   |   |   |   |   bmfu > 0.12: dup (6.0/1.0)
|   |   |   |   |   |   PCh072 > 0: non (5107.0/19.0)
|   |   |   |   |   bmfu > 0.96
|   |   |   |   |   |   PCh102 <= 0.04
|   |   |   |   |   |   |   PCh122 <= 4.09
|   |   |   |   |   |   |   |   PCh121 <= 6.35: non (127.0/5.0)
|   |   |   |   |   |   |   |   PCh121 > 6.35
|   |   |   |   |   |   |   |   |   PCh041 <= 11.24: non (4.0)
|   |   |   |   |   |   |   |   |   PCh041 > 11.24: dup (5.0/1.0)
|   |   |   |   |   |   |   PCh122 > 4.09
|   |   |   |   |   |   |   |   PCh112 <= 0.25: dup (14.0)
|   |   |   |   |   |   |   |   PCh112 > 0.25: non (2.0)
|   |   |   |   |   |   PCh102 > 0.04
|   |   |   |   |   |   |   PCh112 <= 0
|   |   |   |   |   |   |   |   PCh122 <= 2.63: non (367.0/3.0)
|   |   |   |   |   |   |   |   PCh122 > 2.63
|   |   |   |   |   |   |   |   |   PCh072 <= 2.66
|   |   |   |   |   |   |   |   |   |   PCh052 <= 2.45
|   |   |   |   |   |   |   |   |   |   |   bmfu <= 1.58: non (22.0)
|   |   |   |   |   |   |   |   |   |   |   bmfu > 1.58
|   |   |   |   |   |   |   |   |   |   |   |   type <= 0: dup (6.0)
|   |   |   |   |   |   |   |   |   |   |   |   type > 0
|   |   |   |   |   |   |   |   |   |   |   |   |   PCh092 <= 1.74
|   |   |   |   |   |   |   |   |   |   |   |   |   |   PCh072 <= 2.27: dup (6.0/1.0)
|   |   |   |   |   |   |   |   |   |   |   |   |   |   PCh072 > 2.27: non (3.0)
|   |   |   |   |   |   |   |   |   |   |   |   |   PCh092 > 1.74: non (11.0)
|   |   |   |   |   |   |   |   |   |   PCh052 > 2.45
|   |   |   |   |   |   |   |   |   |   |   PCh052 <= 3.76: dup (12.0)
|   |   |   |   |   |   |   |   |   |   |   PCh052 > 3.76: non (2.0)
|   |   |   |   |   |   |   |   |   PCh072 > 2.66
|   |   |   |   |   |   |   |   |   |   PCh011 <= 2.32
|   |   |   |   |   |   |   |   |   |   |   PCh042 <= 12.89
|   |   |   |   |   |   |   |   |   |   |   |   PCh062 <= 4.9
|   |   |   |   |   |   |   |   |   |   |   |   |   PCh072 <= 3.35
|   |   |   |   |   |   |   |   |   |   |   |   |   |   PCh052 <= 1.8: non (10.0)
|   |   |   |   |   |   |   |   |   |   |   |   |   |   PCh052 > 1.8: dup (5.0/1.0)
|   |   |   |   |   |   |   |   |   |   |   |   |   PCh072 > 3.35: non (114.0/2.0)
|   |   |   |   |   |   |   |   |   |   |   |   PCh062 > 4.9
|   |   |   |   |   |   |   |   |   |   |   |   |   PCh012 <= 2.74: dup (7.0/1.0)
|   |   |   |   |   |   |   |   |   |   |   |   |   PCh012 > 2.74: non (9.0)
|   |   |   |   |   |   |   |   |   |   |   PCh042 > 12.89
|   |   |   |   |   |   |   |   |   |   |   |   PCh022 <= 9.21: dup (5.0)
|   |   |   |   |   |   |   |   |   |   |   |   PCh022 > 9.21: non (3.0)
|   |   |   |   |   |   |   |   |   |   PCh011 > 2.32: non (156.0/1.0)
|   |   |   |   |   |   |   PCh112 > 0: non (2344.0/35.0)
|   |   bmfu > 2.37
|   |   |   PCh011 <= 0.21
|   |   |   |   PCh091 <= 3.63
|   |   |   |   |   PCh082 <= 0.62
|   |   |   |   |   |   vers <= 0.09
|   |   |   |   |   |   |   PCh061 <= 1.35: non (13.0)
|   |   |   |   |   |   |   PCh061 > 1.35
|   |   |   |   |   |   |   |   PCh022 <= 3.02: dup (2.0)
|   |   |   |   |   |   |   |   PCh022 > 3.02: non (2.0)
|   |   |   |   |   |   vers > 0.09: dup (3.0)
|   |   |   |   |   PCh082 > 0.62
|   |   |   |   |   |   type <= 0
|   |   |   |   |   |   |   PCh102 <= 2.78
|   |   |   |   |   |   |   |   PCh081 <= 0.84
|   |   |   |   |   |   |   |   |   PCh021 <= 2.28: dup (12.0/1.0)
|   |   |   |   |   |   |   |   |   PCh021 > 2.28: non (4.0)
|   |   |   |   |   |   |   |   PCh081 > 0.84: dup (68.0/1.0)
|   |   |   |   |   |   |   PCh102 > 2.78
|   |   |   |   |   |   |   |   PCh062 <= 6.11: non (5.0)
|   |   |   |   |   |   |   |   PCh062 > 6.11: dup (4.0)
|   |   |   |   |   |   type > 0
|   |   |   |   |   |   |   PCh032 <= 8.94
|   |   |   |   |   |   |   |   PCh042 <= 1.97: dup (23.0)
|   |   |   |   |   |   |   |   PCh042 > 1.97
|   |   |   |   |   |   |   |   |   PCh082 <= 2.42
|   |   |   |   |   |   |   |   |   |   PCh072 <= 2.65
|   |   |   |   |   |   |   |   |   |   |   PCh092 <= 0.74: dup (10.0)
|   |   |   |   |   |   |   |   |   |   |   PCh092 > 0.74
|   |   |   |   |   |   |   |   |   |   |   |   PCh061 <= 0.97: non (11.0/1.0)
|   |   |   |   |   |   |   |   |   |   |   |   PCh061 > 0.97
|   |   |   |   |   |   |   |   |   |   |   |   |   PCh061 <= 2.59: dup (8.0)
|   |   |   |   |   |   |   |   |   |   |   |   |   PCh061 > 2.59: non (4.0/1.0)
|   |   |   |   |   |   |   |   |   |   PCh072 > 2.65: non (18.0/1.0)
|   |   |   |   |   |   |   |   |   PCh082 > 2.42
|   |   |   |   |   |   |   |   |   |   PCh041 <= 4.4
|   |   |   |   |   |   |   |   |   |   |   bmfu <= 3.02
|   |   |   |   |   |   |   |   |   |   |   |   bmfb <= 0.84
|   |   |   |   |   |   |   |   |   |   |   |   |   PCh091 <= 2: dup (17.0/4.0)
|   |   |   |   |   |   |   |   |   |   |   |   |   PCh091 > 2: non (2.0)
|   |   |   |   |   |   |   |   |   |   |   |   bmfb > 0.84: non (2.0)
|   |   |   |   |   |   |   |   |   |   |   bmfu > 3.02: dup (90.0/3.0)
|   |   |   |   |   |   |   |   |   |   PCh041 > 4.4
|   |   |   |   |   |   |   |   |   |   |   PCh061 <= 2.06
|   |   |   |   |   |   |   |   |   |   |   |   PCh021 <= 1.54: dup (4.0)
|   |   |   |   |   |   |   |   |   |   |   |   PCh021 > 1.54
|   |   |   |   |   |   |   |   |   |   |   |   |   PCh111 <= 0.33
|   |   |   |   |   |   |   |   |   |   |   |   |   |   PCh012 <= 0.87: dup (2.0)
|   |   |   |   |   |   |   |   |   |   |   |   |   |   PCh012 > 0.87
|   |   |   |   |   |   |   |   |   |   |   |   |   |   |   PCh082 <= 5.38: non (17.0)
|   |   |   |   |   |   |   |   |   |   |   |   |   |   |   PCh082 > 5.38
|   |   |   |   |   |   |   |   |   |   |   |   |   |   |   |   bmfu <= 3.77: non (3.0)
|   |   |   |   |   |   |   |   |   |   |   |   |   |   |   |   bmfu > 3.77: dup (2.0)
|   |   |   |   |   |   |   |   |   |   |   |   |   PCh111 > 0.33
|   |   |   |   |   |   |   |   |   |   |   |   |   |   bmfu <= 6.94: dup (2.0)
|   |   |   |   |   |   |   |   |   |   |   |   |   |   bmfu > 6.94: non (2.0)
|   |   |   |   |   |   |   |   |   |   |   PCh061 > 2.06
|   |   |   |   |   |   |   |   |   |   |   |   bmfu <= 3.56
|   |   |   |   |   |   |   |   |   |   |   |   |   PCh012 <= 2.26: non (7.0/1.0)
|   |   |   |   |   |   |   |   |   |   |   |   |   PCh012 > 2.26: dup (2.0)
|   |   |   |   |   |   |   |   |   |   |   |   bmfu > 3.56: dup (34.0/1.0)
|   |   |   |   |   |   |   PCh032 > 8.94
|   |   |   |   |   |   |   |   PCh101 <= 0.14
|   |   |   |   |   |   |   |   |   PCh061 <= 1.12: non (3.0)
|   |   |   |   |   |   |   |   |   PCh061 > 1.12: dup (3.0)
|   |   |   |   |   |   |   |   PCh101 > 0.14: non (8.0)
|   |   |   |   PCh091 > 3.63
|   |   |   |   |   vers <= 0
|   |   |   |   |   |   bmfu <= 7.27
|   |   |   |   |   |   |   PCh012 <= 0.45: dup (2.0)
|   |   |   |   |   |   |   PCh012 > 0.45: non (18.0)
|   |   |   |   |   |   bmfu > 7.27: dup (3.0)
|   |   |   |   |   vers > 0: dup (3.0)
|   |   |   PCh011 > 0.21
|   |   |   |   PCh042 <= 2.85
|   |   |   |   |   PCh092 <= 2.11
|   |   |   |   |   |   cosine_similarity <= 0.703: non (8.0/1.0)
|   |   |   |   |   |   cosine_similarity > 0.703
|   |   |   |   |   |   |   PCh031 <= 2.72
|   |   |   |   |   |   |   |   PCh122 <= 0.76: non (9.0)
|   |   |   |   |   |   |   |   PCh122 > 0.76
|   |   |   |   |   |   |   |   |   PCh122 <= 1.66: dup (7.0)
|   |   |   |   |   |   |   |   |   PCh122 > 1.66: non (2.0)
|   |   |   |   |   |   |   PCh031 > 2.72
|   |   |   |   |   |   |   |   PCh122 <= 1.54
|   |   |   |   |   |   |   |   |   PCh082 <= 1.59
|   |   |   |   |   |   |   |   |   |   PCh052 <= 0.75
|   |   |   |   |   |   |   |   |   |   |   bmfu <= 2.73: non (3.0)
|   |   |   |   |   |   |   |   |   |   |   bmfu > 2.73
|   |   |   |   |   |   |   |   |   |   |   |   type <= 0: dup (5.0)
|   |   |   |   |   |   |   |   |   |   |   |   type > 0
|   |   |   |   |   |   |   |   |   |   |   |   |   PCh021 <= 8.75: dup (15.0)
|   |   |   |   |   |   |   |   |   |   |   |   |   PCh021 > 8.75: non (2.0)
|   |   |   |   |   |   |   |   |   |   PCh052 > 0.75: dup (22.0)
|   |   |   |   |   |   |   |   |   PCh082 > 1.59
|   |   |   |   |   |   |   |   |   |   PCh051 <= 3.44: non (9.0)
|   |   |   |   |   |   |   |   |   |   PCh051 > 3.44: dup (2.0)
|   |   |   |   |   |   |   |   PCh122 > 1.54: dup (63.0)
|   |   |   |   |   PCh092 > 2.11: non (12.0)
|   |   |   |   PCh042 > 2.85
|   |   |   |   |   PCh071 <= 1.44
|   |   |   |   |   |   PCh051 <= 0.84
|   |   |   |   |   |   |   bmfu <= 4.16: non (37.0/2.0)
|   |   |   |   |   |   |   bmfu > 4.16
|   |   |   |   |   |   |   |   PCh122 <= 2.55
|   |   |   |   |   |   |   |   |   PCh122 <= 1.18: dup (3.0/1.0)
|   |   |   |   |   |   |   |   |   PCh122 > 1.18: non (6.0)
|   |   |   |   |   |   |   |   PCh122 > 2.55: dup (15.0/1.0)
|   |   |   |   |   |   PCh051 > 0.84
|   |   |   |   |   |   |   PCh032 <= 3.01: non (14.0/1.0)
|   |   |   |   |   |   |   PCh032 > 3.01
|   |   |   |   |   |   |   |   PCh031 <= 2.25
|   |   |   |   |   |   |   |   |   PCh031 <= 0.96: dup (3.0)
|   |   |   |   |   |   |   |   |   PCh031 > 0.96: non (7.0)
|   |   |   |   |   |   |   |   PCh031 > 2.25
|   |   |   |   |   |   |   |   |   PCh011 <= 1.44: dup (97.0/2.0)
|   |   |   |   |   |   |   |   |   PCh011 > 1.44
|   |   |   |   |   |   |   |   |   |   PCh041 <= 5.29: non (4.0)
|   |   |   |   |   |   |   |   |   |   PCh041 > 5.29: dup (10.0)
|   |   |   |   |   PCh071 > 1.44
|   |   |   |   |   |   bmfu <= 3.67
|   |   |   |   |   |   |   type <= 0
|   |   |   |   |   |   |   |   PCh072 <= 3.19
|   |   |   |   |   |   |   |   |   PCh011 <= 2.75
|   |   |   |   |   |   |   |   |   |   PCh122 <= 3.39: non (12.0/1.0)
|   |   |   |   |   |   |   |   |   |   PCh122 > 3.39: dup (3.0)
|   |   |   |   |   |   |   |   |   PCh011 > 2.75: dup (19.0/1.0)
|   |   |   |   |   |   |   |   PCh072 > 3.19
|   |   |   |   |   |   |   |   |   PCh022 <= 8.86
|   |   |   |   |   |   |   |   |   |   PCh082 <= 7.74
|   |   |   |   |   |   |   |   |   |   |   PCh022 <= 7.25: non (38.0/2.0)
|   |   |   |   |   |   |   |   |   |   |   PCh022 > 7.25
|   |   |   |   |   |   |   |   |   |   |   |   PCh022 <= 8.23
|   |   |   |   |   |   |   |   |   |   |   |   |   PCh112 <= 0.77: dup (7.0/1.0)
|   |   |   |   |   |   |   |   |   |   |   |   |   PCh112 > 0.77: non (5.0/1.0)
|   |   |   |   |   |   |   |   |   |   |   |   PCh022 > 8.23: non (8.0)
|   |   |   |   |   |   |   |   |   |   PCh082 > 7.74: dup (6.0)
|   |   |   |   |   |   |   |   |   PCh022 > 8.86: non (60.0)
|   |   |   |   |   |   |   type > 0
|   |   |   |   |   |   |   |   PCh122 <= 1.04
|   |   |   |   |   |   |   |   |   PCh082 <= 3.92
|   |   |   |   |   |   |   |   |   |   PCh062 <= 0.42: dup (3.0)
|   |   |   |   |   |   |   |   |   |   PCh062 > 0.42
|   |   |   |   |   |   |   |   |   |   |   PCh011 <= 1.09
|   |   |   |   |   |   |   |   |   |   |   |   PCh112 <= 0.22
|   |   |   |   |   |   |   |   |   |   |   |   |   PCh052 <= 0.3: non (2.0)
|   |   |   |   |   |   |   |   |   |   |   |   |   PCh052 > 0.3: dup (4.0)
|   |   |   |   |   |   |   |   |   |   |   |   PCh112 > 0.22: non (2.0)
|   |   |   |   |   |   |   |   |   |   |   PCh011 > 1.09: non (29.0)
|   |   |   |   |   |   |   |   |   PCh082 > 3.92: dup (5.0)
|   |   |   |   |   |   |   |   PCh122 > 1.04
|   |   |   |   |   |   |   |   |   PCh092 <= 5.3
|   |   |   |   |   |   |   |   |   |   PCh082 <= 6.65
|   |   |   |   |   |   |   |   |   |   |   bmfb <= 0.04
|   |   |   |   |   |   |   |   |   |   |   |   PCh112 <= 0.43
|   |   |   |   |   |   |   |   |   |   |   |   |   vers <= 0.34
|   |   |   |   |   |   |   |   |   |   |   |   |   |   PCh012 <= 1.54
|   |   |   |   |   |   |   |   |   |   |   |   |   |   |   PCh052 <= 1.05: non (14.0/1.0)
|   |   |   |   |   |   |   |   |   |   |   |   |   |   |   PCh052 > 1.05
|   |   |   |   |   |   |   |   |   |   |   |   |   |   |   |   PCh042 <= 6.75: dup (6.0)
|   |   |   |   |   |   |   |   |   |   |   |   |   |   |   |   PCh042 > 6.75
|   |   |   |   |   |   |   |   |   |   |   |   |   |   |   |   |   PCh082 <= 4.6: non (4.0)
|   |   |   |   |   |   |   |   |   |   |   |   |   |   |   |   |   PCh082 > 4.6: dup (2.0)
|   |   |   |   |   |   |   |   |   |   |   |   |   |   PCh012 > 1.54
|   |   |   |   |   |   |   |   |   |   |   |   |   |   |   PCh112 <= 0.42: non (46.0)
|   |   |   |   |   |   |   |   |   |   |   |   |   |   |   PCh112 > 0.42: dup (3.0/1.0)
|   |   |   |   |   |   |   |   |   |   |   |   |   vers > 0.34
|   |   |   |   |   |   |   |   |   |   |   |   |   |   PCh052 <= 1.04: non (3.0)
|   |   |   |   |   |   |   |   |   |   |   |   |   |   PCh052 > 1.04: dup (4.0)
|   |   |   |   |   |   |   |   |   |   |   |   PCh112 > 0.43
|   |   |   |   |   |   |   |   |   |   |   |   |   bmfu <= 3.57: non (158.0/3.0)
|   |   |   |   |   |   |   |   |   |   |   |   |   bmfu > 3.57
|   |   |   |   |   |   |   |   |   |   |   |   |   |   PCh031 <= 5.63: non (5.0)
|   |   |   |   |   |   |   |   |   |   |   |   |   |   PCh031 > 5.63: dup (5.0/1.0)
|   |   |   |   |   |   |   |   |   |   |   bmfb > 0.04: non (376.0/8.0)
|   |   |   |   |   |   |   |   |   |   PCh082 > 6.65
|   |   |   |   |   |   |   |   |   |   |   PCh051 <= 2.7
|   |   |   |   |   |   |   |   |   |   |   |   PCh072 <= 7.1
|   |   |   |   |   |   |   |   |   |   |   |   |   PCh122 <= 5.84
|   |   |   |   |   |   |   |   |   |   |   |   |   |   PCh031 <= 6.08
|   |   |   |   |   |   |   |   |   |   |   |   |   |   |   PCh101 <= 0.66: dup (2.0)
|   |   |   |   |   |   |   |   |   |   |   |   |   |   |   PCh101 > 0.66: non (16.0)
|   |   |   |   |   |   |   |   |   |   |   |   |   |   PCh031 > 6.08
|   |   |   |   |   |   |   |   |   |   |   |   |   |   |   PCh022 <= 10.05: dup (6.0)
|   |   |   |   |   |   |   |   |   |   |   |   |   |   |   PCh022 > 10.05: non (4.0/1.0)
|   |   |   |   |   |   |   |   |   |   |   |   |   PCh122 > 5.84: dup (9.0)
|   |   |   |   |   |   |   |   |   |   |   |   PCh072 > 7.1: non (15.0)
|   |   |   |   |   |   |   |   |   |   |   PCh051 > 2.7: non (24.0)
|   |   |   |   |   |   |   |   |   PCh092 > 5.3: non (198.0)
|   |   |   |   |   |   bmfu > 3.67
|   |   |   |   |   |   |   type <= 0
|   |   |   |   |   |   |   |   PCh071 <= 8.13
|   |   |   |   |   |   |   |   |   PCh042 <= 10.81
|   |   |   |   |   |   |   |   |   |   PCh032 <= 8.03
|   |   |   |   |   |   |   |   |   |   |   PCh031 <= 3.77
|   |   |   |   |   |   |   |   |   |   |   |   PCh031 <= 2.4: dup (2.0)
|   |   |   |   |   |   |   |   |   |   |   |   PCh031 > 2.4: non (8.0)
|   |   |   |   |   |   |   |   |   |   |   PCh031 > 3.77
|   |   |   |   |   |   |   |   |   |   |   |   PCh022 <= 8.9
|   |   |   |   |   |   |   |   |   |   |   |   |   PCh052 <= 1.46
|   |   |   |   |   |   |   |   |   |   |   |   |   |   PCh072 <= 2.42: dup (17.0/1.0)
|   |   |   |   |   |   |   |   |   |   |   |   |   |   PCh072 > 2.42
|   |   |   |   |   |   |   |   |   |   |   |   |   |   |   vers <= 0.09
|   |   |   |   |   |   |   |   |   |   |   |   |   |   |   |   PCh041 <= 8.38
|   |   |   |   |   |   |   |   |   |   |   |   |   |   |   |   |   PCh011 <= 2.11: non (2.0)
|   |   |   |   |   |   |   |   |   |   |   |   |   |   |   |   |   PCh011 > 2.11: dup (2.0)
|   |   |   |   |   |   |   |   |   |   |   |   |   |   |   |   PCh041 > 8.38: non (11.0)
|   |   |   |   |   |   |   |   |   |   |   |   |   |   |   vers > 0.09
|   |   |   |   |   |   |   |   |   |   |   |   |   |   |   |   bmfu <= 7.19: non (2.0)
|   |   |   |   |   |   |   |   |   |   |   |   |   |   |   |   bmfu > 7.19: dup (4.0)
|   |   |   |   |   |   |   |   |   |   |   |   |   PCh052 > 1.46
|   |   |   |   |   |   |   |   |   |   |   |   |   |   PCh021 <= 4.7
|   |   |   |   |   |   |   |   |   |   |   |   |   |   |   PCh031 <= 4.38: dup (3.0)
|   |   |   |   |   |   |   |   |   |   |   |   |   |   |   PCh031 > 4.38: non (4.0)
|   |   |   |   |   |   |   |   |   |   |   |   |   |   PCh021 > 4.7: dup (100.0/5.0)
|   |   |   |   |   |   |   |   |   |   |   |   PCh022 > 8.9
|   |   |   |   |   |   |   |   |   |   |   |   |   bmfu <= 5.98: non (7.0)
|   |   |   |   |   |   |   |   |   |   |   |   |   bmfu > 5.98: dup (3.0/1.0)
|   |   |   |   |   |   |   |   |   |   PCh032 > 8.03
|   |   |   |   |   |   |   |   |   |   |   PCh022 <= 9.68: non (11.0)
|   |   |   |   |   |   |   |   |   |   |   PCh022 > 9.68: dup (3.0)
|   |   |   |   |   |   |   |   |   PCh042 > 10.81
|   |   |   |   |   |   |   |   |   |   PCh011 <= 4.98
|   |   |   |   |   |   |   |   |   |   |   PCh111 <= 1.79
|   |   |   |   |   |   |   |   |   |   |   |   bmfu <= 7.82: non (41.0/2.0)
|   |   |   |   |   |   |   |   |   |   |   |   bmfu > 7.82
|   |   |   |   |   |   |   |   |   |   |   |   |   PCh091 <= 4.18: dup (7.0)
|   |   |   |   |   |   |   |   |   |   |   |   |   PCh091 > 4.18: non (8.0)
|   |   |   |   |   |   |   |   |   |   |   PCh111 > 1.79: dup (3.0)
|   |   |   |   |   |   |   |   |   |   PCh011 > 4.98: dup (6.0)
|   |   |   |   |   |   |   |   PCh071 > 8.13: non (21.0/1.0)
|   |   |   |   |   |   |   type > 0
|   |   |   |   |   |   |   |   vers <= 0.22
|   |   |   |   |   |   |   |   |   PCh121 <= 1.1
|   |   |   |   |   |   |   |   |   |   PCh042 <= 7.47
|   |   |   |   |   |   |   |   |   |   |   PCh122 <= 1.41
|   |   |   |   |   |   |   |   |   |   |   |   PCh101 <= 0.87: dup (4.0)
|   |   |   |   |   |   |   |   |   |   |   |   PCh101 > 0.87
|   |   |   |   |   |   |   |   |   |   |   |   |   PCh031 <= 3.91: non (4.0)
|   |   |   |   |   |   |   |   |   |   |   |   |   PCh031 > 3.91: dup (2.0)
|   |   |   |   |   |   |   |   |   |   |   PCh122 > 1.41: non (12.0)
|   |   |   |   |   |   |   |   |   |   PCh042 > 7.47
|   |   |   |   |   |   |   |   |   |   |   PCh092 <= 6.06: dup (24.0)
|   |   |   |   |   |   |   |   |   |   |   PCh092 > 6.06: non (6.0/1.0)
|   |   |   |   |   |   |   |   |   PCh121 > 1.1
|   |   |   |   |   |   |   |   |   |   bmfb <= 0.05
|   |   |   |   |   |   |   |   |   |   |   PCh072 <= 3.33
|   |   |   |   |   |   |   |   |   |   |   |   PCh031 <= 4.9
|   |   |   |   |   |   |   |   |   |   |   |   |   PCh091 <= 2.76: dup (7.0)
|   |   |   |   |   |   |   |   |   |   |   |   |   PCh091 > 2.76: non (5.0)
|   |   |   |   |   |   |   |   |   |   |   |   PCh031 > 4.9: dup (22.0)
|   |   |   |   |   |   |   |   |   |   |   PCh072 > 3.33
|   |   |   |   |   |   |   |   |   |   |   |   PCh021 <= 7.96
|   |   |   |   |   |   |   |   |   |   |   |   |   PCh032 <= 9.62
|   |   |   |   |   |   |   |   |   |   |   |   |   |   PCh081 <= 4.74
|   |   |   |   |   |   |   |   |   |   |   |   |   |   |   vers <= 0.09
|   |   |   |   |   |   |   |   |   |   |   |   |   |   |   |   PCh122 <= 4.99
|   |   |   |   |   |   |   |   |   |   |   |   |   |   |   |   |   PCh121 <= 3.25: non (16.0/1.0)
|   |   |   |   |   |   |   |   |   |   |   |   |   |   |   |   |   PCh121 > 3.25
|   |   |   |   |   |   |   |   |   |   |   |   |   |   |   |   |   |   PCh102 <= 1.95: dup (5.0)
|   |   |   |   |   |   |   |   |   |   |   |   |   |   |   |   |   |   PCh102 > 1.95: non (3.0)
|   |   |   |   |   |   |   |   |   |   |   |   |   |   |   |   PCh122 > 4.99: dup (9.0/1.0)
|   |   |   |   |   |   |   |   |   |   |   |   |   |   |   vers > 0.09: dup (2.0)
|   |   |   |   |   |   |   |   |   |   |   |   |   |   PCh081 > 4.74: dup (14.0)
|   |   |   |   |   |   |   |   |   |   |   |   |   PCh032 > 9.62: non (16.0/1.0)
|   |   |   |   |   |   |   |   |   |   |   |   PCh021 > 7.96: non (36.0/2.0)
|   |   |   |   |   |   |   |   |   |   bmfb > 0.05
|   |   |   |   |   |   |   |   |   |   |   PCh051 <= 3.85
|   |   |   |   |   |   |   |   |   |   |   |   PCh082 <= 4.96
|   |   |   |   |   |   |   |   |   |   |   |   |   bmfu <= 18.07
|   |   |   |   |   |   |   |   |   |   |   |   |   |   PCh031 <= 3.84: non (183.0/2.0)
|   |   |   |   |   |   |   |   |   |   |   |   |   |   PCh031 > 3.84
|   |   |   |   |   |   |   |   |   |   |   |   |   |   |   PCh091 <= 4.48
|   |   |   |   |   |   |   |   |   |   |   |   |   |   |   |   PCh061 <= 4.25
|   |   |   |   |   |   |   |   |   |   |   |   |   |   |   |   |   vers <= 0.09
|   |   |   |   |   |   |   |   |   |   |   |   |   |   |   |   |   |   PCh042 <= 4.68
|   |   |   |   |   |   |   |   |   |   |   |   |   |   |   |   |   |   |   PCh052 <= 1.12
|   |   |   |   |   |   |   |   |   |   |   |   |   |   |   |   |   |   |   |   PCh091 <= 4.39: non (10.0)
|   |   |   |   |   |   |   |   |   |   |   |   |   |   |   |   |   |   |   |   PCh091 > 4.39: dup (2.0)
|   |   |   |   |   |   |   |   |   |   |   |   |   |   |   |   |   |   |   PCh052 > 1.12: dup (7.0/1.0)
|   |   |   |   |   |   |   |   |   |   |   |   |   |   |   |   |   |   PCh042 > 4.68
|   |   |   |   |   |   |   |   |   |   |   |   |   |   |   |   |   |   |   PCh032 <= 6.78
|   |   |   |   |   |   |   |   |   |   |   |   |   |   |   |   |   |   |   |   cosine_similarity <= 0.91
|   |   |   |   |   |   |   |   |   |   |   |   |   |   |   |   |   |   |   |   |   PCh052 <= 0.77: non (11.0)
|   |   |   |   |   |   |   |   |   |   |   |   |   |   |   |   |   |   |   |   |   PCh052 > 0.77: dup (5.0/1.0)
|   |   |   |   |   |   |   |   |   |   |   |   |   |   |   |   |   |   |   |   cosine_similarity > 0.91: non (138.0/3.0)
|   |   |   |   |   |   |   |   |   |   |   |   |   |   |   |   |   |   |   PCh032 > 6.78
|   |   |   |   |   |   |   |   |   |   |   |   |   |   |   |   |   |   |   |   bmfu <= 5.77: non (13.0/1.0)
|   |   |   |   |   |   |   |   |   |   |   |   |   |   |   |   |   |   |   |   bmfu > 5.77: dup (6.0)
|   |   |   |   |   |   |   |   |   |   |   |   |   |   |   |   |   vers > 0.09
|   |   |   |   |   |   |   |   |   |   |   |   |   |   |   |   |   |   PCh082 <= 4.72
|   |   |   |   |   |   |   |   |   |   |   |   |   |   |   |   |   |   |   PCh011 <= 0.8: dup (2.0)
|   |   |   |   |   |   |   |   |   |   |   |   |   |   |   |   |   |   |   PCh011 > 0.8: non (16.0/1.0)
|   |   |   |   |   |   |   |   |   |   |   |   |   |   |   |   |   |   PCh082 > 4.72: dup (3.0)
|   |   |   |   |   |   |   |   |   |   |   |   |   |   |   |   PCh061 > 4.25
|   |   |   |   |   |   |   |   |   |   |   |   |   |   |   |   |   vers <= 0.05
|   |   |   |   |   |   |   |   |   |   |   |   |   |   |   |   |   |   cosine_similarity <= 0.975
|   |   |   |   |   |   |   |   |   |   |   |   |   |   |   |   |   |   |   bmfu <= 4.58: non (5.0)
|   |   |   |   |   |   |   |   |   |   |   |   |   |   |   |   |   |   |   bmfu > 4.58
|   |   |   |   |   |   |   |   |   |   |   |   |   |   |   |   |   |   |   |   PCh022 <= 5.88
|   |   |   |   |   |   |   |   |   |   |   |   |   |   |   |   |   |   |   |   |   PCh061 <= 4.44: dup (4.0)
|   |   |   |   |   |   |   |   |   |   |   |   |   |   |   |   |   |   |   |   |   PCh061 > 4.44
|   |   |   |   |   |   |   |   |   |   |   |   |   |   |   |   |   |   |   |   |   |   PCh052 <= 1.54: non (9.0)
|   |   |   |   |   |   |   |   |   |   |   |   |   |   |   |   |   |   |   |   |   |   PCh052 > 1.54: dup (4.0/1.0)
|   |   |   |   |   |   |   |   |   |   |   |   |   |   |   |   |   |   |   |   PCh022 > 5.88: dup (12.0)
|   |   |   |   |   |   |   |   |   |   |   |   |   |   |   |   |   |   cosine_similarity > 0.975: non (7.0)
|   |   |   |   |   |   |   |   |   |   |   |   |   |   |   |   |   vers > 0.05: non (6.0)
|   |   |   |   |   |   |   |   |   |   |   |   |   |   |   PCh091 > 4.48
|   |   |   |   |   |   |   |   |   |   |   |   |   |   |   |   PCh031 <= 8.2: non (193.0/2.0)
|   |   |   |   |   |   |   |   |   |   |   |   |   |   |   |   PCh031 > 8.2
|   |   |   |   |   |   |   |   |   |   |   |   |   |   |   |   |   PCh112 <= 2.21
|   |   |   |   |   |   |   |   |   |   |   |   |   |   |   |   |   |   PCh011 <= 2.48
|   |   |   |   |   |   |   |   |   |   |   |   |   |   |   |   |   |   |   PCh032 <= 6.25: dup (3.0)
|   |   |   |   |   |   |   |   |   |   |   |   |   |   |   |   |   |   |   PCh032 > 6.25: non (4.0/1.0)
|   |   |   |   |   |   |   |   |   |   |   |   |   |   |   |   |   |   PCh011 > 2.48: non (34.0)
|   |   |   |   |   |   |   |   |   |   |   |   |   |   |   |   |   PCh112 > 2.21: dup (3.0)
|   |   |   |   |   |   |   |   |   |   |   |   |   bmfu > 18.07
|   |   |   |   |   |   |   |   |   |   |   |   |   |   cosine_similarity <= 0.963: dup (5.0)
|   |   |   |   |   |   |   |   |   |   |   |   |   |   cosine_similarity > 0.963
|   |   |   |   |   |   |   |   |   |   |   |   |   |   |   PCh021 <= 7.18
|   |   |   |   |   |   |   |   |   |   |   |   |   |   |   |   PCh112 <= 0.36
|   |   |   |   |   |   |   |   |   |   |   |   |   |   |   |   |   PCh052 <= 1.77: non (8.0/1.0)
|   |   |   |   |   |   |   |   |   |   |   |   |   |   |   |   |   PCh052 > 1.77: dup (4.0)
|   |   |   |   |   |   |   |   |   |   |   |   |   |   |   |   PCh112 > 0.36: non (17.0)
|   |   |   |   |   |   |   |   |   |   |   |   |   |   |   PCh021 > 7.18
|   |   |   |   |   |   |   |   |   |   |   |   |   |   |   |   PCh091 <= 6.64: dup (9.0)
|   |   |   |   |   |   |   |   |   |   |   |   |   |   |   |   PCh091 > 6.64: non (2.0)
|   |   |   |   |   |   |   |   |   |   |   |   PCh082 > 4.96
|   |   |   |   |   |   |   |   |   |   |   |   |   PCh092 <= 4.49
|   |   |   |   |   |   |   |   |   |   |   |   |   |   PCh091 <= 5.84
|   |   |   |   |   |   |   |   |   |   |   |   |   |   |   PCh071 <= 7.49
|   |   |   |   |   |   |   |   |   |   |   |   |   |   |   |   PCh061 <= 3.4
|   |   |   |   |   |   |   |   |   |   |   |   |   |   |   |   |   PCh071 <= 2.47: dup (7.0)
|   |   |   |   |   |   |   |   |   |   |   |   |   |   |   |   |   PCh071 > 2.47
|   |   |   |   |   |   |   |   |   |   |   |   |   |   |   |   |   |   PCh031 <= 4.51: non (31.0/1.0)
|   |   |   |   |   |   |   |   |   |   |   |   |   |   |   |   |   |   PCh031 > 4.51
|   |   |   |   |   |   |   |   |   |   |   |   |   |   |   |   |   |   |   PCh092 <= 2.39: dup (5.0)
|   |   |   |   |   |   |   |   |   |   |   |   |   |   |   |   |   |   |   PCh092 > 2.39
|   |   |   |   |   |   |   |   |   |   |   |   |   |   |   |   |   |   |   |   PCh072 <= 3.17: dup (3.0)
|   |   |   |   |   |   |   |   |   |   |   |   |   |   |   |   |   |   |   |   PCh072 > 3.17
|   |   |   |   |   |   |   |   |   |   |   |   |   |   |   |   |   |   |   |   |   bmfu <= 7.42: non (25.0/1.0)
|   |   |   |   |   |   |   |   |   |   |   |   |   |   |   |   |   |   |   |   |   bmfu > 7.42
|   |   |   |   |   |   |   |   |   |   |   |   |   |   |   |   |   |   |   |   |   |   PCh082 <= 6.62
|   |   |   |   |   |   |   |   |   |   |   |   |   |   |   |   |   |   |   |   |   |   |   PCh111 <= 0.92: non (13.0/1.0)
|   |   |   |   |   |   |   |   |   |   |   |   |   |   |   |   |   |   |   |   |   |   |   PCh111 > 0.92: dup (3.0)
|   |   |   |   |   |   |   |   |   |   |   |   |   |   |   |   |   |   |   |   |   |   PCh082 > 6.62: dup (6.0)
|   |   |   |   |   |   |   |   |   |   |   |   |   |   |   |   PCh061 > 3.4
|   |   |   |   |   |   |   |   |   |   |   |   |   |   |   |   |   PCh091 <= 1.35: non (4.0)
|   |   |   |   |   |   |   |   |   |   |   |   |   |   |   |   |   PCh091 > 1.35
|   |   |   |   |   |   |   |   |   |   |   |   |   |   |   |   |   |   PCh102 <= 3.29
|   |   |   |   |   |   |   |   |   |   |   |   |   |   |   |   |   |   |   bmfb <= 1.19: non (8.0/1.0)
|   |   |   |   |   |   |   |   |   |   |   |   |   |   |   |   |   |   |   bmfb > 1.19
|   |   |   |   |   |   |   |   |   |   |   |   |   |   |   |   |   |   |   |   PCh061 <= 4.27
|   |   |   |   |   |   |   |   |   |   |   |   |   |   |   |   |   |   |   |   |   PCh121 <= 3.56
|   |   |   |   |   |   |   |   |   |   |   |   |   |   |   |   |   |   |   |   |   |   PCh091 <= 3.78: dup (6.0)
|   |   |   |   |   |   |   |   |   |   |   |   |   |   |   |   |   |   |   |   |   |   PCh091 > 3.78: non (3.0)
|   |   |   |   |   |   |   |   |   |   |   |   |   |   |   |   |   |   |   |   |   PCh121 > 3.56: dup (21.0)
|   |   |   |   |   |   |   |   |   |   |   |   |   |   |   |   |   |   |   |   PCh061 > 4.27
|   |   |   |   |   |   |   |   |   |   |   |   |   |   |   |   |   |   |   |   |   PCh042 <= 8.61: non (6.0)
|   |   |   |   |   |   |   |   |   |   |   |   |   |   |   |   |   |   |   |   |   PCh042 > 8.61
|   |   |   |   |   |   |   |   |   |   |   |   |   |   |   |   |   |   |   |   |   |   PCh052 <= 3.4: dup (12.0/1.0)
|   |   |   |   |   |   |   |   |   |   |   |   |   |   |   |   |   |   |   |   |   |   PCh052 > 3.4: non (3.0)
|   |   |   |   |   |   |   |   |   |   |   |   |   |   |   |   |   |   PCh102 > 3.29: dup (12.0)
|   |   |   |   |   |   |   |   |   |   |   |   |   |   |   PCh071 > 7.49: dup (13.0)
|   |   |   |   |   |   |   |   |   |   |   |   |   |   PCh091 > 5.84
|   |   |   |   |   |   |   |   |   |   |   |   |   |   |   PCh101 <= 3.44: non (25.0)
|   |   |   |   |   |   |   |   |   |   |   |   |   |   |   PCh101 > 3.44
|   |   |   |   |   |   |   |   |   |   |   |   |   |   |   |   PCh012 <= 3.03: non (5.0)
|   |   |   |   |   |   |   |   |   |   |   |   |   |   |   |   PCh012 > 3.03: dup (2.0)
|   |   |   |   |   |   |   |   |   |   |   |   |   PCh092 > 4.49
|   |   |   |   |   |   |   |   |   |   |   |   |   |   PCh112 <= 2.76
|   |   |   |   |   |   |   |   |   |   |   |   |   |   |   PCh091 <= 2.77
|   |   |   |   |   |   |   |   |   |   |   |   |   |   |   |   PCh081 <= 2.85: non (18.0)
|   |   |   |   |   |   |   |   |   |   |   |   |   |   |   |   PCh081 > 2.85
|   |   |   |   |   |   |   |   |   |   |   |   |   |   |   |   |   PCh111 <= 0.51
|   |   |   |   |   |   |   |   |   |   |   |   |   |   |   |   |   |   PCh111 <= 0.2
|   |   |   |   |   |   |   |   |   |   |   |   |   |   |   |   |   |   |   PCh052 <= 2.62
|   |   |   |   |   |   |   |   |   |   |   |   |   |   |   |   |   |   |   |   PCh061 <= 3.08: dup (2.0)
|   |   |   |   |   |   |   |   |   |   |   |   |   |   |   |   |   |   |   |   PCh061 > 3.08: non (3.0)
|   |   |   |   |   |   |   |   |   |   |   |   |   |   |   |   |   |   |   PCh052 > 2.62: dup (8.0)
|   |   |   |   |   |   |   |   |   |   |   |   |   |   |   |   |   |   PCh111 > 0.2: dup (3.0)
|   |   |   |   |   |   |   |   |   |   |   |   |   |   |   |   |   PCh111 > 0.51: non (5.0)
|   |   |   |   |   |   |   |   |   |   |   |   |   |   |   PCh091 > 2.77
|   |   |   |   |   |   |   |   |   |   |   |   |   |   |   |   PCh081 <= 4.62: non (99.0/1.0)
|   |   |   |   |   |   |   |   |   |   |   |   |   |   |   |   PCh081 > 4.62
|   |   |   |   |   |   |   |   |   |   |   |   |   |   |   |   |   vers <= 0.09
|   |   |   |   |   |   |   |   |   |   |   |   |   |   |   |   |   |   bmfb <= 2.34: non (32.0)
|   |   |   |   |   |   |   |   |   |   |   |   |   |   |   |   |   |   bmfb > 2.34
|   |   |   |   |   |   |   |   |   |   |   |   |   |   |   |   |   |   |   PCh071 <= 9.49
|   |   |   |   |   |   |   |   |   |   |   |   |   |   |   |   |   |   |   |   PCh091 <= 5.78
|   |   |   |   |   |   |   |   |   |   |   |   |   |   |   |   |   |   |   |   |   PCh051 <= 1.7
|   |   |   |   |   |   |   |   |   |   |   |   |   |   |   |   |   |   |   |   |   |   PCh031 <= 5.28: non (4.0)
|   |   |   |   |   |   |   |   |   |   |   |   |   |   |   |   |   |   |   |   |   |   PCh031 > 5.28: dup (8.0)
|   |   |   |   |   |   |   |   |   |   |   |   |   |   |   |   |   |   |   |   |   PCh051 > 1.7
|   |   |   |   |   |   |   |   |   |   |   |   |   |   |   |   |   |   |   |   |   |   cosine_similarity <= 0.977: non (21.0)
|   |   |   |   |   |   |   |   |   |   |   |   |   |   |   |   |   |   |   |   |   |   cosine_similarity > 0.977
|   |   |   |   |   |   |   |   |   |   |   |   |   |   |   |   |   |   |   |   |   |   |   PCh031 <= 9.2
|   |   |   |   |   |   |   |   |   |   |   |   |   |   |   |   |   |   |   |   |   |   |   |   PCh101 <= 2.5
|   |   |   |   |   |   |   |   |   |   |   |   |   |   |   |   |   |   |   |   |   |   |   |   |   PCh062 <= 3.6: non (8.0)
|   |   |   |   |   |   |   |   |   |   |   |   |   |   |   |   |   |   |   |   |   |   |   |   |   PCh062 > 3.6
|   |   |   |   |   |   |   |   |   |   |   |   |   |   |   |   |   |   |   |   |   |   |   |   |   |   PCh072 <= 7.04
|   |   |   |   |   |   |   |   |   |   |   |   |   |   |   |   |   |   |   |   |   |   |   |   |   |   |   PCh081 <= 5.05: non (4.0/1.0)
|   |   |   |   |   |   |   |   |   |   |   |   |   |   |   |   |   |   |   |   |   |   |   |   |   |   |   PCh081 > 5.05: dup (7.0)
|   |   |   |   |   |   |   |   |   |   |   |   |   |   |   |   |   |   |   |   |   |   |   |   |   |   PCh072 > 7.04: non (11.0/1.0)
|   |   |   |   |   |   |   |   |   |   |   |   |   |   |   |   |   |   |   |   |   |   |   |   PCh101 > 2.5: non (19.0)
|   |   |   |   |   |   |   |   |   |   |   |   |   |   |   |   |   |   |   |   |   |   |   PCh031 > 9.2: dup (3.0)
|   |   |   |   |   |   |   |   |   |   |   |   |   |   |   |   |   |   |   |   PCh091 > 5.78: non (29.0)
|   |   |   |   |   |   |   |   |   |   |   |   |   |   |   |   |   |   |   PCh071 > 9.49: dup (6.0/1.0)
|   |   |   |   |   |   |   |   |   |   |   |   |   |   |   |   |   vers > 0.09: non (13.0)
|   |   |   |   |   |   |   |   |   |   |   |   |   |   PCh112 > 2.76
|   |   |   |   |   |   |   |   |   |   |   |   |   |   |   PCh112 <= 3.45
|   |   |   |   |   |   |   |   |   |   |   |   |   |   |   |   PCh102 <= 3.79
|   |   |   |   |   |   |   |   |   |   |   |   |   |   |   |   |   PCh012 <= 3.1: dup (2.0)
|   |   |   |   |   |   |   |   |   |   |   |   |   |   |   |   |   PCh012 > 3.1: non (8.0/1.0)
|   |   |   |   |   |   |   |   |   |   |   |   |   |   |   |   PCh102 > 3.79: dup (11.0)
|   |   |   |   |   |   |   |   |   |   |   |   |   |   |   PCh112 > 3.45: non (7.0)
|   |   |   |   |   |   |   |   |   |   |   PCh051 > 3.85
|   |   |   |   |   |   |   |   |   |   |   |   PCh072 <= 2.65: dup (8.0)
|   |   |   |   |   |   |   |   |   |   |   |   PCh072 > 2.65
|   |   |   |   |   |   |   |   |   |   |   |   |   PCh091 <= 7.32
|   |   |   |   |   |   |   |   |   |   |   |   |   |   PCh072 <= 5.36
|   |   |   |   |   |   |   |   |   |   |   |   |   |   |   PCh031 <= 9.17: non (26.0/1.0)
|   |   |   |   |   |   |   |   |   |   |   |   |   |   |   PCh031 > 9.17: dup (3.0)
|   |   |   |   |   |   |   |   |   |   |   |   |   |   PCh072 > 5.36
|   |   |   |   |   |   |   |   |   |   |   |   |   |   |   PCh081 <= 9.52
|   |   |   |   |   |   |   |   |   |   |   |   |   |   |   |   PCh051 <= 4.13: dup (12.0)
|   |   |   |   |   |   |   |   |   |   |   |   |   |   |   |   PCh051 > 4.13
|   |   |   |   |   |   |   |   |   |   |   |   |   |   |   |   |   vers <= 0
|   |   |   |   |   |   |   |   |   |   |   |   |   |   |   |   |   |   PCh012 <= 2.66: non (4.0)
|   |   |   |   |   |   |   |   |   |   |   |   |   |   |   |   |   |   PCh012 > 2.66
|   |   |   |   |   |   |   |   |   |   |   |   |   |   |   |   |   |   |   bmfu <= 15.53
|   |   |   |   |   |   |   |   |   |   |   |   |   |   |   |   |   |   |   |   bmfu <= 4.47: non (2.0)
|   |   |   |   |   |   |   |   |   |   |   |   |   |   |   |   |   |   |   |   bmfu > 4.47
|   |   |   |   |   |   |   |   |   |   |   |   |   |   |   |   |   |   |   |   |   PCh031 <= 5.92: non (3.0/1.0)
|   |   |   |   |   |   |   |   |   |   |   |   |   |   |   |   |   |   |   |   |   PCh031 > 5.92: dup (19.0)
|   |   |   |   |   |   |   |   |   |   |   |   |   |   |   |   |   |   |   bmfu > 15.53: non (6.0/1.0)
|   |   |   |   |   |   |   |   |   |   |   |   |   |   |   |   |   vers > 0: dup (2.0)
|   |   |   |   |   |   |   |   |   |   |   |   |   |   |   PCh081 > 9.52: non (5.0)
|   |   |   |   |   |   |   |   |   |   |   |   |   PCh091 > 7.32: non (22.0/1.0)
|   |   |   |   |   |   |   |   vers > 0.22
|   |   |   |   |   |   |   |   |   vers <= 0.83
|   |   |   |   |   |   |   |   |   |   PCh112 <= 0.11
|   |   |   |   |   |   |   |   |   |   |   PCh072 <= 7.3
|   |   |   |   |   |   |   |   |   |   |   |   PCh061 <= 4.91: dup (38.0)
|   |   |   |   |   |   |   |   |   |   |   |   PCh061 > 4.91
|   |   |   |   |   |   |   |   |   |   |   |   |   PCh042 <= 6.9: dup (5.0)
|   |   |   |   |   |   |   |   |   |   |   |   |   PCh042 > 6.9: non (5.0/1.0)
|   |   |   |   |   |   |   |   |   |   |   PCh072 > 7.3: non (4.0/1.0)
|   |   |   |   |   |   |   |   |   |   PCh112 > 0.11
|   |   |   |   |   |   |   |   |   |   |   PCh112 <= 0.39: non (11.0)
|   |   |   |   |   |   |   |   |   |   |   PCh112 > 0.39
|   |   |   |   |   |   |   |   |   |   |   |   PCh092 <= 5.79
|   |   |   |   |   |   |   |   |   |   |   |   |   prior <= 0.5: dup (7.0)
|   |   |   |   |   |   |   |   |   |   |   |   |   prior > 0.5
|   |   |   |   |   |   |   |   |   |   |   |   |   |   PCh032 <= 7.54
|   |   |   |   |   |   |   |   |   |   |   |   |   |   |   PCh022 <= 5.39
|   |   |   |   |   |   |   |   |   |   |   |   |   |   |   |   PCh122 <= 2.11: non (6.0/1.0)
|   |   |   |   |   |   |   |   |   |   |   |   |   |   |   |   PCh122 > 2.11: dup (17.0)
|   |   |   |   |   |   |   |   |   |   |   |   |   |   |   PCh022 > 5.39
|   |   |   |   |   |   |   |   |   |   |   |   |   |   |   |   PCh041 <= 8.08
|   |   |   |   |   |   |   |   |   |   |   |   |   |   |   |   |   PCh122 <= 2.76: non (6.0)
|   |   |   |   |   |   |   |   |   |   |   |   |   |   |   |   |   PCh122 > 2.76
|   |   |   |   |   |   |   |   |   |   |   |   |   |   |   |   |   |   PCh011 <= 3.41
|   |   |   |   |   |   |   |   |   |   |   |   |   |   |   |   |   |   |   PCh041 <= 5.58
|   |   |   |   |   |   |   |   |   |   |   |   |   |   |   |   |   |   |   |   PCh071 <= 4.08: dup (2.0)
|   |   |   |   |   |   |   |   |   |   |   |   |   |   |   |   |   |   |   |   PCh071 > 4.08: non (2.0)
|   |   |   |   |   |   |   |   |   |   |   |   |   |   |   |   |   |   |   PCh041 > 5.58: dup (11.0)
|   |   |   |   |   |   |   |   |   |   |   |   |   |   |   |   |   |   PCh011 > 3.41: non (3.0)
|   |   |   |   |   |   |   |   |   |   |   |   |   |   |   |   PCh041 > 8.08
|   |   |   |   |   |   |   |   |   |   |   |   |   |   |   |   |   PCh072 <= 3.64: dup (5.0/1.0)
|   |   |   |   |   |   |   |   |   |   |   |   |   |   |   |   |   PCh072 > 3.64
|   |   |   |   |   |   |   |   |   |   |   |   |   |   |   |   |   |   cosine_similarity <= 0.987: non (33.0/1.0)
|   |   |   |   |   |   |   |   |   |   |   |   |   |   |   |   |   |   cosine_similarity > 0.987: dup (3.0/1.0)
|   |   |   |   |   |   |   |   |   |   |   |   |   |   PCh032 > 7.54
|   |   |   |   |   |   |   |   |   |   |   |   |   |   |   vers <= 0.34
|   |   |   |   |   |   |   |   |   |   |   |   |   |   |   |   PCh082 <= 7.3: dup (25.0)
|   |   |   |   |   |   |   |   |   |   |   |   |   |   |   |   PCh082 > 7.3
|   |   |   |   |   |   |   |   |   |   |   |   |   |   |   |   |   PCh082 <= 7.55: non (2.0)
|   |   |   |   |   |   |   |   |   |   |   |   |   |   |   |   |   PCh082 > 7.55: dup (6.0)
|   |   |   |   |   |   |   |   |   |   |   |   |   |   |   vers > 0.34
|   |   |   |   |   |   |   |   |   |   |   |   |   |   |   |   PCh051 <= 2.45
|   |   |   |   |   |   |   |   |   |   |   |   |   |   |   |   |   PCh032 <= 9.18: non (2.0)
|   |   |   |   |   |   |   |   |   |   |   |   |   |   |   |   |   PCh032 > 9.18: dup (5.0)
|   |   |   |   |   |   |   |   |   |   |   |   |   |   |   |   PCh051 > 2.45: non (5.0)
|   |   |   |   |   |   |   |   |   |   |   |   PCh092 > 5.79
|   |   |   |   |   |   |   |   |   |   |   |   |   PCh071 <= 3.65: dup (2.0)
|   |   |   |   |   |   |   |   |   |   |   |   |   PCh071 > 3.65: non (17.0)
|   |   |   |   |   |   |   |   |   vers > 0.83
|   |   |   |   |   |   |   |   |   |   PCh091 <= 2.18
|   |   |   |   |   |   |   |   |   |   |   PCh031 <= 3.62: non (10.0/1.0)
|   |   |   |   |   |   |   |   |   |   |   PCh031 > 3.62
|   |   |   |   |   |   |   |   |   |   |   |   PCh091 <= 1.18: non (4.0/1.0)
|   |   |   |   |   |   |   |   |   |   |   |   PCh091 > 1.18: dup (11.0)
|   |   |   |   |   |   |   |   |   |   PCh091 > 2.18: non (83.0/14.0)
|   comp > 0
|   |   bmfu <= 2.84
|   |   |   bmfu <= 1.04
|   |   |   |   PCh082 <= 8.77
|   |   |   |   |   PCh072 <= 1.86
|   |   |   |   |   |   PCh112 <= 1.79
|   |   |   |   |   |   |   PCh031 <= 3.79
|   |   |   |   |   |   |   |   vers <= 0.17: non (2.0)
|   |   |   |   |   |   |   |   vers > 0.17: dup (2.0)
|   |   |   |   |   |   |   PCh031 > 3.79: non (13.0)
|   |   |   |   |   |   PCh112 > 1.79: dup (5.0)
|   |   |   |   |   PCh072 > 1.86: non (89.0/2.0)
|   |   |   |   PCh082 > 8.77
|   |   |   |   |   vers <= 0.2: non (2.0)
|   |   |   |   |   vers > 0.2: dup (4.0)
|   |   |   bmfu > 1.04
|   |   |   |   PCh012 <= 3.28
|   |   |   |   |   PCh112 <= 1.82
|   |   |   |   |   |   PCh072 <= 7.85
|   |   |   |   |   |   |   PCh091 <= 0.2: non (10.0)
|   |   |   |   |   |   |   PCh091 > 0.2
|   |   |   |   |   |   |   |   type <= 0
|   |   |   |   |   |   |   |   |   PCh091 <= 1.25: dup (5.0)
|   |   |   |   |   |   |   |   |   PCh091 > 1.25
|   |   |   |   |   |   |   |   |   |   PCh061 <= 5.04: non (10.0)
|   |   |   |   |   |   |   |   |   |   PCh061 > 5.04
|   |   |   |   |   |   |   |   |   |   |   bmfu <= 2.1: non (2.0)
|   |   |   |   |   |   |   |   |   |   |   bmfu > 2.1: dup (2.0)
|   |   |   |   |   |   |   |   type > 0
|   |   |   |   |   |   |   |   |   PCh122 <= 0.65: dup (15.0)
|   |   |   |   |   |   |   |   |   PCh122 > 0.65
|   |   |   |   |   |   |   |   |   |   PCh011 <= 2.71
|   |   |   |   |   |   |   |   |   |   |   PCh011 <= 1.23
|   |   |   |   |   |   |   |   |   |   |   |   PCh082 <= 1.82: non (6.0)
|   |   |   |   |   |   |   |   |   |   |   |   PCh082 > 1.82
|   |   |   |   |   |   |   |   |   |   |   |   |   bmfu <= 2.06
|   |   |   |   |   |   |   |   |   |   |   |   |   |   vers <= 0.33
|   |   |   |   |   |   |   |   |   |   |   |   |   |   |   PCh042 <= 6.51: dup (4.0)
|   |   |   |   |   |   |   |   |   |   |   |   |   |   |   PCh042 > 6.51: non (6.0/1.0)
|   |   |   |   |   |   |   |   |   |   |   |   |   |   vers > 0.33: non (3.0)
|   |   |   |   |   |   |   |   |   |   |   |   |   bmfu > 2.06: dup (13.0/1.0)
|   |   |   |   |   |   |   |   |   |   |   PCh011 > 1.23: non (16.0/1.0)
|   |   |   |   |   |   |   |   |   |   PCh011 > 2.71
|   |   |   |   |   |   |   |   |   |   |   bmfb <= 0.39
|   |   |   |   |   |   |   |   |   |   |   |   PCh122 <= 3.94: dup (15.0)
|   |   |   |   |   |   |   |   |   |   |   |   PCh122 > 3.94: non (2.0)
|   |   |   |   |   |   |   |   |   |   |   bmfb > 0.39: non (2.0)
|   |   |   |   |   |   PCh072 > 7.85: dup (15.0)
|   |   |   |   |   PCh112 > 1.82: non (16.0)
|   |   |   |   PCh012 > 3.28
|   |   |   |   |   PCh031 <= 9.73: non (31.0)
|   |   |   |   |   PCh031 > 9.73: dup (2.0)
|   |   bmfu > 2.84
|   |   |   PCh011 <= 4.61
|   |   |   |   prior <= 0.33: dup (26.0)
|   |   |   |   prior > 0.33
|   |   |   |   |   type <= 0
|   |   |   |   |   |   PCh012 <= 1.4: dup (19.0)
|   |   |   |   |   |   PCh012 > 1.4
|   |   |   |   |   |   |   PCh051 <= 1.35: dup (12.0/1.0)
|   |   |   |   |   |   |   PCh051 > 1.35
|   |   |   |   |   |   |   |   cosine_similarity <= 0.956: non (19.0/1.0)
|   |   |   |   |   |   |   |   cosine_similarity > 0.956
|   |   |   |   |   |   |   |   |   PCh061 <= 6.18: dup (8.0)
|   |   |   |   |   |   |   |   |   PCh061 > 6.18: non (3.0/1.0)
|   |   |   |   |   type > 0
|   |   |   |   |   |   vers <= 0.14
|   |   |   |   |   |   |   bmfu <= 5.78
|   |   |   |   |   |   |   |   bmfb <= 3.27
|   |   |   |   |   |   |   |   |   PCh032 <= 9.96: dup (155.0/28.0)
|   |   |   |   |   |   |   |   |   PCh032 > 9.96
|   |   |   |   |   |   |   |   |   |   bmfb <= 0.63: non (8.0)
|   |   |   |   |   |   |   |   |   |   bmfb > 0.63: dup (4.0/1.0)
|   |   |   |   |   |   |   |   bmfb > 3.27
|   |   |   |   |   |   |   |   |   PCh061 <= 6.02
|   |   |   |   |   |   |   |   |   |   PCh061 <= 1.97: dup (4.0)
|   |   |   |   |   |   |   |   |   |   PCh061 > 1.97
|   |   |   |   |   |   |   |   |   |   |   PCh121 <= 3.36: non (18.0)
|   |   |   |   |   |   |   |   |   |   |   PCh121 > 3.36
|   |   |   |   |   |   |   |   |   |   |   |   bmfb <= 5.26: non (2.0)
|   |   |   |   |   |   |   |   |   |   |   |   bmfb > 5.26: dup (2.0)
|   |   |   |   |   |   |   |   |   PCh061 > 6.02: dup (7.0)
|   |   |   |   |   |   |   bmfu > 5.78: dup (407.0/52.0)
|   |   |   |   |   |   vers > 0.14
|   |   |   |   |   |   |   cosine_similarity <= 0.934
|   |   |   |   |   |   |   |   PCh072 <= 1.77
|   |   |   |   |   |   |   |   |   PCh052 <= 0.94: dup (6.0)
|   |   |   |   |   |   |   |   |   PCh052 > 0.94: non (2.0)
|   |   |   |   |   |   |   |   PCh072 > 1.77: dup (140.0)
|   |   |   |   |   |   |   cosine_similarity > 0.934
|   |   |   |   |   |   |   |   PCh082 <= 7.24
|   |   |   |   |   |   |   |   |   PCh041 <= 11.98
|   |   |   |   |   |   |   |   |   |   PCh081 <= 4.06
|   |   |   |   |   |   |   |   |   |   |   PCh111 <= 0.63: non (12.0/1.0)
|   |   |   |   |   |   |   |   |   |   |   PCh111 > 0.63
|   |   |   |   |   |   |   |   |   |   |   |   PCh091 <= 3.69: dup (14.0)
|   |   |   |   |   |   |   |   |   |   |   |   PCh091 > 3.69: non (2.0)
|   |   |   |   |   |   |   |   |   |   PCh081 > 4.06
|   |   |   |   |   |   |   |   |   |   |   PCh091 <= 5.73: dup (39.0)
|   |   |   |   |   |   |   |   |   |   |   PCh091 > 5.73: non (3.0/1.0)
|   |   |   |   |   |   |   |   |   PCh041 > 11.98: non (4.0)
|   |   |   |   |   |   |   |   PCh082 > 7.24: dup (37.0)
|   |   |   PCh011 > 4.61
|   |   |   |   PCh051 <= 3.57
|   |   |   |   |   PCh061 <= 7.97: non (17.0/1.0)
|   |   |   |   |   PCh061 > 7.97: dup (2.0)
|   |   |   |   PCh051 > 3.57
|   |   |   |   |   PCh072 <= 2.6: non (3.0)
|   |   |   |   |   PCh072 > 2.6: dup (18.0/2.0)
cosine_similarity > 0.995
|   PCh022 <= 8.29
|   |   PCh102 <= 3.26
|   |   |   PCh112 <= 1.65
|   |   |   |   PCh111 <= 1.54
|   |   |   |   |   bmfb <= 59.43
|   |   |   |   |   |   PCh072 <= 7.16
|   |   |   |   |   |   |   PCh111 <= 1.03: dup (150.0/36.0)
|   |   |   |   |   |   |   PCh111 > 1.03
|   |   |   |   |   |   |   |   PCh112 <= 1.39: non (10.0/1.0)
|   |   |   |   |   |   |   |   PCh112 > 1.39: dup (3.0/1.0)
|   |   |   |   |   |   PCh072 > 7.16: non (9.0)
|   |   |   |   |   bmfb > 59.43
|   |   |   |   |   |   PCh041 <= 6.72
|   |   |   |   |   |   |   PCh071 <= 1.28
|   |   |   |   |   |   |   |   bmfb <= 79.17: non (4.0)
|   |   |   |   |   |   |   |   bmfb > 79.17: dup (4.0)
|   |   |   |   |   |   |   PCh071 > 1.28: dup (77.0/2.0)
|   |   |   |   |   |   PCh041 > 6.72
|   |   |   |   |   |   |   PCh061 <= 1.07: non (8.0/1.0)
|   |   |   |   |   |   |   PCh061 > 1.07
|   |   |   |   |   |   |   |   PCh121 <= 4.77: dup (67.0/14.0)
|   |   |   |   |   |   |   |   PCh121 > 4.77: non (5.0)
|   |   |   |   PCh111 > 1.54: dup (23.0)
|   |   |   PCh112 > 1.65
|   |   |   |   comp <= 0
|   |   |   |   |   PCh052 <= 1.61: dup (4.0)
|   |   |   |   |   PCh052 > 1.61
|   |   |   |   |   |   PCh031 <= 7.55
|   |   |   |   |   |   |   PCh022 <= 6.62
|   |   |   |   |   |   |   |   PCh112 <= 1.81: non (6.0)
|   |   |   |   |   |   |   |   PCh112 > 1.81: dup (3.0)
|   |   |   |   |   |   |   PCh022 > 6.62: non (14.0)
|   |   |   |   |   |   PCh031 > 7.55: dup (5.0/1.0)
|   |   |   |   comp > 0: dup (3.0)
|   |   PCh102 > 3.26: dup (36.0/1.0)
|   PCh022 > 8.29
|   |   PCh102 <= 2.36
|   |   |   PCh091 <= 4.56: dup (21.0)
|   |   |   PCh091 > 4.56
|   |   |   |   PCh091 <= 5.44: non (6.0)
|   |   |   |   PCh091 > 5.44: dup (5.0/1.0)
|   |   PCh102 > 2.36
|   |   |   PCh102 <= 3.81: dup (332.0)
|   |   |   PCh102 > 3.81
|   |   |   |   cosine_similarity <= 0.998: non (3.0)
|   |   |   |   cosine_similarity > 0.998: dup (23.0/1.0)

Number of Leaves  : 	375

Size of the tree : 	749


Time taken to build model: 4.41 seconds
Time taken to test model on training data: 0.27 seconds

=== Error on training data ===

Correctly Classified Instances       15449               97.7785 %
Incorrectly Classified Instances       351                2.2215 %
Kappa statistic                          0.9307
Mean absolute error                      0.0391
Root mean squared error                  0.1398
Relative absolute error                 12.2154 %
Root relative squared error             34.9518 %
Total Number of Instances            15800     


=== Confusion Matrix ===

     a     b   <-- classified as
  2991   169 |     a = dup
   182 12458 |     b = non



=== Stratified cross-validation ===

Correctly Classified Instances       14559               92.1456 %
Incorrectly Classified Instances      1241                7.8544 %
Kappa statistic                          0.7543
Mean absolute error                      0.0899
Root mean squared error                  0.2701
Relative absolute error                 28.0798 %
Root relative squared error             67.5174 %
Total Number of Instances            15800     


=== Confusion Matrix ===

     a     b   <-- classified as
  2535   625 |     a = dup
   616 12024 |     b = non

