
J48 pruned tree
------------------

cosine_similarity <= 0.992
|   comp <= 0
|   |   bmfu <= 2.37
|   |   |    quality2 <= 1.09
|   |   |   |   bmfu <= 0.87
|   |   |   |   |    quality2 <= 0.84: non (170.0)
|   |   |   |   |    quality2 > 0.84
|   |   |   |   |   |   vers <= 0.09
|   |   |   |   |   |   |    maintain1 <= 8.58
|   |   |   |   |   |   |   |    quality2 <= 1.08: non (29.0/1.0)
|   |   |   |   |   |   |   |    quality2 > 1.08
|   |   |   |   |   |   |   |   |    design2 <= 1.79: non (2.0)
|   |   |   |   |   |   |   |   |    design2 > 1.79: dup (3.0)
|   |   |   |   |   |   |    maintain1 > 8.58: dup (8.0/1.0)
|   |   |   |   |   |   vers > 0.09: non (23.0)
|   |   |   |   bmfu > 0.87
|   |   |   |   |    maintain1 <= 5.07
|   |   |   |   |   |    quality2 <= 1.08: non (22.0)
|   |   |   |   |   |    quality2 > 1.08: dup (4.0)
|   |   |   |   |    maintain1 > 5.07
|   |   |   |   |   |    maintain2 <= 0.33: non (3.0)
|   |   |   |   |   |    maintain2 > 0.33
|   |   |   |   |   |   |    quality2 <= 0.83
|   |   |   |   |   |   |   |    design2 <= 1.11: dup (4.0)
|   |   |   |   |   |   |   |    design2 > 1.11: non (4.0)
|   |   |   |   |   |   |    quality2 > 0.83: dup (25.0)
|   |   |    quality2 > 1.09
|   |   |   |   bmfu <= 0.88: non (5573.0/41.0)
|   |   |   |   bmfu > 0.88
|   |   |   |   |    quality1 <= 2.41
|   |   |   |   |   |    configuration1 <= 2.69
|   |   |   |   |   |   |   cosine_similarity <= 0.922
|   |   |   |   |   |   |   |    testing1 <= 3.14
|   |   |   |   |   |   |   |   |   cosine_similarity <= 0.456
|   |   |   |   |   |   |   |   |   |   bmfu <= 1.55: dup (4.0)
|   |   |   |   |   |   |   |   |   |   bmfu > 1.55: non (2.0)
|   |   |   |   |   |   |   |   |   cosine_similarity > 0.456: non (106.0/4.0)
|   |   |   |   |   |   |   |    testing1 > 3.14
|   |   |   |   |   |   |   |   |    design1 <= 1.74: non (7.0)
|   |   |   |   |   |   |   |   |    design1 > 1.74
|   |   |   |   |   |   |   |   |   |    design1 <= 2.75: dup (10.0)
|   |   |   |   |   |   |   |   |   |    design1 > 2.75: non (4.0)
|   |   |   |   |   |   |   cosine_similarity > 0.922
|   |   |   |   |   |   |   |   bmfb <= 0.09
|   |   |   |   |   |   |   |   |    eng1 <= 2.89
|   |   |   |   |   |   |   |   |   |    configuration2 <= 4.9: non (3.0/1.0)
|   |   |   |   |   |   |   |   |   |    configuration2 > 4.9: dup (26.0/1.0)
|   |   |   |   |   |   |   |   |    eng1 > 2.89: non (4.0)
|   |   |   |   |   |   |   |   bmfb > 0.09: non (11.0/3.0)
|   |   |   |   |   |    configuration1 > 2.69: non (133.0/5.0)
|   |   |   |   |    quality1 > 2.41
|   |   |   |   |   |    construction2 <= 3.66
|   |   |   |   |   |   |    SEmethods2 <= 8.87
|   |   |   |   |   |   |   |    process2 <= 1.44
|   |   |   |   |   |   |   |   |    maths2 <= 4.62
|   |   |   |   |   |   |   |   |   |    quality2 <= 1.34: dup (7.0/1.0)
|   |   |   |   |   |   |   |   |   |    quality2 > 1.34: non (29.0)
|   |   |   |   |   |   |   |   |    maths2 > 4.62: dup (9.0)
|   |   |   |   |   |   |   |    process2 > 1.44
|   |   |   |   |   |   |   |   |    testing2 <= 6.22
|   |   |   |   |   |   |   |   |   |    practice2 <= 1.21
|   |   |   |   |   |   |   |   |   |   |    practice2 <= 1.1: non (38.0/1.0)
|   |   |   |   |   |   |   |   |   |   |    practice2 > 1.1
|   |   |   |   |   |   |   |   |   |   |   |    requirements1 <= 12.32: dup (6.0)
|   |   |   |   |   |   |   |   |   |   |   |    requirements1 > 12.32: non (4.0)
|   |   |   |   |   |   |   |   |   |    practice2 > 1.21: non (438.0/5.0)
|   |   |   |   |   |   |   |   |    testing2 > 6.22
|   |   |   |   |   |   |   |   |   |    design2 <= 1.49: dup (9.0)
|   |   |   |   |   |   |   |   |   |    design2 > 1.49
|   |   |   |   |   |   |   |   |   |   |    practice2 <= 9.22
|   |   |   |   |   |   |   |   |   |   |   |    testing2 <= 6.25: dup (4.0/1.0)
|   |   |   |   |   |   |   |   |   |   |   |    testing2 > 6.25: non (80.0/2.0)
|   |   |   |   |   |   |   |   |   |   |    practice2 > 9.22: dup (5.0/1.0)
|   |   |   |   |   |   |    SEmethods2 > 8.87
|   |   |   |   |   |   |   |    testing2 <= 3.23: dup (21.0/1.0)
|   |   |   |   |   |   |   |    testing2 > 3.23: non (14.0)
|   |   |   |   |   |    construction2 > 3.66
|   |   |   |   |   |   |    design1 <= 1.24
|   |   |   |   |   |   |   |    design1 <= 1.07: non (31.0)
|   |   |   |   |   |   |   |    design1 > 1.07
|   |   |   |   |   |   |   |   |    construction1 <= 3.71: dup (8.0)
|   |   |   |   |   |   |   |   |    construction1 > 3.71: non (4.0)
|   |   |   |   |   |   |    design1 > 1.24
|   |   |   |   |   |   |   |   vers <= 0
|   |   |   |   |   |   |   |   |    testing1 <= 7.8
|   |   |   |   |   |   |   |   |   |    maths1 <= 9.21
|   |   |   |   |   |   |   |   |   |   |    economics1 <= 6.77: non (1110.0/17.0)
|   |   |   |   |   |   |   |   |   |   |    economics1 > 6.77
|   |   |   |   |   |   |   |   |   |   |   |    SEmethods2 <= 5.45
|   |   |   |   |   |   |   |   |   |   |   |   |    eng2 <= 8.64
|   |   |   |   |   |   |   |   |   |   |   |   |   |    practice2 <= 9.77
|   |   |   |   |   |   |   |   |   |   |   |   |   |   |    SEmethods2 <= 5.35: non (76.0/1.0)
|   |   |   |   |   |   |   |   |   |   |   |   |   |   |    SEmethods2 > 5.35: dup (3.0/1.0)
|   |   |   |   |   |   |   |   |   |   |   |   |   |    practice2 > 9.77: dup (2.0)
|   |   |   |   |   |   |   |   |   |   |   |   |    eng2 > 8.64: dup (5.0)
|   |   |   |   |   |   |   |   |   |   |   |    SEmethods2 > 5.45: non (141.0/4.0)
|   |   |   |   |   |   |   |   |   |    maths1 > 9.21
|   |   |   |   |   |   |   |   |   |   |    requirements1 <= 11
|   |   |   |   |   |   |   |   |   |   |   |    maintain1 <= 8.64: non (10.0/1.0)
|   |   |   |   |   |   |   |   |   |   |   |    maintain1 > 8.64: dup (10.0)
|   |   |   |   |   |   |   |   |   |   |    requirements1 > 11
|   |   |   |   |   |   |   |   |   |   |   |    eng1 <= 10.68: non (68.0)
|   |   |   |   |   |   |   |   |   |   |   |    eng1 > 10.68
|   |   |   |   |   |   |   |   |   |   |   |   |    quality2 <= 6.21: dup (3.0)
|   |   |   |   |   |   |   |   |   |   |   |   |    quality2 > 6.21: non (8.0)
|   |   |   |   |   |   |   |   |    testing1 > 7.8: non (508.0/2.0)
|   |   |   |   |   |   |   |   vers > 0: non (828.0/4.0)
|   |   bmfu > 2.37
|   |   |    process1 <= 2.33
|   |   |   |    comp1 <= 2.52
|   |   |   |   |    construction2 <= 1.01
|   |   |   |   |   |    practice2 <= 1.48: non (9.0/1.0)
|   |   |   |   |   |    practice2 > 1.48: dup (3.0)
|   |   |   |   |    construction2 > 1.01
|   |   |   |   |   |    design1 <= 3.03
|   |   |   |   |   |   |    eng1 <= 1.26
|   |   |   |   |   |   |   |   bmfu <= 3.03
|   |   |   |   |   |   |   |   |    maintain1 <= 1.16: dup (15.0/1.0)
|   |   |   |   |   |   |   |   |    maintain1 > 1.16: non (5.0)
|   |   |   |   |   |   |   |   bmfu > 3.03: dup (74.0)
|   |   |   |   |   |   |    eng1 > 1.26
|   |   |   |   |   |   |   |    SEmanage1 <= 2.49
|   |   |   |   |   |   |   |   |    comp1 <= 2.43
|   |   |   |   |   |   |   |   |   |   bmfu <= 8.28: non (20.0/1.0)
|   |   |   |   |   |   |   |   |   |   bmfu > 8.28: dup (2.0)
|   |   |   |   |   |   |   |   |    comp1 > 2.43: dup (6.0)
|   |   |   |   |   |   |   |    SEmanage1 > 2.49: dup (21.0/1.0)
|   |   |   |   |   |    design1 > 3.03: dup (61.0)
|   |   |   |    comp1 > 2.52
|   |   |   |   |    process1 <= 2.3
|   |   |   |   |   |    quality1 <= 1.88
|   |   |   |   |   |   |    maths1 <= 1.08: non (4.0)
|   |   |   |   |   |   |    maths1 > 1.08
|   |   |   |   |   |   |   |    construction1 <= 1.68
|   |   |   |   |   |   |   |   |    construction1 <= 0.77: dup (2.0)
|   |   |   |   |   |   |   |   |    construction1 > 0.77: non (2.0)
|   |   |   |   |   |   |   |    construction1 > 1.68: dup (27.0)
|   |   |   |   |   |    quality1 > 1.88
|   |   |   |   |   |   |    economics1 <= 5.33
|   |   |   |   |   |   |   |    economics1 <= 0.95: dup (7.0/1.0)
|   |   |   |   |   |   |   |    economics1 > 0.95
|   |   |   |   |   |   |   |   |   bmfb <= 18.17
|   |   |   |   |   |   |   |   |   |   cosine_similarity <= 0.924
|   |   |   |   |   |   |   |   |   |   |    testing1 <= 3.97
|   |   |   |   |   |   |   |   |   |   |   |    maths2 <= 6.74: non (21.0/1.0)
|   |   |   |   |   |   |   |   |   |   |   |    maths2 > 6.74
|   |   |   |   |   |   |   |   |   |   |   |   |    requirements1 <= 6.68: non (2.0)
|   |   |   |   |   |   |   |   |   |   |   |   |    requirements1 > 6.68: dup (3.0)
|   |   |   |   |   |   |   |   |   |   |    testing1 > 3.97
|   |   |   |   |   |   |   |   |   |   |   |    economics1 <= 4.14: dup (7.0/1.0)
|   |   |   |   |   |   |   |   |   |   |   |    economics1 > 4.14: non (3.0)
|   |   |   |   |   |   |   |   |   |   cosine_similarity > 0.924: non (51.0)
|   |   |   |   |   |   |   |   |   bmfb > 18.17
|   |   |   |   |   |   |   |   |   |    comp1 <= 4.72: non (2.0)
|   |   |   |   |   |   |   |   |   |    comp1 > 4.72: dup (6.0)
|   |   |   |   |   |   |    economics1 > 5.33: dup (6.0)
|   |   |   |   |    process1 > 2.3: dup (17.0)
|   |   |    process1 > 2.33
|   |   |   |   prior <= 0.5
|   |   |   |   |    practice1 <= 7.41
|   |   |   |   |   |    quality1 <= 4.59: non (2.0)
|   |   |   |   |   |    quality1 > 4.59: dup (24.0)
|   |   |   |   |    practice1 > 7.41: non (6.0/1.0)
|   |   |   |   prior > 0.5
|   |   |   |   |   type <= 0
|   |   |   |   |   |    quality2 <= 9.07
|   |   |   |   |   |   |    eng2 <= 8.95
|   |   |   |   |   |   |   |   bmfu <= 3.8
|   |   |   |   |   |   |   |   |    quality2 <= 1.11: dup (14.0)
|   |   |   |   |   |   |   |   |    quality2 > 1.11
|   |   |   |   |   |   |   |   |   |    comp1 <= 8.87
|   |   |   |   |   |   |   |   |   |   |    comp1 <= 2.02: non (12.0)
|   |   |   |   |   |   |   |   |   |   |    comp1 > 2.02
|   |   |   |   |   |   |   |   |   |   |   |    maths2 <= 2.29: non (10.0/1.0)
|   |   |   |   |   |   |   |   |   |   |   |    maths2 > 2.29
|   |   |   |   |   |   |   |   |   |   |   |   |    process2 <= 7.73
|   |   |   |   |   |   |   |   |   |   |   |   |   |    construction2 <= 3.73: dup (19.0)
|   |   |   |   |   |   |   |   |   |   |   |   |   |    construction2 > 3.73
|   |   |   |   |   |   |   |   |   |   |   |   |   |   |    economics2 <= 3.13: non (6.0)
|   |   |   |   |   |   |   |   |   |   |   |   |   |   |    economics2 > 3.13
|   |   |   |   |   |   |   |   |   |   |   |   |   |   |   |    SEmethods1 <= 1.95: non (3.0)
|   |   |   |   |   |   |   |   |   |   |   |   |   |   |   |    SEmethods1 > 1.95
|   |   |   |   |   |   |   |   |   |   |   |   |   |   |   |   |    practice1 <= 6.73
|   |   |   |   |   |   |   |   |   |   |   |   |   |   |   |   |   |   bmfb <= 0.43: dup (29.0)
|   |   |   |   |   |   |   |   |   |   |   |   |   |   |   |   |   |   bmfb > 0.43
|   |   |   |   |   |   |   |   |   |   |   |   |   |   |   |   |   |   |   bmfb <= 1.72: non (3.0)
|   |   |   |   |   |   |   |   |   |   |   |   |   |   |   |   |   |   |   bmfb > 1.72: dup (6.0)
|   |   |   |   |   |   |   |   |   |   |   |   |   |   |   |   |    practice1 > 6.73
|   |   |   |   |   |   |   |   |   |   |   |   |   |   |   |   |   |    maintain1 <= 9.06: non (5.0)
|   |   |   |   |   |   |   |   |   |   |   |   |   |   |   |   |   |    maintain1 > 9.06: dup (2.0)
|   |   |   |   |   |   |   |   |   |   |   |   |    process2 > 7.73
|   |   |   |   |   |   |   |   |   |   |   |   |   |    eng2 <= 7.9: non (13.0/1.0)
|   |   |   |   |   |   |   |   |   |   |   |   |   |    eng2 > 7.9: dup (2.0)
|   |   |   |   |   |   |   |   |   |    comp1 > 8.87
|   |   |   |   |   |   |   |   |   |   |    maintain1 <= 12.04
|   |   |   |   |   |   |   |   |   |   |   |    quality2 <= 3.55: dup (3.0/1.0)
|   |   |   |   |   |   |   |   |   |   |   |    quality2 > 3.55: non (33.0)
|   |   |   |   |   |   |   |   |   |   |    maintain1 > 12.04: dup (2.0)
|   |   |   |   |   |   |   |   bmfu > 3.8
|   |   |   |   |   |   |   |   |    construction2 <= 6.85
|   |   |   |   |   |   |   |   |   |    economics2 <= 3.13
|   |   |   |   |   |   |   |   |   |   |    economics2 <= 2.45: dup (19.0/1.0)
|   |   |   |   |   |   |   |   |   |   |    economics2 > 2.45
|   |   |   |   |   |   |   |   |   |   |   |    requirements2 <= 10.36: non (8.0)
|   |   |   |   |   |   |   |   |   |   |   |    requirements2 > 10.36: dup (2.0)
|   |   |   |   |   |   |   |   |   |    economics2 > 3.13
|   |   |   |   |   |   |   |   |   |   |   vers <= 0.09
|   |   |   |   |   |   |   |   |   |   |   |    comp2 <= 7.26: dup (65.0/1.0)
|   |   |   |   |   |   |   |   |   |   |   |    comp2 > 7.26
|   |   |   |   |   |   |   |   |   |   |   |   |    design2 <= 5.19
|   |   |   |   |   |   |   |   |   |   |   |   |   |    SEmanage1 <= 8.39: dup (5.0/1.0)
|   |   |   |   |   |   |   |   |   |   |   |   |   |    SEmanage1 > 8.39: non (4.0)
|   |   |   |   |   |   |   |   |   |   |   |   |    design2 > 5.19
|   |   |   |   |   |   |   |   |   |   |   |   |   |   bmfb <= 3.93: dup (31.0)
|   |   |   |   |   |   |   |   |   |   |   |   |   |   bmfb > 3.93
|   |   |   |   |   |   |   |   |   |   |   |   |   |   |    maths2 <= 7.93: non (3.0)
|   |   |   |   |   |   |   |   |   |   |   |   |   |   |    maths2 > 7.93: dup (9.0)
|   |   |   |   |   |   |   |   |   |   |   vers > 0.09: dup (19.0)
|   |   |   |   |   |   |   |   |    construction2 > 6.85
|   |   |   |   |   |   |   |   |   |    quality2 <= 8.79
|   |   |   |   |   |   |   |   |   |   |    process2 <= 4.57: dup (6.0)
|   |   |   |   |   |   |   |   |   |   |    process2 > 4.57
|   |   |   |   |   |   |   |   |   |   |   |    configuration1 <= 5.28: non (8.0)
|   |   |   |   |   |   |   |   |   |   |   |    configuration1 > 5.28
|   |   |   |   |   |   |   |   |   |   |   |   |    comp1 <= 6.52: dup (6.0)
|   |   |   |   |   |   |   |   |   |   |   |   |    comp1 > 6.52
|   |   |   |   |   |   |   |   |   |   |   |   |   |    eng1 <= 7.86: non (9.0)
|   |   |   |   |   |   |   |   |   |   |   |   |   |    eng1 > 7.86: dup (4.0/1.0)
|   |   |   |   |   |   |   |   |   |    quality2 > 8.79: dup (12.0)
|   |   |   |   |   |   |    eng2 > 8.95
|   |   |   |   |   |   |   |    eng2 <= 13.13: non (27.0/1.0)
|   |   |   |   |   |   |   |    eng2 > 13.13: dup (2.0)
|   |   |   |   |   |    quality2 > 9.07
|   |   |   |   |   |   |    SEmethods1 <= 2.54
|   |   |   |   |   |   |   |    practice2 <= 9.54: dup (6.0)
|   |   |   |   |   |   |   |    practice2 > 9.54: non (3.0)
|   |   |   |   |   |   |    SEmethods1 > 2.54
|   |   |   |   |   |   |   |   bmfb <= 2.21: non (84.0/3.0)
|   |   |   |   |   |   |   |   bmfb > 2.21
|   |   |   |   |   |   |   |   |   vers <= 0.32
|   |   |   |   |   |   |   |   |   |    testing2 <= 12.44
|   |   |   |   |   |   |   |   |   |   |    economics1 <= 6.51
|   |   |   |   |   |   |   |   |   |   |   |   bmfu <= 10.26: non (13.0/1.0)
|   |   |   |   |   |   |   |   |   |   |   |   bmfu > 10.26: dup (3.0)
|   |   |   |   |   |   |   |   |   |   |    economics1 > 6.51: non (18.0)
|   |   |   |   |   |   |   |   |   |    testing2 > 12.44: dup (6.0/1.0)
|   |   |   |   |   |   |   |   |   vers > 0.32: dup (3.0)
|   |   |   |   |   type > 0
|   |   |   |   |   |   bmfu <= 3.62
|   |   |   |   |   |   |    requirements2 <= 3.95
|   |   |   |   |   |   |   |    maintain2 <= 2.07
|   |   |   |   |   |   |   |   |    eng2 <= 0.65: non (5.0)
|   |   |   |   |   |   |   |   |    eng2 > 0.65
|   |   |   |   |   |   |   |   |   |    practice2 <= 3.05
|   |   |   |   |   |   |   |   |   |   |   bmfb <= 2.65: dup (18.0)
|   |   |   |   |   |   |   |   |   |   |   bmfb > 2.65: non (2.0)
|   |   |   |   |   |   |   |   |   |    practice2 > 3.05: non (2.0)
|   |   |   |   |   |   |   |    maintain2 > 2.07: non (8.0)
|   |   |   |   |   |   |    requirements2 > 3.95
|   |   |   |   |   |   |   |    quality1 <= 2.7
|   |   |   |   |   |   |   |   |    eng1 <= 2.84
|   |   |   |   |   |   |   |   |   |    SEmethods1 <= 2.14
|   |   |   |   |   |   |   |   |   |   |    economics1 <= 2.32: non (7.0)
|   |   |   |   |   |   |   |   |   |   |    economics1 > 2.32: dup (3.0)
|   |   |   |   |   |   |   |   |   |    SEmethods1 > 2.14: non (27.0)
|   |   |   |   |   |   |   |   |    eng1 > 2.84
|   |   |   |   |   |   |   |   |   |    process1 <= 4.97
|   |   |   |   |   |   |   |   |   |   |    SEmanage1 <= 4.25: non (8.0/1.0)
|   |   |   |   |   |   |   |   |   |   |    SEmanage1 > 4.25: dup (2.0)
|   |   |   |   |   |   |   |   |   |    process1 > 4.97: dup (10.0/1.0)
|   |   |   |   |   |   |   |    quality1 > 2.7
|   |   |   |   |   |   |   |   |    configuration2 <= 2.38
|   |   |   |   |   |   |   |   |   |    configuration2 <= 1.85: non (16.0)
|   |   |   |   |   |   |   |   |   |    configuration2 > 1.85
|   |   |   |   |   |   |   |   |   |   |    practice2 <= 3.01
|   |   |   |   |   |   |   |   |   |   |   |    design2 <= 2.05: non (4.0)
|   |   |   |   |   |   |   |   |   |   |   |    design2 > 2.05: dup (12.0/1.0)
|   |   |   |   |   |   |   |   |   |   |    practice2 > 3.01: non (8.0)
|   |   |   |   |   |   |   |   |    configuration2 > 2.38
|   |   |   |   |   |   |   |   |   |    configuration1 <= 5: non (262.0/3.0)
|   |   |   |   |   |   |   |   |   |    configuration1 > 5
|   |   |   |   |   |   |   |   |   |   |   cosine_similarity <= 0.906
|   |   |   |   |   |   |   |   |   |   |   |    configuration1 <= 7.85
|   |   |   |   |   |   |   |   |   |   |   |   |    testing1 <= 7.46
|   |   |   |   |   |   |   |   |   |   |   |   |   |    SEmethods1 <= 6.07: non (11.0/1.0)
|   |   |   |   |   |   |   |   |   |   |   |   |   |    SEmethods1 > 6.07: dup (2.0)
|   |   |   |   |   |   |   |   |   |   |   |   |    testing1 > 7.46: dup (6.0)
|   |   |   |   |   |   |   |   |   |   |   |    configuration1 > 7.85: non (15.0)
|   |   |   |   |   |   |   |   |   |   |   cosine_similarity > 0.906
|   |   |   |   |   |   |   |   |   |   |   |    comp2 <= 9.82
|   |   |   |   |   |   |   |   |   |   |   |   |    design2 <= 6.37: non (301.0/14.0)
|   |   |   |   |   |   |   |   |   |   |   |   |    design2 > 6.37
|   |   |   |   |   |   |   |   |   |   |   |   |   |    requirements1 <= 10.49
|   |   |   |   |   |   |   |   |   |   |   |   |   |   |    requirements1 <= 8.93: non (19.0/1.0)
|   |   |   |   |   |   |   |   |   |   |   |   |   |   |    requirements1 > 8.93
|   |   |   |   |   |   |   |   |   |   |   |   |   |   |   |    SEmethods1 <= 6: non (6.0)
|   |   |   |   |   |   |   |   |   |   |   |   |   |   |   |    SEmethods1 > 6
|   |   |   |   |   |   |   |   |   |   |   |   |   |   |   |   |    eng2 <= 7.68: dup (12.0)
|   |   |   |   |   |   |   |   |   |   |   |   |   |   |   |   |    eng2 > 7.68
|   |   |   |   |   |   |   |   |   |   |   |   |   |   |   |   |   |    economics2 <= 8.46: non (8.0)
|   |   |   |   |   |   |   |   |   |   |   |   |   |   |   |   |   |    economics2 > 8.46: dup (3.0)
|   |   |   |   |   |   |   |   |   |   |   |   |   |    requirements1 > 10.49
|   |   |   |   |   |   |   |   |   |   |   |   |   |   |    practice2 <= 9.28: non (91.0/3.0)
|   |   |   |   |   |   |   |   |   |   |   |   |   |   |    practice2 > 9.28
|   |   |   |   |   |   |   |   |   |   |   |   |   |   |   |    configuration1 <= 8.39: dup (3.0)
|   |   |   |   |   |   |   |   |   |   |   |   |   |   |   |    configuration1 > 8.39: non (4.0)
|   |   |   |   |   |   |   |   |   |   |   |    comp2 > 9.82: non (133.0/1.0)
|   |   |   |   |   |   bmfu > 3.62
|   |   |   |   |   |   |   bmfb <= 0.08
|   |   |   |   |   |   |   |    SEmanage1 <= 10.16
|   |   |   |   |   |   |   |   |    quality2 <= 9.06
|   |   |   |   |   |   |   |   |   |   vers <= 0.38
|   |   |   |   |   |   |   |   |   |   |    maintain1 <= 3.22
|   |   |   |   |   |   |   |   |   |   |   |    SEmanage2 <= 7.69
|   |   |   |   |   |   |   |   |   |   |   |   |    configuration1 <= 4.72
|   |   |   |   |   |   |   |   |   |   |   |   |   |    configuration2 <= 1.45: dup (2.0)
|   |   |   |   |   |   |   |   |   |   |   |   |   |    configuration2 > 1.45
|   |   |   |   |   |   |   |   |   |   |   |   |   |   |    construction2 <= 3.18
|   |   |   |   |   |   |   |   |   |   |   |   |   |   |   |    quality2 <= 3.31: non (3.0)
|   |   |   |   |   |   |   |   |   |   |   |   |   |   |   |    quality2 > 3.31: dup (2.0)
|   |   |   |   |   |   |   |   |   |   |   |   |   |   |    construction2 > 3.18: non (12.0)
|   |   |   |   |   |   |   |   |   |   |   |   |    configuration1 > 4.72: dup (3.0)
|   |   |   |   |   |   |   |   |   |   |   |    SEmanage2 > 7.69: dup (5.0)
|   |   |   |   |   |   |   |   |   |   |    maintain1 > 3.22
|   |   |   |   |   |   |   |   |   |   |   |    construction1 <= 4.99: dup (59.0/1.0)
|   |   |   |   |   |   |   |   |   |   |   |    construction1 > 4.99
|   |   |   |   |   |   |   |   |   |   |   |   |    economics2 <= 6.19
|   |   |   |   |   |   |   |   |   |   |   |   |   |   vers <= 0.3
|   |   |   |   |   |   |   |   |   |   |   |   |   |   |    quality2 <= 3.29: dup (8.0)
|   |   |   |   |   |   |   |   |   |   |   |   |   |   |    quality2 > 3.29
|   |   |   |   |   |   |   |   |   |   |   |   |   |   |   |    maths2 <= 7.56
|   |   |   |   |   |   |   |   |   |   |   |   |   |   |   |   |    comp2 <= 6.61
|   |   |   |   |   |   |   |   |   |   |   |   |   |   |   |   |   |    economics1 <= 6.56
|   |   |   |   |   |   |   |   |   |   |   |   |   |   |   |   |   |   |   cosine_similarity <= 0.967: non (6.0)
|   |   |   |   |   |   |   |   |   |   |   |   |   |   |   |   |   |   |   cosine_similarity > 0.967: dup (4.0/1.0)
|   |   |   |   |   |   |   |   |   |   |   |   |   |   |   |   |   |    economics1 > 6.56: dup (4.0)
|   |   |   |   |   |   |   |   |   |   |   |   |   |   |   |   |    comp2 > 6.61: non (12.0)
|   |   |   |   |   |   |   |   |   |   |   |   |   |   |   |    maths2 > 7.56: dup (6.0)
|   |   |   |   |   |   |   |   |   |   |   |   |   |   vers > 0.3: dup (11.0/1.0)
|   |   |   |   |   |   |   |   |   |   |   |   |    economics2 > 6.19: dup (15.0)
|   |   |   |   |   |   |   |   |   |   vers > 0.38
|   |   |   |   |   |   |   |   |   |   |   bmfu <= 4.79: non (7.0)
|   |   |   |   |   |   |   |   |   |   |   bmfu > 4.79: dup (4.0/1.0)
|   |   |   |   |   |   |   |   |    quality2 > 9.06
|   |   |   |   |   |   |   |   |   |    testing1 <= 3.08: dup (8.0/1.0)
|   |   |   |   |   |   |   |   |   |    testing1 > 3.08
|   |   |   |   |   |   |   |   |   |   |    eng2 <= 8.45: non (17.0)
|   |   |   |   |   |   |   |   |   |   |    eng2 > 8.45
|   |   |   |   |   |   |   |   |   |   |   |    SEmanage2 <= 9.03: dup (4.0)
|   |   |   |   |   |   |   |   |   |   |   |    SEmanage2 > 9.03
|   |   |   |   |   |   |   |   |   |   |   |   |    quality1 <= 6.48: non (12.0)
|   |   |   |   |   |   |   |   |   |   |   |   |    quality1 > 6.48
|   |   |   |   |   |   |   |   |   |   |   |   |   |   cosine_similarity <= 0.967: non (3.0)
|   |   |   |   |   |   |   |   |   |   |   |   |   |   cosine_similarity > 0.967
|   |   |   |   |   |   |   |   |   |   |   |   |   |   |    design1 <= 7.19: dup (5.0)
|   |   |   |   |   |   |   |   |   |   |   |   |   |   |    design1 > 7.19: non (2.0)
|   |   |   |   |   |   |   |    SEmanage1 > 10.16
|   |   |   |   |   |   |   |   |    construction2 <= 4.16: dup (2.0)
|   |   |   |   |   |   |   |   |    construction2 > 4.16
|   |   |   |   |   |   |   |   |   |    comp2 <= 6: dup (3.0/1.0)
|   |   |   |   |   |   |   |   |   |    comp2 > 6: non (28.0)
|   |   |   |   |   |   |   bmfb > 0.08
|   |   |   |   |   |   |   |   vers <= 0.22
|   |   |   |   |   |   |   |   |    SEmethods2 <= 1.66
|   |   |   |   |   |   |   |   |   |    configuration1 <= 4.61
|   |   |   |   |   |   |   |   |   |   |    economics1 <= 2.78: dup (6.0/1.0)
|   |   |   |   |   |   |   |   |   |   |    economics1 > 2.78: non (5.0)
|   |   |   |   |   |   |   |   |   |    configuration1 > 4.61: dup (16.0)
|   |   |   |   |   |   |   |   |    SEmethods2 > 1.66
|   |   |   |   |   |   |   |   |   |    requirements2 <= 11.98
|   |   |   |   |   |   |   |   |   |   |    configuration1 <= 6.3
|   |   |   |   |   |   |   |   |   |   |   |    comp2 <= 7.45
|   |   |   |   |   |   |   |   |   |   |   |   |   cosine_similarity <= 0.904
|   |   |   |   |   |   |   |   |   |   |   |   |   |    SEmanage1 <= 1.01: dup (3.0)
|   |   |   |   |   |   |   |   |   |   |   |   |   |    SEmanage1 > 1.01
|   |   |   |   |   |   |   |   |   |   |   |   |   |   |    practice1 <= 4.28: non (42.0/4.0)
|   |   |   |   |   |   |   |   |   |   |   |   |   |   |    practice1 > 4.28
|   |   |   |   |   |   |   |   |   |   |   |   |   |   |   |   bmfu <= 4.5: non (3.0)
|   |   |   |   |   |   |   |   |   |   |   |   |   |   |   |   bmfu > 4.5: dup (5.0)
|   |   |   |   |   |   |   |   |   |   |   |   |   cosine_similarity > 0.904: non (478.0/12.0)
|   |   |   |   |   |   |   |   |   |   |   |    comp2 > 7.45
|   |   |   |   |   |   |   |   |   |   |   |   |    quality1 <= 3.8
|   |   |   |   |   |   |   |   |   |   |   |   |   |    comp1 <= 2.99: non (6.0)
|   |   |   |   |   |   |   |   |   |   |   |   |   |    comp1 > 2.99
|   |   |   |   |   |   |   |   |   |   |   |   |   |   |    testing2 <= 8.83: dup (9.0)
|   |   |   |   |   |   |   |   |   |   |   |   |   |   |    testing2 > 8.83: non (3.0/1.0)
|   |   |   |   |   |   |   |   |   |   |   |   |    quality1 > 3.8
|   |   |   |   |   |   |   |   |   |   |   |   |   |    economics2 <= 3.25
|   |   |   |   |   |   |   |   |   |   |   |   |   |   |    eng1 <= 5.18: dup (7.0/1.0)
|   |   |   |   |   |   |   |   |   |   |   |   |   |   |    eng1 > 5.18: non (3.0)
|   |   |   |   |   |   |   |   |   |   |   |   |   |    economics2 > 3.25
|   |   |   |   |   |   |   |   |   |   |   |   |   |   |    construction2 <= 4.64
|   |   |   |   |   |   |   |   |   |   |   |   |   |   |   |    requirements1 <= 8.69: non (7.0)
|   |   |   |   |   |   |   |   |   |   |   |   |   |   |   |    requirements1 > 8.69: dup (6.0)
|   |   |   |   |   |   |   |   |   |   |   |   |   |   |    construction2 > 4.64
|   |   |   |   |   |   |   |   |   |   |   |   |   |   |   |    SEmanage1 <= 4.26
|   |   |   |   |   |   |   |   |   |   |   |   |   |   |   |   |    quality2 <= 7.81: non (15.0)
|   |   |   |   |   |   |   |   |   |   |   |   |   |   |   |   |    quality2 > 7.81
|   |   |   |   |   |   |   |   |   |   |   |   |   |   |   |   |   |    testing1 <= 6.1: dup (4.0)
|   |   |   |   |   |   |   |   |   |   |   |   |   |   |   |   |   |    testing1 > 6.1: non (2.0)
|   |   |   |   |   |   |   |   |   |   |   |   |   |   |   |    SEmanage1 > 4.26: non (57.0)
|   |   |   |   |   |   |   |   |   |   |    configuration1 > 6.3
|   |   |   |   |   |   |   |   |   |   |   |    quality1 <= 6.38
|   |   |   |   |   |   |   |   |   |   |   |   |    SEmethods2 <= 8.15
|   |   |   |   |   |   |   |   |   |   |   |   |   |    construction1 <= 3.31: dup (19.0/1.0)
|   |   |   |   |   |   |   |   |   |   |   |   |   |    construction1 > 3.31
|   |   |   |   |   |   |   |   |   |   |   |   |   |   |    SEmanage1 <= 5.05: non (12.0/1.0)
|   |   |   |   |   |   |   |   |   |   |   |   |   |   |    SEmanage1 > 5.05
|   |   |   |   |   |   |   |   |   |   |   |   |   |   |   |    SEmanage1 <= 6.29: dup (15.0)
|   |   |   |   |   |   |   |   |   |   |   |   |   |   |   |    SEmanage1 > 6.29
|   |   |   |   |   |   |   |   |   |   |   |   |   |   |   |   |    requirements1 <= 10.21: non (10.0)
|   |   |   |   |   |   |   |   |   |   |   |   |   |   |   |   |    requirements1 > 10.21
|   |   |   |   |   |   |   |   |   |   |   |   |   |   |   |   |   |    construction2 <= 6.81: dup (9.0)
|   |   |   |   |   |   |   |   |   |   |   |   |   |   |   |   |   |    construction2 > 6.81: non (3.0/1.0)
|   |   |   |   |   |   |   |   |   |   |   |   |    SEmethods2 > 8.15: non (7.0)
|   |   |   |   |   |   |   |   |   |   |   |    quality1 > 6.38
|   |   |   |   |   |   |   |   |   |   |   |   |    comp1 <= 12.38
|   |   |   |   |   |   |   |   |   |   |   |   |   |    configuration1 <= 9.91
|   |   |   |   |   |   |   |   |   |   |   |   |   |   |    quality2 <= 3.43
|   |   |   |   |   |   |   |   |   |   |   |   |   |   |   |    configuration2 <= 3.39: non (9.0)
|   |   |   |   |   |   |   |   |   |   |   |   |   |   |   |    configuration2 > 3.39: dup (10.0)
|   |   |   |   |   |   |   |   |   |   |   |   |   |   |    quality2 > 3.43
|   |   |   |   |   |   |   |   |   |   |   |   |   |   |   |    design2 <= 5.91
|   |   |   |   |   |   |   |   |   |   |   |   |   |   |   |   |    configuration2 <= 3.01
|   |   |   |   |   |   |   |   |   |   |   |   |   |   |   |   |   |    requirements2 <= 9.24: non (13.0)
|   |   |   |   |   |   |   |   |   |   |   |   |   |   |   |   |   |    requirements2 > 9.24: dup (2.0)
|   |   |   |   |   |   |   |   |   |   |   |   |   |   |   |   |    configuration2 > 3.01: non (129.0)
|   |   |   |   |   |   |   |   |   |   |   |   |   |   |   |    design2 > 5.91
|   |   |   |   |   |   |   |   |   |   |   |   |   |   |   |   |    design2 <= 5.96
|   |   |   |   |   |   |   |   |   |   |   |   |   |   |   |   |   |    maintain2 <= 7.23: dup (11.0/1.0)
|   |   |   |   |   |   |   |   |   |   |   |   |   |   |   |   |   |    maintain2 > 7.23: non (2.0)
|   |   |   |   |   |   |   |   |   |   |   |   |   |   |   |   |    design2 > 5.96
|   |   |   |   |   |   |   |   |   |   |   |   |   |   |   |   |   |    maths2 <= 6.4
|   |   |   |   |   |   |   |   |   |   |   |   |   |   |   |   |   |   |    comp1 <= 6.89: dup (6.0)
|   |   |   |   |   |   |   |   |   |   |   |   |   |   |   |   |   |   |    comp1 > 6.89
|   |   |   |   |   |   |   |   |   |   |   |   |   |   |   |   |   |   |   |    construction2 <= 3.06: dup (2.0)
|   |   |   |   |   |   |   |   |   |   |   |   |   |   |   |   |   |   |   |    construction2 > 3.06: non (16.0/1.0)
|   |   |   |   |   |   |   |   |   |   |   |   |   |   |   |   |   |    maths2 > 6.4
|   |   |   |   |   |   |   |   |   |   |   |   |   |   |   |   |   |   |    practice1 <= 9.53: non (51.0)
|   |   |   |   |   |   |   |   |   |   |   |   |   |   |   |   |   |   |    practice1 > 9.53: dup (3.0/1.0)
|   |   |   |   |   |   |   |   |   |   |   |   |   |    configuration1 > 9.91
|   |   |   |   |   |   |   |   |   |   |   |   |   |   |    construction1 <= 4.76: dup (6.0)
|   |   |   |   |   |   |   |   |   |   |   |   |   |   |    construction1 > 4.76
|   |   |   |   |   |   |   |   |   |   |   |   |   |   |   |   bmfu <= 5.11
|   |   |   |   |   |   |   |   |   |   |   |   |   |   |   |   |    quality1 <= 7.34: dup (2.0)
|   |   |   |   |   |   |   |   |   |   |   |   |   |   |   |   |    quality1 > 7.34: non (17.0)
|   |   |   |   |   |   |   |   |   |   |   |   |   |   |   |   bmfu > 5.11
|   |   |   |   |   |   |   |   |   |   |   |   |   |   |   |   |    practice2 <= 4.31: dup (6.0)
|   |   |   |   |   |   |   |   |   |   |   |   |   |   |   |   |    practice2 > 4.31
|   |   |   |   |   |   |   |   |   |   |   |   |   |   |   |   |   |    SEmethods2 <= 6.82: non (6.0)
|   |   |   |   |   |   |   |   |   |   |   |   |   |   |   |   |   |    SEmethods2 > 6.82
|   |   |   |   |   |   |   |   |   |   |   |   |   |   |   |   |   |   |   cosine_similarity <= 0.99: dup (6.0)
|   |   |   |   |   |   |   |   |   |   |   |   |   |   |   |   |   |   |   cosine_similarity > 0.99: non (2.0)
|   |   |   |   |   |   |   |   |   |   |   |   |    comp1 > 12.38
|   |   |   |   |   |   |   |   |   |   |   |   |   |   bmfb <= 9.11: dup (9.0)
|   |   |   |   |   |   |   |   |   |   |   |   |   |   bmfb > 9.11
|   |   |   |   |   |   |   |   |   |   |   |   |   |   |    configuration1 <= 9.41: dup (2.0)
|   |   |   |   |   |   |   |   |   |   |   |   |   |   |    configuration1 > 9.41: non (5.0)
|   |   |   |   |   |   |   |   |   |    requirements2 > 11.98
|   |   |   |   |   |   |   |   |   |   |   bmfb <= 1.22
|   |   |   |   |   |   |   |   |   |   |   |   cosine_similarity <= 0.964
|   |   |   |   |   |   |   |   |   |   |   |   |    comp2 <= 12.13
|   |   |   |   |   |   |   |   |   |   |   |   |   |    maths2 <= 11.29: non (25.0/2.0)
|   |   |   |   |   |   |   |   |   |   |   |   |   |    maths2 > 11.29: dup (2.0)
|   |   |   |   |   |   |   |   |   |   |   |   |    comp2 > 12.13: dup (3.0)
|   |   |   |   |   |   |   |   |   |   |   |   cosine_similarity > 0.964: non (31.0)
|   |   |   |   |   |   |   |   |   |   |   bmfb > 1.22
|   |   |   |   |   |   |   |   |   |   |   |    SEmethods2 <= 7.17
|   |   |   |   |   |   |   |   |   |   |   |   |    economics2 <= 8.66
|   |   |   |   |   |   |   |   |   |   |   |   |   |    requirements1 <= 14.49
|   |   |   |   |   |   |   |   |   |   |   |   |   |   |    practice2 <= 3.79: dup (8.0)
|   |   |   |   |   |   |   |   |   |   |   |   |   |   |    practice2 > 3.79
|   |   |   |   |   |   |   |   |   |   |   |   |   |   |   |    configuration2 <= 7.73
|   |   |   |   |   |   |   |   |   |   |   |   |   |   |   |   |    eng2 <= 7.9
|   |   |   |   |   |   |   |   |   |   |   |   |   |   |   |   |   |   vers <= 0.09
|   |   |   |   |   |   |   |   |   |   |   |   |   |   |   |   |   |   |    process2 <= 5.16
|   |   |   |   |   |   |   |   |   |   |   |   |   |   |   |   |   |   |   |    comp2 <= 4.94: non (3.0)
|   |   |   |   |   |   |   |   |   |   |   |   |   |   |   |   |   |   |   |    comp2 > 4.94: dup (4.0)
|   |   |   |   |   |   |   |   |   |   |   |   |   |   |   |   |   |   |    process2 > 5.16: non (28.0/1.0)
|   |   |   |   |   |   |   |   |   |   |   |   |   |   |   |   |   |   vers > 0.09
|   |   |   |   |   |   |   |   |   |   |   |   |   |   |   |   |   |   |   bmfu <= 8.72: non (4.0)
|   |   |   |   |   |   |   |   |   |   |   |   |   |   |   |   |   |   |   bmfu > 8.72: dup (3.0)
|   |   |   |   |   |   |   |   |   |   |   |   |   |   |   |   |    eng2 > 7.9: dup (3.0)
|   |   |   |   |   |   |   |   |   |   |   |   |   |   |   |    configuration2 > 7.73
|   |   |   |   |   |   |   |   |   |   |   |   |   |   |   |   |    process2 <= 8.27
|   |   |   |   |   |   |   |   |   |   |   |   |   |   |   |   |   |    process2 <= 5.29: non (2.0)
|   |   |   |   |   |   |   |   |   |   |   |   |   |   |   |   |   |    process2 > 5.29: dup (18.0)
|   |   |   |   |   |   |   |   |   |   |   |   |   |   |   |   |    process2 > 8.27: non (7.0/1.0)
|   |   |   |   |   |   |   |   |   |   |   |   |   |    requirements1 > 14.49: dup (15.0/1.0)
|   |   |   |   |   |   |   |   |   |   |   |   |    economics2 > 8.66: dup (19.0)
|   |   |   |   |   |   |   |   |   |   |   |    SEmethods2 > 7.17
|   |   |   |   |   |   |   |   |   |   |   |   |    SEmethods1 <= 2.35
|   |   |   |   |   |   |   |   |   |   |   |   |   |   bmfb <= 3.82: dup (10.0)
|   |   |   |   |   |   |   |   |   |   |   |   |   |   bmfb > 3.82: non (4.0/1.0)
|   |   |   |   |   |   |   |   |   |   |   |   |    SEmethods1 > 2.35
|   |   |   |   |   |   |   |   |   |   |   |   |   |    configuration1 <= 4.38
|   |   |   |   |   |   |   |   |   |   |   |   |   |   |    testing1 <= 5.96: non (27.0)
|   |   |   |   |   |   |   |   |   |   |   |   |   |   |    testing1 > 5.96
|   |   |   |   |   |   |   |   |   |   |   |   |   |   |   |    maintain1 <= 4.03: dup (2.0)
|   |   |   |   |   |   |   |   |   |   |   |   |   |   |   |    maintain1 > 4.03: non (3.0)
|   |   |   |   |   |   |   |   |   |   |   |   |   |    configuration1 > 4.38
|   |   |   |   |   |   |   |   |   |   |   |   |   |   |    construction1 <= 3.77: dup (10.0/1.0)
|   |   |   |   |   |   |   |   |   |   |   |   |   |   |    construction1 > 3.77
|   |   |   |   |   |   |   |   |   |   |   |   |   |   |   |   vers <= 0.13
|   |   |   |   |   |   |   |   |   |   |   |   |   |   |   |   |    SEmethods1 <= 10.17
|   |   |   |   |   |   |   |   |   |   |   |   |   |   |   |   |   |   bmfb <= 15.55
|   |   |   |   |   |   |   |   |   |   |   |   |   |   |   |   |   |   |    requirements2 <= 18.49
|   |   |   |   |   |   |   |   |   |   |   |   |   |   |   |   |   |   |   |    SEmethods2 <= 7.68: non (11.0)
|   |   |   |   |   |   |   |   |   |   |   |   |   |   |   |   |   |   |   |    SEmethods2 > 7.68
|   |   |   |   |   |   |   |   |   |   |   |   |   |   |   |   |   |   |   |   |    eng2 <= 6.54: dup (10.0/1.0)
|   |   |   |   |   |   |   |   |   |   |   |   |   |   |   |   |   |   |   |   |    eng2 > 6.54
|   |   |   |   |   |   |   |   |   |   |   |   |   |   |   |   |   |   |   |   |   |    eng2 <= 10.2
|   |   |   |   |   |   |   |   |   |   |   |   |   |   |   |   |   |   |   |   |   |   |    requirements1 <= 10.15: non (15.0)
|   |   |   |   |   |   |   |   |   |   |   |   |   |   |   |   |   |   |   |   |   |   |    requirements1 > 10.15
|   |   |   |   |   |   |   |   |   |   |   |   |   |   |   |   |   |   |   |   |   |   |   |    maintain1 <= 5.74: dup (4.0)
|   |   |   |   |   |   |   |   |   |   |   |   |   |   |   |   |   |   |   |   |   |   |   |    maintain1 > 5.74
|   |   |   |   |   |   |   |   |   |   |   |   |   |   |   |   |   |   |   |   |   |   |   |   |    eng2 <= 9.02
|   |   |   |   |   |   |   |   |   |   |   |   |   |   |   |   |   |   |   |   |   |   |   |   |   |    maths1 <= 7.8: dup (9.0/1.0)
|   |   |   |   |   |   |   |   |   |   |   |   |   |   |   |   |   |   |   |   |   |   |   |   |   |    maths1 > 7.8
|   |   |   |   |   |   |   |   |   |   |   |   |   |   |   |   |   |   |   |   |   |   |   |   |   |   |    quality1 <= 10.77: non (12.0)
|   |   |   |   |   |   |   |   |   |   |   |   |   |   |   |   |   |   |   |   |   |   |   |   |   |   |    quality1 > 10.77: dup (2.0)
|   |   |   |   |   |   |   |   |   |   |   |   |   |   |   |   |   |   |   |   |   |   |   |   |    eng2 > 9.02: non (19.0/1.0)
|   |   |   |   |   |   |   |   |   |   |   |   |   |   |   |   |   |   |   |   |   |    eng2 > 10.2
|   |   |   |   |   |   |   |   |   |   |   |   |   |   |   |   |   |   |   |   |   |   |    SEmethods2 <= 8.97: dup (9.0)
|   |   |   |   |   |   |   |   |   |   |   |   |   |   |   |   |   |   |   |   |   |   |    SEmethods2 > 8.97
|   |   |   |   |   |   |   |   |   |   |   |   |   |   |   |   |   |   |   |   |   |   |   |    construction1 <= 7.95: non (4.0)
|   |   |   |   |   |   |   |   |   |   |   |   |   |   |   |   |   |   |   |   |   |   |   |    construction1 > 7.95: dup (2.0)
|   |   |   |   |   |   |   |   |   |   |   |   |   |   |   |   |   |   |    requirements2 > 18.49: dup (13.0/1.0)
|   |   |   |   |   |   |   |   |   |   |   |   |   |   |   |   |   |   bmfb > 15.55
|   |   |   |   |   |   |   |   |   |   |   |   |   |   |   |   |   |   |    testing1 <= 11.15: non (20.0)
|   |   |   |   |   |   |   |   |   |   |   |   |   |   |   |   |   |   |    testing1 > 11.15: dup (3.0/1.0)
|   |   |   |   |   |   |   |   |   |   |   |   |   |   |   |   |    SEmethods1 > 10.17: non (21.0/1.0)
|   |   |   |   |   |   |   |   |   |   |   |   |   |   |   |   vers > 0.13
|   |   |   |   |   |   |   |   |   |   |   |   |   |   |   |   |    construction1 <= 5.44: dup (3.0/1.0)
|   |   |   |   |   |   |   |   |   |   |   |   |   |   |   |   |    construction1 > 5.44: non (12.0)
|   |   |   |   |   |   |   |   vers > 0.22
|   |   |   |   |   |   |   |   |   vers <= 0.91
|   |   |   |   |   |   |   |   |   |    process1 <= 3.8: dup (25.0/1.0)
|   |   |   |   |   |   |   |   |   |    process1 > 3.8
|   |   |   |   |   |   |   |   |   |   |   bmfu <= 5.24
|   |   |   |   |   |   |   |   |   |   |   |   bmfb <= 1.09: non (19.0/1.0)
|   |   |   |   |   |   |   |   |   |   |   |   bmfb > 1.09
|   |   |   |   |   |   |   |   |   |   |   |   |    construction2 <= 8.67
|   |   |   |   |   |   |   |   |   |   |   |   |   |    process2 <= 6.29: non (10.0/1.0)
|   |   |   |   |   |   |   |   |   |   |   |   |   |    process2 > 6.29
|   |   |   |   |   |   |   |   |   |   |   |   |   |   |   cosine_similarity <= 0.973: dup (13.0/1.0)
|   |   |   |   |   |   |   |   |   |   |   |   |   |   |   cosine_similarity > 0.973
|   |   |   |   |   |   |   |   |   |   |   |   |   |   |   |    requirements1 <= 15.82: non (4.0/1.0)
|   |   |   |   |   |   |   |   |   |   |   |   |   |   |   |    requirements1 > 15.82: dup (3.0)
|   |   |   |   |   |   |   |   |   |   |   |   |    construction2 > 8.67: non (7.0)
|   |   |   |   |   |   |   |   |   |   |   bmfu > 5.24
|   |   |   |   |   |   |   |   |   |   |   |    process1 <= 9.38
|   |   |   |   |   |   |   |   |   |   |   |   |    comp1 <= 5.02: dup (12.0)
|   |   |   |   |   |   |   |   |   |   |   |   |    comp1 > 5.02
|   |   |   |   |   |   |   |   |   |   |   |   |   |    practice1 <= 3.27: non (5.0)
|   |   |   |   |   |   |   |   |   |   |   |   |   |    practice1 > 3.27
|   |   |   |   |   |   |   |   |   |   |   |   |   |   |    configuration2 <= 15.04
|   |   |   |   |   |   |   |   |   |   |   |   |   |   |   |    comp1 <= 10.68
|   |   |   |   |   |   |   |   |   |   |   |   |   |   |   |   |    requirements2 <= 10.16
|   |   |   |   |   |   |   |   |   |   |   |   |   |   |   |   |   |    SEmanage1 <= 5.45: dup (2.0)
|   |   |   |   |   |   |   |   |   |   |   |   |   |   |   |   |   |    SEmanage1 > 5.45: non (13.0/2.0)
|   |   |   |   |   |   |   |   |   |   |   |   |   |   |   |   |    requirements2 > 10.16
|   |   |   |   |   |   |   |   |   |   |   |   |   |   |   |   |   |   bmfb <= 4.96: dup (19.0)
|   |   |   |   |   |   |   |   |   |   |   |   |   |   |   |   |   |   bmfb > 4.96
|   |   |   |   |   |   |   |   |   |   |   |   |   |   |   |   |   |   |    configuration1 <= 6.32: dup (9.0)
|   |   |   |   |   |   |   |   |   |   |   |   |   |   |   |   |   |   |    configuration1 > 6.32
|   |   |   |   |   |   |   |   |   |   |   |   |   |   |   |   |   |   |   |    testing1 <= 8.26: non (8.0)
|   |   |   |   |   |   |   |   |   |   |   |   |   |   |   |   |   |   |   |    testing1 > 8.26: dup (4.0/1.0)
|   |   |   |   |   |   |   |   |   |   |   |   |   |   |   |    comp1 > 10.68: dup (21.0)
|   |   |   |   |   |   |   |   |   |   |   |   |   |   |    configuration2 > 15.04: non (4.0)
|   |   |   |   |   |   |   |   |   |   |   |    process1 > 9.38
|   |   |   |   |   |   |   |   |   |   |   |   |   bmfb <= 2.92: dup (3.0)
|   |   |   |   |   |   |   |   |   |   |   |   |   bmfb > 2.92: non (13.0)
|   |   |   |   |   |   |   |   |   vers > 0.91
|   |   |   |   |   |   |   |   |   |   bmfu <= 5.1: non (17.0)
|   |   |   |   |   |   |   |   |   |   bmfu > 5.1
|   |   |   |   |   |   |   |   |   |   |    testing2 <= 5.63
|   |   |   |   |   |   |   |   |   |   |   |    maths1 <= 3.73
|   |   |   |   |   |   |   |   |   |   |   |   |   bmfu <= 12.41: non (5.0)
|   |   |   |   |   |   |   |   |   |   |   |   |   bmfu > 12.41: dup (3.0)
|   |   |   |   |   |   |   |   |   |   |   |    maths1 > 3.73: non (22.0)
|   |   |   |   |   |   |   |   |   |   |    testing2 > 5.63
|   |   |   |   |   |   |   |   |   |   |   |    maintain1 <= 5.09: dup (8.0)
|   |   |   |   |   |   |   |   |   |   |   |    maintain1 > 5.09
|   |   |   |   |   |   |   |   |   |   |   |   |    economics2 <= 5.59: non (13.0/1.0)
|   |   |   |   |   |   |   |   |   |   |   |   |    economics2 > 5.59
|   |   |   |   |   |   |   |   |   |   |   |   |   |    SEmanage1 <= 5.81: non (4.0)
|   |   |   |   |   |   |   |   |   |   |   |   |   |    SEmanage1 > 5.81
|   |   |   |   |   |   |   |   |   |   |   |   |   |   |   bmfu <= 7.74: dup (7.0)
|   |   |   |   |   |   |   |   |   |   |   |   |   |   |   bmfu > 7.74
|   |   |   |   |   |   |   |   |   |   |   |   |   |   |   |    construction2 <= 7.38: non (7.0/1.0)
|   |   |   |   |   |   |   |   |   |   |   |   |   |   |   |    construction2 > 7.38: dup (4.0)
|   comp > 0
|   |   bmfu <= 2.84
|   |   |    economics2 <= 11.84
|   |   |   |    design2 <= 1.22
|   |   |   |   |    configuration2 <= 2.45
|   |   |   |   |   |    construction1 <= 7.65: non (7.0)
|   |   |   |   |   |    construction1 > 7.65: dup (3.0)
|   |   |   |   |    configuration2 > 2.45: dup (19.0)
|   |   |   |    design2 > 1.22
|   |   |   |   |   bmfu <= 1.14
|   |   |   |   |   |    process1 <= 2.96
|   |   |   |   |   |   |    construction1 <= 2.65: non (6.0)
|   |   |   |   |   |   |    construction1 > 2.65
|   |   |   |   |   |   |   |   bmfu <= 0.72: dup (4.0)
|   |   |   |   |   |   |   |   bmfu > 0.72: non (2.0)
|   |   |   |   |   |    process1 > 2.96
|   |   |   |   |   |   |    maths2 <= 10.19: non (97.0)
|   |   |   |   |   |   |    maths2 > 10.19
|   |   |   |   |   |   |   |    construction1 <= 6.8: non (4.0)
|   |   |   |   |   |   |   |    construction1 > 6.8: dup (2.0)
|   |   |   |   |   bmfu > 1.14
|   |   |   |   |   |    comp2 <= 2.55: dup (7.0)
|   |   |   |   |   |    comp2 > 2.55
|   |   |   |   |   |   |    SEmanage2 <= 3.74
|   |   |   |   |   |   |   |   vers <= 0.17
|   |   |   |   |   |   |   |   |    design2 <= 3.21
|   |   |   |   |   |   |   |   |   |   bmfu <= 1.96: non (5.0)
|   |   |   |   |   |   |   |   |   |   bmfu > 1.96: dup (2.0)
|   |   |   |   |   |   |   |   |    design2 > 3.21: dup (12.0)
|   |   |   |   |   |   |   |   vers > 0.17: non (2.0)
|   |   |   |   |   |   |    SEmanage2 > 3.74
|   |   |   |   |   |   |   |    maths2 <= 11.26
|   |   |   |   |   |   |   |   |    testing1 <= 7.5
|   |   |   |   |   |   |   |   |   |    SEmethods2 <= 2.42
|   |   |   |   |   |   |   |   |   |   |    requirements2 <= 8.21: non (3.0)
|   |   |   |   |   |   |   |   |   |   |    requirements2 > 8.21: dup (3.0)
|   |   |   |   |   |   |   |   |   |    SEmethods2 > 2.42: non (67.0/2.0)
|   |   |   |   |   |   |   |   |    testing1 > 7.5
|   |   |   |   |   |   |   |   |   |   type <= 0: non (7.0)
|   |   |   |   |   |   |   |   |   |   type > 0
|   |   |   |   |   |   |   |   |   |   |    process1 <= 10.37: dup (9.0/1.0)
|   |   |   |   |   |   |   |   |   |   |    process1 > 10.37
|   |   |   |   |   |   |   |   |   |   |   |   bmfu <= 2.32: non (6.0)
|   |   |   |   |   |   |   |   |   |   |   |   bmfu > 2.32: dup (2.0)
|   |   |   |   |   |   |   |    maths2 > 11.26: dup (6.0/1.0)
|   |   |    economics2 > 11.84: dup (17.0/1.0)
|   |   bmfu > 2.84
|   |   |   prior <= 0.33: dup (26.0)
|   |   |   prior > 0.33
|   |   |   |    SEmethods2 <= 10.11
|   |   |   |   |   type <= 0
|   |   |   |   |   |   cosine_similarity <= 0.904: dup (18.0)
|   |   |   |   |   |   cosine_similarity > 0.904
|   |   |   |   |   |   |    practice1 <= 2.75: dup (7.0)
|   |   |   |   |   |   |    practice1 > 2.75
|   |   |   |   |   |   |   |    construction1 <= 5.07: non (14.0/1.0)
|   |   |   |   |   |   |   |    construction1 > 5.07
|   |   |   |   |   |   |   |   |    eng1 <= 9.83: dup (10.0)
|   |   |   |   |   |   |   |   |    eng1 > 9.83
|   |   |   |   |   |   |   |   |   |    requirements2 <= 12.25: non (6.0)
|   |   |   |   |   |   |   |   |   |    requirements2 > 12.25: dup (2.0)
|   |   |   |   |   type > 0
|   |   |   |   |   |    quality2 <= 13.05
|   |   |   |   |   |   |    SEmanage2 <= 10.28
|   |   |   |   |   |   |   |    design2 <= 9.75
|   |   |   |   |   |   |   |   |    testing2 <= 4.99
|   |   |   |   |   |   |   |   |   |    economics2 <= 6.06
|   |   |   |   |   |   |   |   |   |   |    process1 <= 3.82
|   |   |   |   |   |   |   |   |   |   |   |    design1 <= 4.88
|   |   |   |   |   |   |   |   |   |   |   |   |    maintain2 <= 3.37
|   |   |   |   |   |   |   |   |   |   |   |   |   |   cosine_similarity <= 0.793: dup (8.0)
|   |   |   |   |   |   |   |   |   |   |   |   |   |   cosine_similarity > 0.793
|   |   |   |   |   |   |   |   |   |   |   |   |   |   |    SEmethods2 <= 3.36
|   |   |   |   |   |   |   |   |   |   |   |   |   |   |   |    requirements2 <= 3.16: non (3.0)
|   |   |   |   |   |   |   |   |   |   |   |   |   |   |   |    requirements2 > 3.16
|   |   |   |   |   |   |   |   |   |   |   |   |   |   |   |   |    quality2 <= 2.76: non (4.0/1.0)
|   |   |   |   |   |   |   |   |   |   |   |   |   |   |   |   |    quality2 > 2.76: dup (8.0)
|   |   |   |   |   |   |   |   |   |   |   |   |   |   |    SEmethods2 > 3.36: non (6.0)
|   |   |   |   |   |   |   |   |   |   |   |   |    maintain2 > 3.37
|   |   |   |   |   |   |   |   |   |   |   |   |   |    construction2 <= 6.69: dup (28.0)
|   |   |   |   |   |   |   |   |   |   |   |   |   |    construction2 > 6.69
|   |   |   |   |   |   |   |   |   |   |   |   |   |   |   bmfb <= 0.8: dup (3.0)
|   |   |   |   |   |   |   |   |   |   |   |   |   |   |   bmfb > 0.8: non (2.0)
|   |   |   |   |   |   |   |   |   |   |   |    design1 > 4.88
|   |   |   |   |   |   |   |   |   |   |   |   |    configuration1 <= 7.24: non (12.0)
|   |   |   |   |   |   |   |   |   |   |   |   |    configuration1 > 7.24: dup (2.0)
|   |   |   |   |   |   |   |   |   |   |    process1 > 3.82
|   |   |   |   |   |   |   |   |   |   |   |    process1 <= 5.27: dup (34.0)
|   |   |   |   |   |   |   |   |   |   |   |    process1 > 5.27
|   |   |   |   |   |   |   |   |   |   |   |   |    requirements1 <= 8.44
|   |   |   |   |   |   |   |   |   |   |   |   |   |    SEmanage1 <= 5.16: dup (3.0)
|   |   |   |   |   |   |   |   |   |   |   |   |   |    SEmanage1 > 5.16: non (5.0)
|   |   |   |   |   |   |   |   |   |   |   |   |    requirements1 > 8.44
|   |   |   |   |   |   |   |   |   |   |   |   |   |    SEmanage1 <= 9.14
|   |   |   |   |   |   |   |   |   |   |   |   |   |   |    quality1 <= 5.05
|   |   |   |   |   |   |   |   |   |   |   |   |   |   |   |    requirements1 <= 10.98: dup (2.0)
|   |   |   |   |   |   |   |   |   |   |   |   |   |   |   |    requirements1 > 10.98: non (2.0)
|   |   |   |   |   |   |   |   |   |   |   |   |   |   |    quality1 > 5.05: dup (74.0/1.0)
|   |   |   |   |   |   |   |   |   |   |   |   |   |    SEmanage1 > 9.14
|   |   |   |   |   |   |   |   |   |   |   |   |   |   |    eng1 <= 6.96: non (7.0/1.0)
|   |   |   |   |   |   |   |   |   |   |   |   |   |   |    eng1 > 6.96
|   |   |   |   |   |   |   |   |   |   |   |   |   |   |   |    configuration1 <= 13.24
|   |   |   |   |   |   |   |   |   |   |   |   |   |   |   |   |    SEmanage1 <= 11.24
|   |   |   |   |   |   |   |   |   |   |   |   |   |   |   |   |   |    construction1 <= 7.65
|   |   |   |   |   |   |   |   |   |   |   |   |   |   |   |   |   |   |   bmfu <= 10.95: non (2.0)
|   |   |   |   |   |   |   |   |   |   |   |   |   |   |   |   |   |   |   bmfu > 10.95: dup (2.0)
|   |   |   |   |   |   |   |   |   |   |   |   |   |   |   |   |   |    construction1 > 7.65: dup (12.0)
|   |   |   |   |   |   |   |   |   |   |   |   |   |   |   |   |    SEmanage1 > 11.24: non (4.0)
|   |   |   |   |   |   |   |   |   |   |   |   |   |   |   |    configuration1 > 13.24: dup (23.0)
|   |   |   |   |   |   |   |   |   |    economics2 > 6.06
|   |   |   |   |   |   |   |   |   |   |    process2 <= 5.35: dup (4.0)
|   |   |   |   |   |   |   |   |   |   |    process2 > 5.35
|   |   |   |   |   |   |   |   |   |   |   |    process1 <= 10.69: non (12.0)
|   |   |   |   |   |   |   |   |   |   |   |    process1 > 10.69: dup (2.0)
|   |   |   |   |   |   |   |   |    testing2 > 4.99
|   |   |   |   |   |   |   |   |   |    SEmethods2 <= 3.4: dup (93.0/1.0)
|   |   |   |   |   |   |   |   |   |    SEmethods2 > 3.4
|   |   |   |   |   |   |   |   |   |   |    eng2 <= 5.25
|   |   |   |   |   |   |   |   |   |   |   |    requirements2 <= 10.27
|   |   |   |   |   |   |   |   |   |   |   |   |    construction2 <= 7.31
|   |   |   |   |   |   |   |   |   |   |   |   |   |    testing2 <= 7.48: dup (25.0)
|   |   |   |   |   |   |   |   |   |   |   |   |   |    testing2 > 7.48
|   |   |   |   |   |   |   |   |   |   |   |   |   |   |    testing1 <= 5.1: non (3.0)
|   |   |   |   |   |   |   |   |   |   |   |   |   |   |    testing1 > 5.1: dup (4.0)
|   |   |   |   |   |   |   |   |   |   |   |   |    construction2 > 7.31: non (3.0)
|   |   |   |   |   |   |   |   |   |   |   |    requirements2 > 10.27: dup (91.0)
|   |   |   |   |   |   |   |   |   |   |    eng2 > 5.25
|   |   |   |   |   |   |   |   |   |   |   |   vers <= 0.67
|   |   |   |   |   |   |   |   |   |   |   |   |    practice2 <= 3.81
|   |   |   |   |   |   |   |   |   |   |   |   |   |    requirements1 <= 12.74: non (6.0)
|   |   |   |   |   |   |   |   |   |   |   |   |   |    requirements1 > 12.74: dup (2.0)
|   |   |   |   |   |   |   |   |   |   |   |   |    practice2 > 3.81
|   |   |   |   |   |   |   |   |   |   |   |   |   |    requirements2 <= 12.37
|   |   |   |   |   |   |   |   |   |   |   |   |   |   |    construction1 <= 4.99: dup (23.0/2.0)
|   |   |   |   |   |   |   |   |   |   |   |   |   |   |    construction1 > 4.99
|   |   |   |   |   |   |   |   |   |   |   |   |   |   |   |    practice2 <= 6.29: dup (5.0)
|   |   |   |   |   |   |   |   |   |   |   |   |   |   |   |    practice2 > 6.29
|   |   |   |   |   |   |   |   |   |   |   |   |   |   |   |   |    economics1 <= 4.94: non (7.0)
|   |   |   |   |   |   |   |   |   |   |   |   |   |   |   |   |    economics1 > 4.94
|   |   |   |   |   |   |   |   |   |   |   |   |   |   |   |   |   |    quality2 <= 6.53: non (4.0)
|   |   |   |   |   |   |   |   |   |   |   |   |   |   |   |   |   |    quality2 > 6.53: dup (7.0/1.0)
|   |   |   |   |   |   |   |   |   |   |   |   |   |    requirements2 > 12.37
|   |   |   |   |   |   |   |   |   |   |   |   |   |   |    testing2 <= 7.84: dup (85.0/1.0)
|   |   |   |   |   |   |   |   |   |   |   |   |   |   |    testing2 > 7.84
|   |   |   |   |   |   |   |   |   |   |   |   |   |   |   |    testing2 <= 8.03: non (4.0)
|   |   |   |   |   |   |   |   |   |   |   |   |   |   |   |    testing2 > 8.03
|   |   |   |   |   |   |   |   |   |   |   |   |   |   |   |   |    configuration1 <= 3.15: non (2.0)
|   |   |   |   |   |   |   |   |   |   |   |   |   |   |   |   |    configuration1 > 3.15: dup (28.0/1.0)
|   |   |   |   |   |   |   |   |   |   |   |   vers > 0.67
|   |   |   |   |   |   |   |   |   |   |   |   |    economics1 <= 5.71: non (6.0)
|   |   |   |   |   |   |   |   |   |   |   |   |    economics1 > 5.71: dup (4.0)
|   |   |   |   |   |   |   |    design2 > 9.75
|   |   |   |   |   |   |   |   |    practice2 <= 6.15
|   |   |   |   |   |   |   |   |   |    practice2 <= 5.26: non (2.0)
|   |   |   |   |   |   |   |   |   |    practice2 > 5.26: dup (11.0)
|   |   |   |   |   |   |   |   |    practice2 > 6.15
|   |   |   |   |   |   |   |   |   |    construction2 <= 5.71: dup (6.0/1.0)
|   |   |   |   |   |   |   |   |   |    construction2 > 5.71: non (10.0)
|   |   |   |   |   |   |    SEmanage2 > 10.28: dup (120.0/1.0)
|   |   |   |   |   |    quality2 > 13.05
|   |   |   |   |   |   |    design2 <= 8.33: non (7.0)
|   |   |   |   |   |   |    design2 > 8.33
|   |   |   |   |   |   |   |    eng1 <= 8.92: dup (16.0/2.0)
|   |   |   |   |   |   |   |    eng1 > 8.92: non (4.0)
|   |   |   |    SEmethods2 > 10.11
|   |   |   |   |    design2 <= 6.68: dup (7.0)
|   |   |   |   |    design2 > 6.68
|   |   |   |   |   |    requirements2 <= 15.64: non (15.0)
|   |   |   |   |   |    requirements2 > 15.64
|   |   |   |   |   |   |   bmfu <= 4.2: non (3.0)
|   |   |   |   |   |   |   bmfu > 4.2
|   |   |   |   |   |   |   |    comp2 <= 15.62: dup (12.0)
|   |   |   |   |   |   |   |    comp2 > 15.62
|   |   |   |   |   |   |   |   |    SEmethods1 <= 7.55: dup (5.0)
|   |   |   |   |   |   |   |   |    SEmethods1 > 7.55
|   |   |   |   |   |   |   |   |   |    maintain1 <= 8.68: non (5.0)
|   |   |   |   |   |   |   |   |   |    maintain1 > 8.68: dup (2.0)
cosine_similarity > 0.992
|    requirements2 <= 12.61
|   |    maintain2 <= 9.06
|   |   |   cosine_similarity <= 0.999
|   |   |   |    maintain2 <= 8.51
|   |   |   |   |    testing1 <= 6.77
|   |   |   |   |   |    testing1 <= 4.8
|   |   |   |   |   |   |    maintain2 <= 2.34: dup (4.0)
|   |   |   |   |   |   |    maintain2 > 2.34
|   |   |   |   |   |   |   |    maintain1 <= 7.25
|   |   |   |   |   |   |   |   |    economics1 <= 2.95
|   |   |   |   |   |   |   |   |   |    construction1 <= 2.7: non (3.0)
|   |   |   |   |   |   |   |   |   |    construction1 > 2.7: dup (3.0)
|   |   |   |   |   |   |   |   |    economics1 > 2.95: non (22.0/1.0)
|   |   |   |   |   |   |   |    maintain1 > 7.25: dup (2.0)
|   |   |   |   |   |    testing1 > 4.8
|   |   |   |   |   |   |    eng2 <= 8.16: dup (41.0/5.0)
|   |   |   |   |   |   |    eng2 > 8.16: non (3.0)
|   |   |   |   |    testing1 > 6.77
|   |   |   |   |   |    construction1 <= 8.5: non (18.0)
|   |   |   |   |   |    construction1 > 8.5
|   |   |   |   |   |   |    requirements1 <= 12.82: dup (2.0)
|   |   |   |   |   |   |    requirements1 > 12.82: non (2.0)
|   |   |   |    maintain2 > 8.51: dup (10.0)
|   |   |   cosine_similarity > 0.999
|   |   |   |    construction2 <= 8.24
|   |   |   |   |    construction2 <= 6.4
|   |   |   |   |   |    SEmethods1 <= 0.69
|   |   |   |   |   |   |    construction1 <= 1.78: dup (4.0)
|   |   |   |   |   |   |    construction1 > 1.78: non (9.0)
|   |   |   |   |   |    SEmethods1 > 0.69
|   |   |   |   |   |   |    practice1 <= 2.31
|   |   |   |   |   |   |   |    maths2 <= 1
|   |   |   |   |   |   |   |   |    practice1 <= 0.38: dup (3.0)
|   |   |   |   |   |   |   |   |    practice1 > 0.38: non (2.0)
|   |   |   |   |   |   |   |    maths2 > 1: dup (73.0)
|   |   |   |   |   |   |    practice1 > 2.31
|   |   |   |   |   |   |   |    configuration2 <= 4
|   |   |   |   |   |   |   |   |    practice1 <= 4.84
|   |   |   |   |   |   |   |   |   |    maintain1 <= 2.02: dup (3.0)
|   |   |   |   |   |   |   |   |   |    maintain1 > 2.02: non (26.0/8.0)
|   |   |   |   |   |   |   |   |    practice1 > 4.84: dup (6.0)
|   |   |   |   |   |   |   |    configuration2 > 4
|   |   |   |   |   |   |   |   |    SEmethods2 <= 6.2
|   |   |   |   |   |   |   |   |   |    testing2 <= 7.28
|   |   |   |   |   |   |   |   |   |   |    eng2 <= 2.39
|   |   |   |   |   |   |   |   |   |   |   |   bmfu <= 31.78: non (2.0)
|   |   |   |   |   |   |   |   |   |   |   |   bmfu > 31.78: dup (2.0)
|   |   |   |   |   |   |   |   |   |   |    eng2 > 2.39: dup (56.0)
|   |   |   |   |   |   |   |   |   |    testing2 > 7.28
|   |   |   |   |   |   |   |   |   |   |   bmfb <= 75.5: non (4.0)
|   |   |   |   |   |   |   |   |   |   |   bmfb > 75.5: dup (5.0)
|   |   |   |   |   |   |   |   |    SEmethods2 > 6.2
|   |   |   |   |   |   |   |   |   |    maintain2 <= 7.57
|   |   |   |   |   |   |   |   |   |   |    testing2 <= 4.72: dup (7.0)
|   |   |   |   |   |   |   |   |   |   |    testing2 > 4.72
|   |   |   |   |   |   |   |   |   |   |   |    process1 <= 7.57
|   |   |   |   |   |   |   |   |   |   |   |   |    quality1 <= 3.49: dup (2.0)
|   |   |   |   |   |   |   |   |   |   |   |   |    quality1 > 3.49: non (16.0/1.0)
|   |   |   |   |   |   |   |   |   |   |   |    process1 > 7.57
|   |   |   |   |   |   |   |   |   |   |   |   |    maintain2 <= 7.54: dup (9.0)
|   |   |   |   |   |   |   |   |   |   |   |   |    maintain2 > 7.54: non (3.0)
|   |   |   |   |   |   |   |   |   |    maintain2 > 7.57: dup (11.0)
|   |   |   |   |    construction2 > 6.4
|   |   |   |   |   |   vers <= 0.5
|   |   |   |   |   |   |    configuration1 <= 8.61
|   |   |   |   |   |   |   |    construction1 <= 6.52: non (5.0)
|   |   |   |   |   |   |   |    construction1 > 6.52
|   |   |   |   |   |   |   |   |    configuration1 <= 7.19
|   |   |   |   |   |   |   |   |   |    design1 <= 6
|   |   |   |   |   |   |   |   |   |   |    construction1 <= 7.19
|   |   |   |   |   |   |   |   |   |   |   |    construction1 <= 6.65: dup (3.0)
|   |   |   |   |   |   |   |   |   |   |   |    construction1 > 6.65: non (4.0)
|   |   |   |   |   |   |   |   |   |   |    construction1 > 7.19: dup (6.0)
|   |   |   |   |   |   |   |   |   |    design1 > 6: non (3.0)
|   |   |   |   |   |   |   |   |    configuration1 > 7.19: dup (7.0)
|   |   |   |   |   |   |    configuration1 > 8.61: non (8.0)
|   |   |   |   |   |   vers > 0.5: dup (2.0)
|   |   |   |    construction2 > 8.24: dup (39.0/1.0)
|   |    maintain2 > 9.06
|   |   |    comp1 <= 11.51
|   |   |   |    requirements1 <= 11.12: non (16.0)
|   |   |   |    requirements1 > 11.12
|   |   |   |   |    construction1 <= 7.57: dup (7.0/1.0)
|   |   |   |   |    construction1 > 7.57: non (6.0)
|   |   |    comp1 > 11.51: dup (4.0)
|    requirements2 > 12.61
|   |   cosine_similarity <= 0.998
|   |   |    testing2 <= 8.85
|   |   |   |   cosine_similarity <= 0.996: dup (27.0/1.0)
|   |   |   |   cosine_similarity > 0.996
|   |   |   |   |   vers <= 0.14
|   |   |   |   |   |    practice1 <= 8.16: dup (7.0)
|   |   |   |   |   |    practice1 > 8.16: non (4.0/1.0)
|   |   |   |   |   vers > 0.14: non (2.0)
|   |   |    testing2 > 8.85
|   |   |   |    economics2 <= 12.42: non (10.0)
|   |   |   |    economics2 > 12.42: dup (2.0)
|   |   cosine_similarity > 0.998
|   |   |    testing1 <= 6.74
|   |   |   |   type <= 0: non (3.0)
|   |   |   |   type > 0
|   |   |   |   |    testing1 <= 6.68: dup (27.0)
|   |   |   |   |    testing1 > 6.68: non (3.0)
|   |   |    testing1 > 6.74: dup (376.0/2.0)

Number of Leaves  : 	438

Size of the tree : 	875


Time taken to build model: 4.19 seconds
Time taken to test model on training data: 0.34 seconds

=== Error on training data ===

Correctly Classified Instances       15559               98.4747 %
Incorrectly Classified Instances       241                1.5253 %
Kappa statistic                          0.9517
Mean absolute error                      0.0281
Root mean squared error                  0.1186
Relative absolute error                  8.7881 %
Root relative squared error             29.6458 %
Total Number of Instances            15800     


=== Confusion Matrix ===

     a     b   <-- classified as
  2983   177 |     a = dup
    64 12576 |     b = non



=== Stratified cross-validation ===

Correctly Classified Instances       14513               91.8544 %
Incorrectly Classified Instances      1287                8.1456 %
Kappa statistic                          0.7425
Mean absolute error                      0.0921
Root mean squared error                  0.2766
Relative absolute error                 28.7823 %
Root relative squared error             69.1573 %
Total Number of Instances            15800     


=== Confusion Matrix ===

     a     b   <-- classified as
  2468   692 |     a = dup
   595 12045 |     b = non

