
J48 pruned tree
------------------

cosine_similarity <= 0.991
|   comp <= 0
|   |   bmfu <= 2.37
|   |   |    datastructures2 <= 1.1
|   |   |   |   PCh122 <= 1.87
|   |   |   |   |   bmfu <= 1.16: non (73.0/1.0)
|   |   |   |   |   bmfu > 1.16
|   |   |   |   |   |    basics2 <= 0.89: dup (5.0)
|   |   |   |   |   |    basics2 > 0.89: non (4.0)
|   |   |   |   PCh122 > 1.87
|   |   |   |   |   PCh032 <= 1.96: dup (27.0/1.0)
|   |   |   |   |   PCh032 > 1.96: non (4.0)
|   |   |    datastructures2 > 1.1
|   |   |   |   PCh071 <= 0
|   |   |   |   |   bmfu <= 1.18
|   |   |   |   |   |   PCh051 <= 1.09: non (215.0/2.0)
|   |   |   |   |   |   PCh051 > 1.09
|   |   |   |   |   |   |   PCh051 <= 1.17: dup (3.0)
|   |   |   |   |   |   |   PCh051 > 1.17
|   |   |   |   |   |   |   |   PCh022 <= 11.36
|   |   |   |   |   |   |   |   |    memory1 <= 0.25
|   |   |   |   |   |   |   |   |   |   PCh012 <= 3.14: non (4.0)
|   |   |   |   |   |   |   |   |   |   PCh012 > 3.14: dup (2.0)
|   |   |   |   |   |   |   |   |    memory1 > 0.25: non (24.0)
|   |   |   |   |   |   |   |   PCh022 > 11.36: dup (2.0)
|   |   |   |   |   bmfu > 1.18
|   |   |   |   |   |   PCh101 <= 0.97
|   |   |   |   |   |   |    memory1 <= 1.18
|   |   |   |   |   |   |   |   PCh121 <= 0.54
|   |   |   |   |   |   |   |   |   cosine_similarity <= 0: dup (4.0)
|   |   |   |   |   |   |   |   |   cosine_similarity > 0: non (4.0)
|   |   |   |   |   |   |   |   PCh121 > 0.54: dup (10.0)
|   |   |   |   |   |   |    memory1 > 1.18
|   |   |   |   |   |   |   |   PCh011 <= 0.46: non (30.0)
|   |   |   |   |   |   |   |   PCh011 > 0.46
|   |   |   |   |   |   |   |   |   PCh061 <= 1.11: non (3.0)
|   |   |   |   |   |   |   |   |   PCh061 > 1.11: dup (2.0)
|   |   |   |   |   |   PCh101 > 0.97: dup (18.0)
|   |   |   |   PCh071 > 0
|   |   |   |   |    interrupts2 <= 1.78
|   |   |   |   |   |    interrupts2 <= 1.77
|   |   |   |   |   |   |   PCh092 <= 3.79: non (346.0/5.0)
|   |   |   |   |   |   |   PCh092 > 3.79
|   |   |   |   |   |   |   |   PCh032 <= 7.26: non (13.0)
|   |   |   |   |   |   |   |   PCh032 > 7.26: dup (6.0)
|   |   |   |   |   |    interrupts2 > 1.77
|   |   |   |   |   |   |   PCh022 <= 4.83: non (2.0)
|   |   |   |   |   |   |   PCh022 > 4.83: dup (27.0/1.0)
|   |   |   |   |    interrupts2 > 1.78
|   |   |   |   |   |    IO2 <= 2.66
|   |   |   |   |   |   |   cosine_similarity <= 0.891: non (52.0)
|   |   |   |   |   |   |   cosine_similarity > 0.891
|   |   |   |   |   |   |   |    maintaninence2 <= 3.91: non (14.0)
|   |   |   |   |   |   |   |    maintaninence2 > 3.91
|   |   |   |   |   |   |   |   |    basics2 <= 3.82
|   |   |   |   |   |   |   |   |   |   PCh022 <= 1.88: non (2.0)
|   |   |   |   |   |   |   |   |   |   PCh022 > 1.88: dup (16.0)
|   |   |   |   |   |   |   |   |    basics2 > 3.82: non (6.0)
|   |   |   |   |   |    IO2 > 2.66
|   |   |   |   |   |   |   bmfu <= 1.28
|   |   |   |   |   |   |   |   PCh121 <= 6.3: non (6143.0/28.0)
|   |   |   |   |   |   |   |   PCh121 > 6.3
|   |   |   |   |   |   |   |   |   PCh021 <= 7.69
|   |   |   |   |   |   |   |   |   |    basics2 <= 3.17: dup (6.0)
|   |   |   |   |   |   |   |   |   |    basics2 > 3.17
|   |   |   |   |   |   |   |   |   |   |    portability1 <= 3.75: dup (4.0)
|   |   |   |   |   |   |   |   |   |   |    portability1 > 3.75
|   |   |   |   |   |   |   |   |   |   |   |   PCh111 <= 3.77: non (28.0/1.0)
|   |   |   |   |   |   |   |   |   |   |   |   PCh111 > 3.77: dup (2.0)
|   |   |   |   |   |   |   |   |   PCh021 > 7.69: non (324.0/3.0)
|   |   |   |   |   |   |   bmfu > 1.28
|   |   |   |   |   |   |   |   PCh042 <= 2.01
|   |   |   |   |   |   |   |   |    interrupts2 <= 5.45
|   |   |   |   |   |   |   |   |   |     process1 <= 7.39: non (14.0)
|   |   |   |   |   |   |   |   |   |     process1 > 7.39
|   |   |   |   |   |   |   |   |   |   |   bmfu <= 2.03: dup (2.0)
|   |   |   |   |   |   |   |   |   |   |   bmfu > 2.03: non (2.0)
|   |   |   |   |   |   |   |   |    interrupts2 > 5.45: dup (7.0/1.0)
|   |   |   |   |   |   |   |   PCh042 > 2.01
|   |   |   |   |   |   |   |   |   PCh102 <= 0.04
|   |   |   |   |   |   |   |   |   |    maintaninence2 <= 13.29
|   |   |   |   |   |   |   |   |   |   |    portability1 <= 7.79: non (64.0)
|   |   |   |   |   |   |   |   |   |   |    portability1 > 7.79
|   |   |   |   |   |   |   |   |   |   |   |   type <= 0
|   |   |   |   |   |   |   |   |   |   |   |   |   PCh021 <= 8.16: dup (3.0)
|   |   |   |   |   |   |   |   |   |   |   |   |   PCh021 > 8.16: non (4.0)
|   |   |   |   |   |   |   |   |   |   |   |   type > 0
|   |   |   |   |   |   |   |   |   |   |   |   |   PCh112 <= 1.46: non (23.0/1.0)
|   |   |   |   |   |   |   |   |   |   |   |   |   PCh112 > 1.46: dup (3.0/1.0)
|   |   |   |   |   |   |   |   |   |    maintaninence2 > 13.29: dup (11.0/1.0)
|   |   |   |   |   |   |   |   |   PCh102 > 0.04
|   |   |   |   |   |   |   |   |   |     memoryManagement1 <= 8.92
|   |   |   |   |   |   |   |   |   |   |    IO1 <= 2.45
|   |   |   |   |   |   |   |   |   |   |   |   cosine_similarity <= 0.921
|   |   |   |   |   |   |   |   |   |   |   |   |    basics1 <= 2.08: dup (3.0/1.0)
|   |   |   |   |   |   |   |   |   |   |   |   |    basics1 > 2.08: non (17.0)
|   |   |   |   |   |   |   |   |   |   |   |   cosine_similarity > 0.921: dup (6.0)
|   |   |   |   |   |   |   |   |   |   |    IO1 > 2.45
|   |   |   |   |   |   |   |   |   |   |   |   PCh121 <= 4.26
|   |   |   |   |   |   |   |   |   |   |   |   |   bmfu <= 1.72: non (539.0/3.0)
|   |   |   |   |   |   |   |   |   |   |   |   |   bmfu > 1.72
|   |   |   |   |   |   |   |   |   |   |   |   |   |   PCh122 <= 3.35: non (251.0/2.0)
|   |   |   |   |   |   |   |   |   |   |   |   |   |   PCh122 > 3.35
|   |   |   |   |   |   |   |   |   |   |   |   |   |   |   PCh112 <= 0.46
|   |   |   |   |   |   |   |   |   |   |   |   |   |   |   |    maintaninence1 <= 4.82: dup (4.0)
|   |   |   |   |   |   |   |   |   |   |   |   |   |   |   |    maintaninence1 > 4.82
|   |   |   |   |   |   |   |   |   |   |   |   |   |   |   |   |   PCh012 <= 2.72
|   |   |   |   |   |   |   |   |   |   |   |   |   |   |   |   |   |   PCh121 <= 3.69
|   |   |   |   |   |   |   |   |   |   |   |   |   |   |   |   |   |   |   cosine_similarity <= 0.953: non (13.0)
|   |   |   |   |   |   |   |   |   |   |   |   |   |   |   |   |   |   |   cosine_similarity > 0.953
|   |   |   |   |   |   |   |   |   |   |   |   |   |   |   |   |   |   |   |    debugging1 <= 8.12: dup (4.0)
|   |   |   |   |   |   |   |   |   |   |   |   |   |   |   |   |   |   |   |    debugging1 > 8.12: non (5.0)
|   |   |   |   |   |   |   |   |   |   |   |   |   |   |   |   |   |   PCh121 > 3.69: dup (5.0)
|   |   |   |   |   |   |   |   |   |   |   |   |   |   |   |   |   PCh012 > 2.72: non (23.0)
|   |   |   |   |   |   |   |   |   |   |   |   |   |   |   PCh112 > 0.46
|   |   |   |   |   |   |   |   |   |   |   |   |   |   |   |   vers <= 0.08
|   |   |   |   |   |   |   |   |   |   |   |   |   |   |   |   |   cosine_similarity <= 0.955
|   |   |   |   |   |   |   |   |   |   |   |   |   |   |   |   |   |    maintaninence1 <= 9.47: non (70.0/2.0)
|   |   |   |   |   |   |   |   |   |   |   |   |   |   |   |   |   |    maintaninence1 > 9.47
|   |   |   |   |   |   |   |   |   |   |   |   |   |   |   |   |   |   |    maintaninence1 <= 9.82: dup (5.0)
|   |   |   |   |   |   |   |   |   |   |   |   |   |   |   |   |   |   |    maintaninence1 > 9.82
|   |   |   |   |   |   |   |   |   |   |   |   |   |   |   |   |   |   |   |   PCh091 <= 1.37: dup (2.0)
|   |   |   |   |   |   |   |   |   |   |   |   |   |   |   |   |   |   |   |   PCh091 > 1.37: non (14.0/1.0)
|   |   |   |   |   |   |   |   |   |   |   |   |   |   |   |   |   cosine_similarity > 0.955: non (71.0)
|   |   |   |   |   |   |   |   |   |   |   |   |   |   |   |   vers > 0.08: non (72.0)
|   |   |   |   |   |   |   |   |   |   |   |   PCh121 > 4.26
|   |   |   |   |   |   |   |   |   |   |   |   |   type <= 0
|   |   |   |   |   |   |   |   |   |   |   |   |   |   PCh072 <= 3.19
|   |   |   |   |   |   |   |   |   |   |   |   |   |   |    devices1 <= 7.56: dup (12.0)
|   |   |   |   |   |   |   |   |   |   |   |   |   |   |    devices1 > 7.56: non (2.0)
|   |   |   |   |   |   |   |   |   |   |   |   |   |   PCh072 > 3.19
|   |   |   |   |   |   |   |   |   |   |   |   |   |   |     process2 <= 3.76: dup (3.0/1.0)
|   |   |   |   |   |   |   |   |   |   |   |   |   |   |     process2 > 3.76: non (23.0)
|   |   |   |   |   |   |   |   |   |   |   |   |   type > 0
|   |   |   |   |   |   |   |   |   |   |   |   |   |   PCh031 <= 6.69
|   |   |   |   |   |   |   |   |   |   |   |   |   |   |   PCh092 <= 0.98: dup (4.0)
|   |   |   |   |   |   |   |   |   |   |   |   |   |   |   PCh092 > 0.98
|   |   |   |   |   |   |   |   |   |   |   |   |   |   |   |   PCh031 <= 6.62
|   |   |   |   |   |   |   |   |   |   |   |   |   |   |   |   |    debugging1 <= 5.06: dup (4.0/1.0)
|   |   |   |   |   |   |   |   |   |   |   |   |   |   |   |   |    debugging1 > 5.06: non (65.0/1.0)
|   |   |   |   |   |   |   |   |   |   |   |   |   |   |   |   PCh031 > 6.62
|   |   |   |   |   |   |   |   |   |   |   |   |   |   |   |   |   vers <= 0.4: dup (4.0)
|   |   |   |   |   |   |   |   |   |   |   |   |   |   |   |   |   vers > 0.4: non (2.0)
|   |   |   |   |   |   |   |   |   |   |   |   |   |   PCh031 > 6.69: non (88.0)
|   |   |   |   |   |   |   |   |   |     memoryManagement1 > 8.92: non (791.0/3.0)
|   |   bmfu > 2.37
|   |   |    IO1 <= 3.13
|   |   |   |   PCh111 <= 0.37
|   |   |   |   |   PCh041 <= 4.3
|   |   |   |   |   |   PCh122 <= 0.76
|   |   |   |   |   |   |   PCh081 <= 0.41: non (6.0)
|   |   |   |   |   |   |   PCh081 > 0.41: dup (3.0)
|   |   |   |   |   |   PCh122 > 0.76
|   |   |   |   |   |   |   PCh022 <= 8.14: dup (117.0/1.0)
|   |   |   |   |   |   |   PCh022 > 8.14
|   |   |   |   |   |   |   |   bmfb <= 0.72: non (5.0/1.0)
|   |   |   |   |   |   |   |   bmfb > 0.72: dup (6.0)
|   |   |   |   |   PCh041 > 4.3
|   |   |   |   |   |   PCh011 <= 0.66: non (6.0)
|   |   |   |   |   |   PCh011 > 0.66: dup (2.0)
|   |   |   |   PCh111 > 0.37
|   |   |   |   |   PCh072 <= 7.82: non (16.0)
|   |   |   |   |   PCh072 > 7.82: dup (2.0)
|   |   |    IO1 > 3.13
|   |   |   |   PCh042 <= 2.93
|   |   |   |   |   PCh092 <= 2.11
|   |   |   |   |   |   PCh122 <= 2.1
|   |   |   |   |   |   |   PCh022 <= 0.31: non (7.0)
|   |   |   |   |   |   |   PCh022 > 0.31
|   |   |   |   |   |   |   |   PCh042 <= 2.58
|   |   |   |   |   |   |   |   |   cosine_similarity <= 0.944
|   |   |   |   |   |   |   |   |   |     memoryManagement2 <= 1.37
|   |   |   |   |   |   |   |   |   |   |   PCh012 <= 0.36: non (4.0)
|   |   |   |   |   |   |   |   |   |   |   PCh012 > 0.36: dup (2.0)
|   |   |   |   |   |   |   |   |   |     memoryManagement2 > 1.37
|   |   |   |   |   |   |   |   |   |   |    maintaninence2 <= 3.55: dup (58.0/1.0)
|   |   |   |   |   |   |   |   |   |   |    maintaninence2 > 3.55
|   |   |   |   |   |   |   |   |   |   |   |     memoryManagement2 <= 4.8
|   |   |   |   |   |   |   |   |   |   |   |   |    basics2 <= 3.51: non (4.0)
|   |   |   |   |   |   |   |   |   |   |   |   |    basics2 > 3.51
|   |   |   |   |   |   |   |   |   |   |   |   |   |    maintaninence2 <= 4.31: non (2.0)
|   |   |   |   |   |   |   |   |   |   |   |   |   |    maintaninence2 > 4.31: dup (7.0)
|   |   |   |   |   |   |   |   |   |   |   |     memoryManagement2 > 4.8: dup (12.0)
|   |   |   |   |   |   |   |   |   cosine_similarity > 0.944
|   |   |   |   |   |   |   |   |   |     memoryManagement2 <= 5.11: non (10.0)
|   |   |   |   |   |   |   |   |   |     memoryManagement2 > 5.11: dup (6.0)
|   |   |   |   |   |   |   |   PCh042 > 2.58
|   |   |   |   |   |   |   |   |    memory2 <= 4.2
|   |   |   |   |   |   |   |   |   |   PCh102 <= 1.43: non (15.0/1.0)
|   |   |   |   |   |   |   |   |   |   PCh102 > 1.43: dup (2.0)
|   |   |   |   |   |   |   |   |    memory2 > 4.2: dup (4.0)
|   |   |   |   |   |   PCh122 > 2.1: dup (46.0)
|   |   |   |   |   PCh092 > 2.11: non (12.0)
|   |   |   |   PCh042 > 2.93
|   |   |   |   |   PCh011 <= 0.21
|   |   |   |   |   |    debugging1 <= 5.51
|   |   |   |   |   |   |    portability2 <= 11.53
|   |   |   |   |   |   |   |    devices1 <= 0.4: non (8.0/1.0)
|   |   |   |   |   |   |   |    devices1 > 0.4
|   |   |   |   |   |   |   |   |    synchronisation1 <= 4.07
|   |   |   |   |   |   |   |   |   |   PCh081 <= 0.61: non (7.0)
|   |   |   |   |   |   |   |   |   |   PCh081 > 0.61
|   |   |   |   |   |   |   |   |   |   |     memoryManagement2 <= 4.18: non (5.0)
|   |   |   |   |   |   |   |   |   |   |     memoryManagement2 > 4.18
|   |   |   |   |   |   |   |   |   |   |   |    portability1 <= 4.78: dup (34.0/1.0)
|   |   |   |   |   |   |   |   |   |   |   |    portability1 > 4.78: non (2.0)
|   |   |   |   |   |   |   |   |    synchronisation1 > 4.07
|   |   |   |   |   |   |   |   |   |   PCh031 <= 0.85
|   |   |   |   |   |   |   |   |   |   |   PCh031 <= 0.55: dup (6.0)
|   |   |   |   |   |   |   |   |   |   |   PCh031 > 0.55: non (4.0)
|   |   |   |   |   |   |   |   |   |   PCh031 > 0.85: dup (89.0)
|   |   |   |   |   |   |    portability2 > 11.53
|   |   |   |   |   |   |   |    debugging1 <= 4.64: non (11.0)
|   |   |   |   |   |   |   |    debugging1 > 4.64: dup (2.0)
|   |   |   |   |   |    debugging1 > 5.51
|   |   |   |   |   |   |    devices1 <= 6.01
|   |   |   |   |   |   |   |   PCh041 <= 9.5
|   |   |   |   |   |   |   |   |   PCh091 <= 0.27
|   |   |   |   |   |   |   |   |   |   PCh042 <= 9.21: dup (5.0)
|   |   |   |   |   |   |   |   |   |   PCh042 > 9.21: non (2.0)
|   |   |   |   |   |   |   |   |   PCh091 > 0.27
|   |   |   |   |   |   |   |   |   |    interrupts2 <= 3.81
|   |   |   |   |   |   |   |   |   |   |   PCh041 <= 4.74: non (5.0)
|   |   |   |   |   |   |   |   |   |   |   PCh041 > 4.74: dup (4.0)
|   |   |   |   |   |   |   |   |   |    interrupts2 > 3.81: non (48.0/1.0)
|   |   |   |   |   |   |   |   PCh041 > 9.5: dup (9.0/1.0)
|   |   |   |   |   |   |    devices1 > 6.01
|   |   |   |   |   |   |   |   PCh061 <= 3.3
|   |   |   |   |   |   |   |   |    datastructures2 <= 5.71
|   |   |   |   |   |   |   |   |   |   bmfu <= 8.34: dup (3.0)
|   |   |   |   |   |   |   |   |   |   bmfu > 8.34: non (2.0)
|   |   |   |   |   |   |   |   |    datastructures2 > 5.71: dup (24.0)
|   |   |   |   |   |   |   |   PCh061 > 3.3: non (5.0)
|   |   |   |   |   PCh011 > 0.21
|   |   |   |   |   |   PCh071 <= 1.35
|   |   |   |   |   |   |   PCh032 <= 3.23: non (20.0)
|   |   |   |   |   |   |   PCh032 > 3.23
|   |   |   |   |   |   |   |    synchronisation1 <= 5.51
|   |   |   |   |   |   |   |   |   bmfu <= 4.53: non (16.0)
|   |   |   |   |   |   |   |   |   bmfu > 4.53: dup (4.0/1.0)
|   |   |   |   |   |   |   |    synchronisation1 > 5.51
|   |   |   |   |   |   |   |   |   PCh051 <= 0.86
|   |   |   |   |   |   |   |   |   |   bmfu <= 3.81: non (11.0)
|   |   |   |   |   |   |   |   |   |   bmfu > 3.81
|   |   |   |   |   |   |   |   |   |   |   PCh111 <= 0.38
|   |   |   |   |   |   |   |   |   |   |   |   PCh052 <= 1.62: non (2.0)
|   |   |   |   |   |   |   |   |   |   |   |   PCh052 > 1.62: dup (9.0)
|   |   |   |   |   |   |   |   |   |   |   PCh111 > 0.38: non (2.0)
|   |   |   |   |   |   |   |   |   PCh051 > 0.86
|   |   |   |   |   |   |   |   |   |    portability1 <= 6.24: dup (72.0)
|   |   |   |   |   |   |   |   |   |    portability1 > 6.24
|   |   |   |   |   |   |   |   |   |   |    basics1 <= 6.06: non (3.0)
|   |   |   |   |   |   |   |   |   |   |    basics1 > 6.06: dup (6.0)
|   |   |   |   |   |   PCh071 > 1.35
|   |   |   |   |   |   |   bmfu <= 3.62
|   |   |   |   |   |   |   |   type <= 0
|   |   |   |   |   |   |   |   |    synchronisation2 <= 6.83
|   |   |   |   |   |   |   |   |   |    devices1 <= 7.42: dup (13.0)
|   |   |   |   |   |   |   |   |   |    devices1 > 7.42: non (3.0)
|   |   |   |   |   |   |   |   |    synchronisation2 > 6.83
|   |   |   |   |   |   |   |   |   |   PCh022 <= 8.86
|   |   |   |   |   |   |   |   |   |   |   PCh082 <= 7.74
|   |   |   |   |   |   |   |   |   |   |   |    basics1 <= 11.72
|   |   |   |   |   |   |   |   |   |   |   |   |    memory1 <= 5.66: non (15.0)
|   |   |   |   |   |   |   |   |   |   |   |   |    memory1 > 5.66
|   |   |   |   |   |   |   |   |   |   |   |   |   |    datastructures2 <= 13.47
|   |   |   |   |   |   |   |   |   |   |   |   |   |   |   PCh112 <= 0.24
|   |   |   |   |   |   |   |   |   |   |   |   |   |   |   |   PCh012 <= 0.92: non (6.0)
|   |   |   |   |   |   |   |   |   |   |   |   |   |   |   |   PCh012 > 0.92
|   |   |   |   |   |   |   |   |   |   |   |   |   |   |   |   |    devices1 <= 7.92
|   |   |   |   |   |   |   |   |   |   |   |   |   |   |   |   |   |   PCh032 <= 7.6: dup (11.0)
|   |   |   |   |   |   |   |   |   |   |   |   |   |   |   |   |   |   PCh032 > 7.6: non (2.0)
|   |   |   |   |   |   |   |   |   |   |   |   |   |   |   |   |    devices1 > 7.92: non (2.0)
|   |   |   |   |   |   |   |   |   |   |   |   |   |   |   PCh112 > 0.24
|   |   |   |   |   |   |   |   |   |   |   |   |   |   |   |   PCh012 <= 0.75: dup (3.0/1.0)
|   |   |   |   |   |   |   |   |   |   |   |   |   |   |   |   PCh012 > 0.75: non (13.0)
|   |   |   |   |   |   |   |   |   |   |   |   |   |    datastructures2 > 13.47: dup (5.0)
|   |   |   |   |   |   |   |   |   |   |   |    basics1 > 11.72: non (18.0)
|   |   |   |   |   |   |   |   |   |   |   PCh082 > 7.74: dup (6.0)
|   |   |   |   |   |   |   |   |   |   PCh022 > 8.86: non (58.0)
|   |   |   |   |   |   |   |   type > 0
|   |   |   |   |   |   |   |   |   PCh122 <= 1.04
|   |   |   |   |   |   |   |   |   |   PCh082 <= 3.92
|   |   |   |   |   |   |   |   |   |   |    debugging2 <= 2.25: dup (4.0)
|   |   |   |   |   |   |   |   |   |   |    debugging2 > 2.25
|   |   |   |   |   |   |   |   |   |   |   |   PCh011 <= 1.09
|   |   |   |   |   |   |   |   |   |   |   |   |   PCh112 <= 0.22
|   |   |   |   |   |   |   |   |   |   |   |   |   |   PCh052 <= 0.3: non (2.0)
|   |   |   |   |   |   |   |   |   |   |   |   |   |   PCh052 > 0.3: dup (3.0)
|   |   |   |   |   |   |   |   |   |   |   |   |   PCh112 > 0.22: non (2.0)
|   |   |   |   |   |   |   |   |   |   |   |   PCh011 > 1.09: non (28.0)
|   |   |   |   |   |   |   |   |   |   PCh082 > 3.92: dup (5.0)
|   |   |   |   |   |   |   |   |   PCh122 > 1.04
|   |   |   |   |   |   |   |   |   |   PCh112 <= 0
|   |   |   |   |   |   |   |   |   |   |   PCh122 <= 5.43
|   |   |   |   |   |   |   |   |   |   |   |   vers <= 0.34
|   |   |   |   |   |   |   |   |   |   |   |   |    debugging1 <= 7.29
|   |   |   |   |   |   |   |   |   |   |   |   |   |    synchronisation1 <= 8.88: non (27.0/1.0)
|   |   |   |   |   |   |   |   |   |   |   |   |   |    synchronisation1 > 8.88
|   |   |   |   |   |   |   |   |   |   |   |   |   |   |   PCh021 <= 6.17: dup (7.0)
|   |   |   |   |   |   |   |   |   |   |   |   |   |   |   PCh021 > 6.17: non (2.0)
|   |   |   |   |   |   |   |   |   |   |   |   |    debugging1 > 7.29: non (138.0/4.0)
|   |   |   |   |   |   |   |   |   |   |   |   vers > 0.34
|   |   |   |   |   |   |   |   |   |   |   |   |    maintaninence2 <= 9.78: non (7.0)
|   |   |   |   |   |   |   |   |   |   |   |   |    maintaninence2 > 9.78: dup (4.0)
|   |   |   |   |   |   |   |   |   |   |   PCh122 > 5.43
|   |   |   |   |   |   |   |   |   |   |   |   PCh052 <= 2.02: non (2.0)
|   |   |   |   |   |   |   |   |   |   |   |   PCh052 > 2.02: dup (8.0)
|   |   |   |   |   |   |   |   |   |   PCh112 > 0
|   |   |   |   |   |   |   |   |   |   |    syscalls2 <= 5.52: non (210.0)
|   |   |   |   |   |   |   |   |   |   |    syscalls2 > 5.52
|   |   |   |   |   |   |   |   |   |   |   |   PCh092 <= 5.3
|   |   |   |   |   |   |   |   |   |   |   |   |   bmfu <= 3.2
|   |   |   |   |   |   |   |   |   |   |   |   |   |   PCh082 <= 7.63: non (205.0/3.0)
|   |   |   |   |   |   |   |   |   |   |   |   |   |   PCh082 > 7.63
|   |   |   |   |   |   |   |   |   |   |   |   |   |   |   PCh032 <= 6.32: dup (2.0)
|   |   |   |   |   |   |   |   |   |   |   |   |   |   |   PCh032 > 6.32
|   |   |   |   |   |   |   |   |   |   |   |   |   |   |   |   PCh091 <= 5.22: non (16.0)
|   |   |   |   |   |   |   |   |   |   |   |   |   |   |   |   PCh091 > 5.22: dup (3.0/1.0)
|   |   |   |   |   |   |   |   |   |   |   |   |   bmfu > 3.2
|   |   |   |   |   |   |   |   |   |   |   |   |   |   PCh052 <= 2.72
|   |   |   |   |   |   |   |   |   |   |   |   |   |   |    portability1 <= 8.16: non (26.0/1.0)
|   |   |   |   |   |   |   |   |   |   |   |   |   |   |    portability1 > 8.16
|   |   |   |   |   |   |   |   |   |   |   |   |   |   |   |    datastructures2 <= 7.38: dup (5.0)
|   |   |   |   |   |   |   |   |   |   |   |   |   |   |   |    datastructures2 > 7.38
|   |   |   |   |   |   |   |   |   |   |   |   |   |   |   |   |    interrupts2 <= 8.38: non (13.0)
|   |   |   |   |   |   |   |   |   |   |   |   |   |   |   |   |    interrupts2 > 8.38
|   |   |   |   |   |   |   |   |   |   |   |   |   |   |   |   |   |   PCh101 <= 2.15: non (9.0/1.0)
|   |   |   |   |   |   |   |   |   |   |   |   |   |   |   |   |   |   PCh101 > 2.15: dup (5.0)
|   |   |   |   |   |   |   |   |   |   |   |   |   |   PCh052 > 2.72: non (28.0)
|   |   |   |   |   |   |   |   |   |   |   |   PCh092 > 5.3: non (159.0)
|   |   |   |   |   |   |   bmfu > 3.62
|   |   |   |   |   |   |   |   type <= 0
|   |   |   |   |   |   |   |   |    basics1 <= 13.84
|   |   |   |   |   |   |   |   |   |    maintaninence2 <= 15.17
|   |   |   |   |   |   |   |   |   |   |     memoryManagement2 <= 6.38
|   |   |   |   |   |   |   |   |   |   |   |   PCh072 <= 5.88
|   |   |   |   |   |   |   |   |   |   |   |   |   PCh022 <= 1.94: non (3.0/1.0)
|   |   |   |   |   |   |   |   |   |   |   |   |   PCh022 > 1.94: dup (57.0/1.0)
|   |   |   |   |   |   |   |   |   |   |   |   PCh072 > 5.88: non (4.0/1.0)
|   |   |   |   |   |   |   |   |   |   |     memoryManagement2 > 6.38
|   |   |   |   |   |   |   |   |   |   |   |   bmfb <= 7.93
|   |   |   |   |   |   |   |   |   |   |   |   |   bmfu <= 3.93
|   |   |   |   |   |   |   |   |   |   |   |   |   |   PCh112 <= 1.6: non (16.0/1.0)
|   |   |   |   |   |   |   |   |   |   |   |   |   |   PCh112 > 1.6: dup (2.0)
|   |   |   |   |   |   |   |   |   |   |   |   |   bmfu > 3.93
|   |   |   |   |   |   |   |   |   |   |   |   |   |    maintaninence2 <= 14.43
|   |   |   |   |   |   |   |   |   |   |   |   |   |   |    memory2 <= 11.02
|   |   |   |   |   |   |   |   |   |   |   |   |   |   |   |    IO2 <= 15.36
|   |   |   |   |   |   |   |   |   |   |   |   |   |   |   |   |   PCh032 <= 6.79
|   |   |   |   |   |   |   |   |   |   |   |   |   |   |   |   |   |    synchronisation1 <= 8.07
|   |   |   |   |   |   |   |   |   |   |   |   |   |   |   |   |   |   |    datastructures1 <= 6.65: dup (5.0/1.0)
|   |   |   |   |   |   |   |   |   |   |   |   |   |   |   |   |   |   |    datastructures1 > 6.65: non (7.0)
|   |   |   |   |   |   |   |   |   |   |   |   |   |   |   |   |   |    synchronisation1 > 8.07
|   |   |   |   |   |   |   |   |   |   |   |   |   |   |   |   |   |   |   PCh081 <= 2.39: non (2.0)
|   |   |   |   |   |   |   |   |   |   |   |   |   |   |   |   |   |   |   PCh081 > 2.39
|   |   |   |   |   |   |   |   |   |   |   |   |   |   |   |   |   |   |   |   PCh112 <= 1.38: dup (34.0)
|   |   |   |   |   |   |   |   |   |   |   |   |   |   |   |   |   |   |   |   PCh112 > 1.38
|   |   |   |   |   |   |   |   |   |   |   |   |   |   |   |   |   |   |   |   |   PCh011 <= 2.8: dup (2.0)
|   |   |   |   |   |   |   |   |   |   |   |   |   |   |   |   |   |   |   |   |   PCh011 > 2.8: non (2.0)
|   |   |   |   |   |   |   |   |   |   |   |   |   |   |   |   |   PCh032 > 6.79
|   |   |   |   |   |   |   |   |   |   |   |   |   |   |   |   |   |   PCh022 <= 6.49
|   |   |   |   |   |   |   |   |   |   |   |   |   |   |   |   |   |   |   bmfu <= 8.45: dup (2.0)
|   |   |   |   |   |   |   |   |   |   |   |   |   |   |   |   |   |   |   bmfu > 8.45: non (2.0)
|   |   |   |   |   |   |   |   |   |   |   |   |   |   |   |   |   |   PCh022 > 6.49: non (13.0)
|   |   |   |   |   |   |   |   |   |   |   |   |   |   |   |    IO2 > 15.36: dup (18.0)
|   |   |   |   |   |   |   |   |   |   |   |   |   |   |    memory2 > 11.02: non (10.0)
|   |   |   |   |   |   |   |   |   |   |   |   |   |    maintaninence2 > 14.43: dup (16.0)
|   |   |   |   |   |   |   |   |   |   |   |   bmfb > 7.93: non (11.0)
|   |   |   |   |   |   |   |   |   |    maintaninence2 > 15.17
|   |   |   |   |   |   |   |   |   |   |   PCh111 <= 1.62: non (26.0)
|   |   |   |   |   |   |   |   |   |   |   PCh111 > 1.62: dup (5.0)
|   |   |   |   |   |   |   |   |    basics1 > 13.84: non (24.0/1.0)
|   |   |   |   |   |   |   |   type > 0
|   |   |   |   |   |   |   |   |    memory2 <= 3.77
|   |   |   |   |   |   |   |   |   |    syscalls2 <= 6.69
|   |   |   |   |   |   |   |   |   |   |   bmfb <= 0.48
|   |   |   |   |   |   |   |   |   |   |   |   PCh072 <= 1.92: dup (6.0/1.0)
|   |   |   |   |   |   |   |   |   |   |   |   PCh072 > 1.92: non (10.0)
|   |   |   |   |   |   |   |   |   |   |   bmfb > 0.48: non (298.0/6.0)
|   |   |   |   |   |   |   |   |   |    syscalls2 > 6.69
|   |   |   |   |   |   |   |   |   |   |   PCh112 <= 0.26
|   |   |   |   |   |   |   |   |   |   |   |   PCh052 <= 0.27: non (2.0)
|   |   |   |   |   |   |   |   |   |   |   |   PCh052 > 0.27: dup (7.0)
|   |   |   |   |   |   |   |   |   |   |   PCh112 > 0.26: non (8.0)
|   |   |   |   |   |   |   |   |    memory2 > 3.77
|   |   |   |   |   |   |   |   |   |   PCh092 <= 5.2
|   |   |   |   |   |   |   |   |   |   |    IO2 <= 13.21
|   |   |   |   |   |   |   |   |   |   |   |    interrupts2 <= 3.65
|   |   |   |   |   |   |   |   |   |   |   |   |   PCh051 <= 2.77
|   |   |   |   |   |   |   |   |   |   |   |   |   |   PCh082 <= 5.34
|   |   |   |   |   |   |   |   |   |   |   |   |   |   |   bmfb <= 0.29: dup (9.0/1.0)
|   |   |   |   |   |   |   |   |   |   |   |   |   |   |   bmfb > 0.29
|   |   |   |   |   |   |   |   |   |   |   |   |   |   |   |   vers <= 0.25
|   |   |   |   |   |   |   |   |   |   |   |   |   |   |   |   |   PCh122 <= 1.4: dup (5.0/1.0)
|   |   |   |   |   |   |   |   |   |   |   |   |   |   |   |   |   PCh122 > 1.4
|   |   |   |   |   |   |   |   |   |   |   |   |   |   |   |   |   |    syscalls2 <= 2.45: dup (4.0/1.0)
|   |   |   |   |   |   |   |   |   |   |   |   |   |   |   |   |   |    syscalls2 > 2.45: non (25.0)
|   |   |   |   |   |   |   |   |   |   |   |   |   |   |   |   vers > 0.25
|   |   |   |   |   |   |   |   |   |   |   |   |   |   |   |   |   PCh122 <= 2.02: non (2.0)
|   |   |   |   |   |   |   |   |   |   |   |   |   |   |   |   |   PCh122 > 2.02: dup (5.0)
|   |   |   |   |   |   |   |   |   |   |   |   |   |   PCh082 > 5.34: dup (6.0)
|   |   |   |   |   |   |   |   |   |   |   |   |   PCh051 > 2.77: dup (24.0/1.0)
|   |   |   |   |   |   |   |   |   |   |   |    interrupts2 > 3.65
|   |   |   |   |   |   |   |   |   |   |   |   |    devices2 <= 4.17
|   |   |   |   |   |   |   |   |   |   |   |   |   |    syscalls2 <= 7.34
|   |   |   |   |   |   |   |   |   |   |   |   |   |   |    maintaninence1 <= 11.38: non (140.0/3.0)
|   |   |   |   |   |   |   |   |   |   |   |   |   |   |    maintaninence1 > 11.38
|   |   |   |   |   |   |   |   |   |   |   |   |   |   |   |   PCh091 <= 4.19
|   |   |   |   |   |   |   |   |   |   |   |   |   |   |   |   |   PCh031 <= 3.82: non (2.0)
|   |   |   |   |   |   |   |   |   |   |   |   |   |   |   |   |   PCh031 > 3.82: dup (7.0)
|   |   |   |   |   |   |   |   |   |   |   |   |   |   |   |   PCh091 > 4.19: non (19.0)
|   |   |   |   |   |   |   |   |   |   |   |   |   |    syscalls2 > 7.34
|   |   |   |   |   |   |   |   |   |   |   |   |   |   |    datastructures2 <= 9.18: non (2.0)
|   |   |   |   |   |   |   |   |   |   |   |   |   |   |    datastructures2 > 9.18: dup (8.0/1.0)
|   |   |   |   |   |   |   |   |   |   |   |   |    devices2 > 4.17
|   |   |   |   |   |   |   |   |   |   |   |   |   |   PCh072 <= 3.28
|   |   |   |   |   |   |   |   |   |   |   |   |   |   |   PCh112 <= 0.45
|   |   |   |   |   |   |   |   |   |   |   |   |   |   |   |    maintaninence2 <= 5.75: non (5.0)
|   |   |   |   |   |   |   |   |   |   |   |   |   |   |   |    maintaninence2 > 5.75
|   |   |   |   |   |   |   |   |   |   |   |   |   |   |   |   |    memory2 <= 5.27: non (5.0/1.0)
|   |   |   |   |   |   |   |   |   |   |   |   |   |   |   |   |    memory2 > 5.27
|   |   |   |   |   |   |   |   |   |   |   |   |   |   |   |   |   |   PCh052 <= 0.87
|   |   |   |   |   |   |   |   |   |   |   |   |   |   |   |   |   |   |   bmfu <= 8.44: non (5.0/1.0)
|   |   |   |   |   |   |   |   |   |   |   |   |   |   |   |   |   |   |   bmfu > 8.44: dup (3.0)
|   |   |   |   |   |   |   |   |   |   |   |   |   |   |   |   |   |   PCh052 > 0.87
|   |   |   |   |   |   |   |   |   |   |   |   |   |   |   |   |   |   |   PCh121 <= 4.57: dup (41.0)
|   |   |   |   |   |   |   |   |   |   |   |   |   |   |   |   |   |   |   PCh121 > 4.57
|   |   |   |   |   |   |   |   |   |   |   |   |   |   |   |   |   |   |   |     memoryManagement2 <= 8.37: dup (7.0)
|   |   |   |   |   |   |   |   |   |   |   |   |   |   |   |   |   |   |   |     memoryManagement2 > 8.37: non (2.0)
|   |   |   |   |   |   |   |   |   |   |   |   |   |   |   PCh112 > 0.45
|   |   |   |   |   |   |   |   |   |   |   |   |   |   |   |    syscalls2 <= 8.73
|   |   |   |   |   |   |   |   |   |   |   |   |   |   |   |   |   bmfb <= 0.2: dup (2.0)
|   |   |   |   |   |   |   |   |   |   |   |   |   |   |   |   |   bmfb > 0.2
|   |   |   |   |   |   |   |   |   |   |   |   |   |   |   |   |   |    debugging2 <= 7.26
|   |   |   |   |   |   |   |   |   |   |   |   |   |   |   |   |   |   |   PCh071 <= 4.85: dup (2.0)
|   |   |   |   |   |   |   |   |   |   |   |   |   |   |   |   |   |   |   PCh071 > 4.85: non (3.0)
|   |   |   |   |   |   |   |   |   |   |   |   |   |   |   |   |   |    debugging2 > 7.26: non (21.0)
|   |   |   |   |   |   |   |   |   |   |   |   |   |   |   |    syscalls2 > 8.73: dup (6.0)
|   |   |   |   |   |   |   |   |   |   |   |   |   |   PCh072 > 3.28
|   |   |   |   |   |   |   |   |   |   |   |   |   |   |   bmfu <= 4.8
|   |   |   |   |   |   |   |   |   |   |   |   |   |   |   |   PCh032 <= 5.98
|   |   |   |   |   |   |   |   |   |   |   |   |   |   |   |   |     memoryManagement2 <= 4.31
|   |   |   |   |   |   |   |   |   |   |   |   |   |   |   |   |   |   PCh101 <= 2.54: dup (2.0)
|   |   |   |   |   |   |   |   |   |   |   |   |   |   |   |   |   |   PCh101 > 2.54: non (4.0)
|   |   |   |   |   |   |   |   |   |   |   |   |   |   |   |   |     memoryManagement2 > 4.31: non (76.0)
|   |   |   |   |   |   |   |   |   |   |   |   |   |   |   |   PCh032 > 5.98
|   |   |   |   |   |   |   |   |   |   |   |   |   |   |   |   |   PCh071 <= 2.36: dup (4.0)
|   |   |   |   |   |   |   |   |   |   |   |   |   |   |   |   |   PCh071 > 2.36
|   |   |   |   |   |   |   |   |   |   |   |   |   |   |   |   |   |    IO2 <= 9.45
|   |   |   |   |   |   |   |   |   |   |   |   |   |   |   |   |   |   |   PCh092 <= 4.84: dup (5.0)
|   |   |   |   |   |   |   |   |   |   |   |   |   |   |   |   |   |   |   PCh092 > 4.84: non (2.0)
|   |   |   |   |   |   |   |   |   |   |   |   |   |   |   |   |   |    IO2 > 9.45
|   |   |   |   |   |   |   |   |   |   |   |   |   |   |   |   |   |   |   PCh112 <= 2.54: non (35.0/1.0)
|   |   |   |   |   |   |   |   |   |   |   |   |   |   |   |   |   |   |   PCh112 > 2.54: dup (3.0/1.0)
|   |   |   |   |   |   |   |   |   |   |   |   |   |   |   bmfu > 4.8
|   |   |   |   |   |   |   |   |   |   |   |   |   |   |   |    synchronisation1 <= 13.58
|   |   |   |   |   |   |   |   |   |   |   |   |   |   |   |   |    maintaninence2 <= 7.6
|   |   |   |   |   |   |   |   |   |   |   |   |   |   |   |   |   |   vers <= 0.22: non (53.0/1.0)
|   |   |   |   |   |   |   |   |   |   |   |   |   |   |   |   |   |   vers > 0.22
|   |   |   |   |   |   |   |   |   |   |   |   |   |   |   |   |   |   |   vers <= 0.63: dup (3.0)
|   |   |   |   |   |   |   |   |   |   |   |   |   |   |   |   |   |   |   vers > 0.63: non (4.0)
|   |   |   |   |   |   |   |   |   |   |   |   |   |   |   |   |    maintaninence2 > 7.6
|   |   |   |   |   |   |   |   |   |   |   |   |   |   |   |   |   |     process1 <= 2.38
|   |   |   |   |   |   |   |   |   |   |   |   |   |   |   |   |   |   |   PCh091 <= 0.77: non (2.0)
|   |   |   |   |   |   |   |   |   |   |   |   |   |   |   |   |   |   |   PCh091 > 0.77: dup (18.0/1.0)
|   |   |   |   |   |   |   |   |   |   |   |   |   |   |   |   |   |     process1 > 2.38
|   |   |   |   |   |   |   |   |   |   |   |   |   |   |   |   |   |   |   bmfu <= 18.34
|   |   |   |   |   |   |   |   |   |   |   |   |   |   |   |   |   |   |   |   PCh122 <= 5.62
|   |   |   |   |   |   |   |   |   |   |   |   |   |   |   |   |   |   |   |   |   PCh101 <= 0.56
|   |   |   |   |   |   |   |   |   |   |   |   |   |   |   |   |   |   |   |   |   |   PCh091 <= 3.67: dup (8.0)
|   |   |   |   |   |   |   |   |   |   |   |   |   |   |   |   |   |   |   |   |   |   PCh091 > 3.67: non (4.0/1.0)
|   |   |   |   |   |   |   |   |   |   |   |   |   |   |   |   |   |   |   |   |   PCh101 > 0.56
|   |   |   |   |   |   |   |   |   |   |   |   |   |   |   |   |   |   |   |   |   |   bmfu <= 15.64
|   |   |   |   |   |   |   |   |   |   |   |   |   |   |   |   |   |   |   |   |   |   |   PCh022 <= 6.53
|   |   |   |   |   |   |   |   |   |   |   |   |   |   |   |   |   |   |   |   |   |   |   |   PCh041 <= 5.79: dup (5.0)
|   |   |   |   |   |   |   |   |   |   |   |   |   |   |   |   |   |   |   |   |   |   |   |   PCh041 > 5.79
|   |   |   |   |   |   |   |   |   |   |   |   |   |   |   |   |   |   |   |   |   |   |   |   |    interrupts2 <= 4.52: dup (4.0)
|   |   |   |   |   |   |   |   |   |   |   |   |   |   |   |   |   |   |   |   |   |   |   |   |    interrupts2 > 4.52
|   |   |   |   |   |   |   |   |   |   |   |   |   |   |   |   |   |   |   |   |   |   |   |   |   |    maintaninence1 <= 9.51: non (20.0)
|   |   |   |   |   |   |   |   |   |   |   |   |   |   |   |   |   |   |   |   |   |   |   |   |   |    maintaninence1 > 9.51
|   |   |   |   |   |   |   |   |   |   |   |   |   |   |   |   |   |   |   |   |   |   |   |   |   |   |    IO1 <= 13.52
|   |   |   |   |   |   |   |   |   |   |   |   |   |   |   |   |   |   |   |   |   |   |   |   |   |   |   |    memory1 <= 6.95: non (7.0)
|   |   |   |   |   |   |   |   |   |   |   |   |   |   |   |   |   |   |   |   |   |   |   |   |   |   |   |    memory1 > 6.95
|   |   |   |   |   |   |   |   |   |   |   |   |   |   |   |   |   |   |   |   |   |   |   |   |   |   |   |   |   vers <= 0.25
|   |   |   |   |   |   |   |   |   |   |   |   |   |   |   |   |   |   |   |   |   |   |   |   |   |   |   |   |   |   PCh031 <= 5.55
|   |   |   |   |   |   |   |   |   |   |   |   |   |   |   |   |   |   |   |   |   |   |   |   |   |   |   |   |   |   |   PCh032 <= 5.43: dup (2.0)
|   |   |   |   |   |   |   |   |   |   |   |   |   |   |   |   |   |   |   |   |   |   |   |   |   |   |   |   |   |   |   PCh032 > 5.43: non (4.0)
|   |   |   |   |   |   |   |   |   |   |   |   |   |   |   |   |   |   |   |   |   |   |   |   |   |   |   |   |   |   PCh031 > 5.55: dup (14.0)
|   |   |   |   |   |   |   |   |   |   |   |   |   |   |   |   |   |   |   |   |   |   |   |   |   |   |   |   |   vers > 0.25: non (2.0)
|   |   |   |   |   |   |   |   |   |   |   |   |   |   |   |   |   |   |   |   |   |   |   |   |   |   |    IO1 > 13.52: non (9.0)
|   |   |   |   |   |   |   |   |   |   |   |   |   |   |   |   |   |   |   |   |   |   |   PCh022 > 6.53
|   |   |   |   |   |   |   |   |   |   |   |   |   |   |   |   |   |   |   |   |   |   |   |    devices2 <= 4.5
|   |   |   |   |   |   |   |   |   |   |   |   |   |   |   |   |   |   |   |   |   |   |   |   |   PCh051 <= 1.85: dup (4.0)
|   |   |   |   |   |   |   |   |   |   |   |   |   |   |   |   |   |   |   |   |   |   |   |   |   PCh051 > 1.85: non (2.0)
|   |   |   |   |   |   |   |   |   |   |   |   |   |   |   |   |   |   |   |   |   |   |   |    devices2 > 4.5
|   |   |   |   |   |   |   |   |   |   |   |   |   |   |   |   |   |   |   |   |   |   |   |   |    debugging2 <= 10.18
|   |   |   |   |   |   |   |   |   |   |   |   |   |   |   |   |   |   |   |   |   |   |   |   |   |    IO2 <= 9.94: non (17.0)
|   |   |   |   |   |   |   |   |   |   |   |   |   |   |   |   |   |   |   |   |   |   |   |   |   |    IO2 > 9.94
|   |   |   |   |   |   |   |   |   |   |   |   |   |   |   |   |   |   |   |   |   |   |   |   |   |   |   PCh062 <= 4.72
|   |   |   |   |   |   |   |   |   |   |   |   |   |   |   |   |   |   |   |   |   |   |   |   |   |   |   |    debugging2 <= 9.59: non (11.0)
|   |   |   |   |   |   |   |   |   |   |   |   |   |   |   |   |   |   |   |   |   |   |   |   |   |   |   |    debugging2 > 9.59
|   |   |   |   |   |   |   |   |   |   |   |   |   |   |   |   |   |   |   |   |   |   |   |   |   |   |   |   |   PCh041 <= 7.99: dup (3.0)
|   |   |   |   |   |   |   |   |   |   |   |   |   |   |   |   |   |   |   |   |   |   |   |   |   |   |   |   |   PCh041 > 7.99: non (5.0/1.0)
|   |   |   |   |   |   |   |   |   |   |   |   |   |   |   |   |   |   |   |   |   |   |   |   |   |   |   PCh062 > 4.72: dup (3.0)
|   |   |   |   |   |   |   |   |   |   |   |   |   |   |   |   |   |   |   |   |   |   |   |   |    debugging2 > 10.18: non (42.0)
|   |   |   |   |   |   |   |   |   |   |   |   |   |   |   |   |   |   |   |   |   |   bmfu > 15.64: non (28.0)
|   |   |   |   |   |   |   |   |   |   |   |   |   |   |   |   |   |   |   |   PCh122 > 5.62
|   |   |   |   |   |   |   |   |   |   |   |   |   |   |   |   |   |   |   |   |    syscalls1 <= 5.46: non (4.0)
|   |   |   |   |   |   |   |   |   |   |   |   |   |   |   |   |   |   |   |   |    syscalls1 > 5.46: dup (10.0)
|   |   |   |   |   |   |   |   |   |   |   |   |   |   |   |   |   |   |   bmfu > 18.34
|   |   |   |   |   |   |   |   |   |   |   |   |   |   |   |   |   |   |   |   PCh102 <= 2.45: dup (15.0/1.0)
|   |   |   |   |   |   |   |   |   |   |   |   |   |   |   |   |   |   |   |   PCh102 > 2.45: non (4.0)
|   |   |   |   |   |   |   |   |   |   |   |   |   |   |   |    synchronisation1 > 13.58
|   |   |   |   |   |   |   |   |   |   |   |   |   |   |   |   |   PCh111 <= 2.08
|   |   |   |   |   |   |   |   |   |   |   |   |   |   |   |   |   |     process1 <= 5.46: non (2.0)
|   |   |   |   |   |   |   |   |   |   |   |   |   |   |   |   |   |     process1 > 5.46
|   |   |   |   |   |   |   |   |   |   |   |   |   |   |   |   |   |   |   PCh092 <= 4.87: dup (18.0)
|   |   |   |   |   |   |   |   |   |   |   |   |   |   |   |   |   |   |   PCh092 > 4.87
|   |   |   |   |   |   |   |   |   |   |   |   |   |   |   |   |   |   |   |   bmfu <= 9.45: non (2.0)
|   |   |   |   |   |   |   |   |   |   |   |   |   |   |   |   |   |   |   |   bmfu > 9.45: dup (2.0)
|   |   |   |   |   |   |   |   |   |   |   |   |   |   |   |   |   PCh111 > 2.08: non (4.0)
|   |   |   |   |   |   |   |   |   |   |    IO2 > 13.21
|   |   |   |   |   |   |   |   |   |   |   |   PCh121 <= 1.23: dup (17.0)
|   |   |   |   |   |   |   |   |   |   |   |   PCh121 > 1.23
|   |   |   |   |   |   |   |   |   |   |   |   |    basics2 <= 13.85
|   |   |   |   |   |   |   |   |   |   |   |   |   |    devices2 <= 11.37
|   |   |   |   |   |   |   |   |   |   |   |   |   |   |    synchronisation2 <= 16.43
|   |   |   |   |   |   |   |   |   |   |   |   |   |   |   |   prior <= 0.5: dup (14.0/1.0)
|   |   |   |   |   |   |   |   |   |   |   |   |   |   |   |   prior > 0.5
|   |   |   |   |   |   |   |   |   |   |   |   |   |   |   |   |   PCh042 <= 14.42
|   |   |   |   |   |   |   |   |   |   |   |   |   |   |   |   |   |   PCh031 <= 5.55
|   |   |   |   |   |   |   |   |   |   |   |   |   |   |   |   |   |   |   bmfu <= 7.11
|   |   |   |   |   |   |   |   |   |   |   |   |   |   |   |   |   |   |   |   vers <= 0.3: non (27.0)
|   |   |   |   |   |   |   |   |   |   |   |   |   |   |   |   |   |   |   |   vers > 0.3
|   |   |   |   |   |   |   |   |   |   |   |   |   |   |   |   |   |   |   |   |   vers <= 0.31: dup (2.0)
|   |   |   |   |   |   |   |   |   |   |   |   |   |   |   |   |   |   |   |   |   vers > 0.31: non (3.0)
|   |   |   |   |   |   |   |   |   |   |   |   |   |   |   |   |   |   |   bmfu > 7.11
|   |   |   |   |   |   |   |   |   |   |   |   |   |   |   |   |   |   |   |   PCh031 <= 3.87: non (4.0/1.0)
|   |   |   |   |   |   |   |   |   |   |   |   |   |   |   |   |   |   |   |   PCh031 > 3.87: dup (9.0)
|   |   |   |   |   |   |   |   |   |   |   |   |   |   |   |   |   |   PCh031 > 5.55
|   |   |   |   |   |   |   |   |   |   |   |   |   |   |   |   |   |   |   PCh091 <= 5.6
|   |   |   |   |   |   |   |   |   |   |   |   |   |   |   |   |   |   |   |    maintaninence2 <= 15.28
|   |   |   |   |   |   |   |   |   |   |   |   |   |   |   |   |   |   |   |   |   bmfu <= 5.02
|   |   |   |   |   |   |   |   |   |   |   |   |   |   |   |   |   |   |   |   |   |    memory2 <= 11.45
|   |   |   |   |   |   |   |   |   |   |   |   |   |   |   |   |   |   |   |   |   |   |   PCh051 <= 1.67: dup (10.0)
|   |   |   |   |   |   |   |   |   |   |   |   |   |   |   |   |   |   |   |   |   |   |   PCh051 > 1.67
|   |   |   |   |   |   |   |   |   |   |   |   |   |   |   |   |   |   |   |   |   |   |   |   PCh081 <= 5.13: non (5.0)
|   |   |   |   |   |   |   |   |   |   |   |   |   |   |   |   |   |   |   |   |   |   |   |   PCh081 > 5.13: dup (6.0/1.0)
|   |   |   |   |   |   |   |   |   |   |   |   |   |   |   |   |   |   |   |   |   |    memory2 > 11.45: non (6.0)
|   |   |   |   |   |   |   |   |   |   |   |   |   |   |   |   |   |   |   |   |   bmfu > 5.02
|   |   |   |   |   |   |   |   |   |   |   |   |   |   |   |   |   |   |   |   |   |   bmfu <= 15.12: dup (55.0/3.0)
|   |   |   |   |   |   |   |   |   |   |   |   |   |   |   |   |   |   |   |   |   |   bmfu > 15.12
|   |   |   |   |   |   |   |   |   |   |   |   |   |   |   |   |   |   |   |   |   |   |    maintaninence2 <= 12.19: dup (4.0)
|   |   |   |   |   |   |   |   |   |   |   |   |   |   |   |   |   |   |   |   |   |   |    maintaninence2 > 12.19: non (4.0)
|   |   |   |   |   |   |   |   |   |   |   |   |   |   |   |   |   |   |   |    maintaninence2 > 15.28
|   |   |   |   |   |   |   |   |   |   |   |   |   |   |   |   |   |   |   |   |    interrupts2 <= 8.38: dup (2.0)
|   |   |   |   |   |   |   |   |   |   |   |   |   |   |   |   |   |   |   |   |    interrupts2 > 8.38: non (7.0)
|   |   |   |   |   |   |   |   |   |   |   |   |   |   |   |   |   |   |   PCh091 > 5.6
|   |   |   |   |   |   |   |   |   |   |   |   |   |   |   |   |   |   |   |    basics1 <= 13.89: non (14.0)
|   |   |   |   |   |   |   |   |   |   |   |   |   |   |   |   |   |   |   |    basics1 > 13.89: dup (5.0/1.0)
|   |   |   |   |   |   |   |   |   |   |   |   |   |   |   |   |   PCh042 > 14.42: dup (17.0)
|   |   |   |   |   |   |   |   |   |   |   |   |   |   |    synchronisation2 > 16.43: non (18.0/1.0)
|   |   |   |   |   |   |   |   |   |   |   |   |   |    devices2 > 11.37: dup (26.0/1.0)
|   |   |   |   |   |   |   |   |   |   |   |   |    basics2 > 13.85
|   |   |   |   |   |   |   |   |   |   |   |   |   |   PCh022 <= 13.9
|   |   |   |   |   |   |   |   |   |   |   |   |   |   |   PCh122 <= 3.35
|   |   |   |   |   |   |   |   |   |   |   |   |   |   |   |   bmfu <= 7.91: non (3.0)
|   |   |   |   |   |   |   |   |   |   |   |   |   |   |   |   bmfu > 7.91: dup (3.0)
|   |   |   |   |   |   |   |   |   |   |   |   |   |   |   PCh122 > 3.35: non (25.0)
|   |   |   |   |   |   |   |   |   |   |   |   |   |   PCh022 > 13.9: dup (3.0)
|   |   |   |   |   |   |   |   |   |   PCh092 > 5.2
|   |   |   |   |   |   |   |   |   |   |    maintaninence2 <= 10.65
|   |   |   |   |   |   |   |   |   |   |   |   vers <= 0.3: non (179.0/1.0)
|   |   |   |   |   |   |   |   |   |   |   |   vers > 0.3
|   |   |   |   |   |   |   |   |   |   |   |   |   bmfu <= 15.44: non (8.0)
|   |   |   |   |   |   |   |   |   |   |   |   |   bmfu > 15.44: dup (2.0)
|   |   |   |   |   |   |   |   |   |   |    maintaninence2 > 10.65
|   |   |   |   |   |   |   |   |   |   |   |   PCh012 <= 1.54
|   |   |   |   |   |   |   |   |   |   |   |   |   PCh092 <= 5.41: non (2.0)
|   |   |   |   |   |   |   |   |   |   |   |   |   PCh092 > 5.41: dup (12.0)
|   |   |   |   |   |   |   |   |   |   |   |   PCh012 > 1.54
|   |   |   |   |   |   |   |   |   |   |   |   |   PCh091 <= 2.9
|   |   |   |   |   |   |   |   |   |   |   |   |   |    interrupts1 <= 3.61: non (9.0)
|   |   |   |   |   |   |   |   |   |   |   |   |   |    interrupts1 > 3.61
|   |   |   |   |   |   |   |   |   |   |   |   |   |   |    IO2 <= 13.26: dup (13.0/1.0)
|   |   |   |   |   |   |   |   |   |   |   |   |   |   |    IO2 > 13.26
|   |   |   |   |   |   |   |   |   |   |   |   |   |   |   |   PCh011 <= 1.63
|   |   |   |   |   |   |   |   |   |   |   |   |   |   |   |   |   PCh122 <= 5.67: dup (7.0)
|   |   |   |   |   |   |   |   |   |   |   |   |   |   |   |   |   PCh122 > 5.67: non (2.0)
|   |   |   |   |   |   |   |   |   |   |   |   |   |   |   |   PCh011 > 1.63: non (18.0/1.0)
|   |   |   |   |   |   |   |   |   |   |   |   |   PCh091 > 2.9
|   |   |   |   |   |   |   |   |   |   |   |   |   |    IO1 <= 12.12
|   |   |   |   |   |   |   |   |   |   |   |   |   |   |   PCh072 <= 8.97: non (67.0)
|   |   |   |   |   |   |   |   |   |   |   |   |   |   |   PCh072 > 8.97
|   |   |   |   |   |   |   |   |   |   |   |   |   |   |   |   PCh012 <= 2.97: dup (3.0)
|   |   |   |   |   |   |   |   |   |   |   |   |   |   |   |   PCh012 > 2.97
|   |   |   |   |   |   |   |   |   |   |   |   |   |   |   |   |   PCh082 <= 9.22: non (17.0)
|   |   |   |   |   |   |   |   |   |   |   |   |   |   |   |   |   PCh082 > 9.22
|   |   |   |   |   |   |   |   |   |   |   |   |   |   |   |   |   |   PCh012 <= 5.05: dup (2.0)
|   |   |   |   |   |   |   |   |   |   |   |   |   |   |   |   |   |   PCh012 > 5.05: non (3.0)
|   |   |   |   |   |   |   |   |   |   |   |   |   |    IO1 > 12.12
|   |   |   |   |   |   |   |   |   |   |   |   |   |   |   PCh071 <= 4.17: dup (6.0)
|   |   |   |   |   |   |   |   |   |   |   |   |   |   |   PCh071 > 4.17
|   |   |   |   |   |   |   |   |   |   |   |   |   |   |   |    IO2 <= 10.42
|   |   |   |   |   |   |   |   |   |   |   |   |   |   |   |   |    syscalls1 <= 7.98: non (3.0)
|   |   |   |   |   |   |   |   |   |   |   |   |   |   |   |   |    syscalls1 > 7.98: dup (6.0)
|   |   |   |   |   |   |   |   |   |   |   |   |   |   |   |    IO2 > 10.42
|   |   |   |   |   |   |   |   |   |   |   |   |   |   |   |   |   PCh042 <= 13.2: non (32.0)
|   |   |   |   |   |   |   |   |   |   |   |   |   |   |   |   |   PCh042 > 13.2
|   |   |   |   |   |   |   |   |   |   |   |   |   |   |   |   |   |    synchronisation1 <= 11.37: dup (3.0)
|   |   |   |   |   |   |   |   |   |   |   |   |   |   |   |   |   |    synchronisation1 > 11.37
|   |   |   |   |   |   |   |   |   |   |   |   |   |   |   |   |   |   |   PCh071 <= 5.95
|   |   |   |   |   |   |   |   |   |   |   |   |   |   |   |   |   |   |   |   PCh011 <= 2.8: non (2.0)
|   |   |   |   |   |   |   |   |   |   |   |   |   |   |   |   |   |   |   |   PCh011 > 2.8: dup (3.0)
|   |   |   |   |   |   |   |   |   |   |   |   |   |   |   |   |   |   |   PCh071 > 5.95: non (16.0)
|   comp > 0
|   |   bmfu <= 2.84
|   |   |    memory2 <= 14.11
|   |   |   |   PCh072 <= 3.16
|   |   |   |   |   bmfu <= 1.14
|   |   |   |   |   |   type <= 0: non (15.0/2.0)
|   |   |   |   |   |   type > 0
|   |   |   |   |   |   |    interrupts2 <= 4.46: non (19.0)
|   |   |   |   |   |   |    interrupts2 > 4.46
|   |   |   |   |   |   |   |    basics2 <= 7.28: dup (9.0/1.0)
|   |   |   |   |   |   |   |    basics2 > 7.28: non (5.0)
|   |   |   |   |   bmfu > 1.14
|   |   |   |   |   |    interrupts1 <= 4.93
|   |   |   |   |   |   |   PCh052 <= 1.05: non (12.0)
|   |   |   |   |   |   |   PCh052 > 1.05: dup (6.0/1.0)
|   |   |   |   |   |    interrupts1 > 4.93
|   |   |   |   |   |   |    debugging2 <= 8.56
|   |   |   |   |   |   |   |    devices1 <= 8.44: dup (31.0)
|   |   |   |   |   |   |   |    devices1 > 8.44
|   |   |   |   |   |   |   |   |     process1 <= 8.77: non (4.0)
|   |   |   |   |   |   |   |   |     process1 > 8.77: dup (3.0)
|   |   |   |   |   |   |    debugging2 > 8.56
|   |   |   |   |   |   |   |   PCh061 <= 5.3: non (5.0)
|   |   |   |   |   |   |   |   PCh061 > 5.3: dup (2.0)
|   |   |   |   PCh072 > 3.16
|   |   |   |   |   type <= 0: non (33.0)
|   |   |   |   |   type > 0
|   |   |   |   |   |   PCh032 <= 8.13
|   |   |   |   |   |   |   PCh022 <= 3.04
|   |   |   |   |   |   |   |   cosine_similarity <= 0.911: non (2.0)
|   |   |   |   |   |   |   |   cosine_similarity > 0.911: dup (3.0)
|   |   |   |   |   |   |   PCh022 > 3.04
|   |   |   |   |   |   |   |    IO1 <= 4.79
|   |   |   |   |   |   |   |   |     process1 <= 1.48: non (8.0)
|   |   |   |   |   |   |   |   |     process1 > 1.48: dup (4.0)
|   |   |   |   |   |   |   |    IO1 > 4.79: non (87.0/1.0)
|   |   |   |   |   |   PCh032 > 8.13
|   |   |   |   |   |   |   vers <= 0.4
|   |   |   |   |   |   |   |    basics1 <= 9.63: non (15.0)
|   |   |   |   |   |   |   |    basics1 > 9.63
|   |   |   |   |   |   |   |   |    basics1 <= 15.42: dup (4.0)
|   |   |   |   |   |   |   |   |    basics1 > 15.42: non (2.0)
|   |   |   |   |   |   |   vers > 0.4: dup (6.0)
|   |   |    memory2 > 14.11: dup (17.0/1.0)
|   |   bmfu > 2.84
|   |   |   PCh011 <= 4.61
|   |   |   |   type <= 0
|   |   |   |   |    synchronisation2 <= 7.87: dup (23.0)
|   |   |   |   |    synchronisation2 > 7.87
|   |   |   |   |   |   cosine_similarity <= 0.964
|   |   |   |   |   |   |    syscalls1 <= 2.42: dup (4.0)
|   |   |   |   |   |   |    syscalls1 > 2.42: non (20.0/1.0)
|   |   |   |   |   |   cosine_similarity > 0.964: dup (13.0/1.0)
|   |   |   |   type > 0
|   |   |   |   |   vers <= 0.14
|   |   |   |   |   |   bmfu <= 5.78
|   |   |   |   |   |   |   bmfb <= 3.27
|   |   |   |   |   |   |   |   PCh032 <= 9.96
|   |   |   |   |   |   |   |   |    debugging1 <= 14.88
|   |   |   |   |   |   |   |   |   |    IO1 <= 12.08
|   |   |   |   |   |   |   |   |   |   |    devices1 <= 7.41
|   |   |   |   |   |   |   |   |   |   |   |     process2 <= 2
|   |   |   |   |   |   |   |   |   |   |   |   |   PCh062 <= 1.44: dup (4.0)
|   |   |   |   |   |   |   |   |   |   |   |   |   PCh062 > 1.44: non (5.0)
|   |   |   |   |   |   |   |   |   |   |   |     process2 > 2
|   |   |   |   |   |   |   |   |   |   |   |   |   PCh042 <= 11.26
|   |   |   |   |   |   |   |   |   |   |   |   |   |     memoryManagement1 <= 3.47
|   |   |   |   |   |   |   |   |   |   |   |   |   |   |   PCh011 <= 1.72: dup (10.0/1.0)
|   |   |   |   |   |   |   |   |   |   |   |   |   |   |   PCh011 > 1.72: non (2.0)
|   |   |   |   |   |   |   |   |   |   |   |   |   |     memoryManagement1 > 3.47: dup (70.0/1.0)
|   |   |   |   |   |   |   |   |   |   |   |   |   PCh042 > 11.26
|   |   |   |   |   |   |   |   |   |   |   |   |   |   bmfb <= 1.65: dup (3.0)
|   |   |   |   |   |   |   |   |   |   |   |   |   |   bmfb > 1.65: non (4.0)
|   |   |   |   |   |   |   |   |   |   |    devices1 > 7.41
|   |   |   |   |   |   |   |   |   |   |   |    memory1 <= 9.23: non (8.0/1.0)
|   |   |   |   |   |   |   |   |   |   |   |    memory1 > 9.23: dup (8.0/1.0)
|   |   |   |   |   |   |   |   |   |    IO1 > 12.08: dup (32.0)
|   |   |   |   |   |   |   |   |    debugging1 > 14.88
|   |   |   |   |   |   |   |   |   |   PCh012 <= 1.55: non (8.0/1.0)
|   |   |   |   |   |   |   |   |   |   PCh012 > 1.55: dup (4.0)
|   |   |   |   |   |   |   |   PCh032 > 9.96
|   |   |   |   |   |   |   |   |   bmfb <= 0.63: non (8.0)
|   |   |   |   |   |   |   |   |   bmfb > 0.63: dup (4.0/1.0)
|   |   |   |   |   |   |   bmfb > 3.27
|   |   |   |   |   |   |   |   PCh061 <= 6.02
|   |   |   |   |   |   |   |   |   PCh061 <= 1.97: dup (4.0)
|   |   |   |   |   |   |   |   |   PCh061 > 1.97
|   |   |   |   |   |   |   |   |   |   PCh121 <= 3.36: non (18.0)
|   |   |   |   |   |   |   |   |   |   PCh121 > 3.36
|   |   |   |   |   |   |   |   |   |   |   bmfb <= 5.26: non (2.0)
|   |   |   |   |   |   |   |   |   |   |   bmfb > 5.26: dup (2.0)
|   |   |   |   |   |   |   |   PCh061 > 6.02: dup (7.0)
|   |   |   |   |   |   bmfu > 5.78
|   |   |   |   |   |   |   PCh101 <= 3.7
|   |   |   |   |   |   |   |    devices1 <= 10.81
|   |   |   |   |   |   |   |   |    syscalls1 <= 9.18
|   |   |   |   |   |   |   |   |   |    synchronisation2 <= 14.58
|   |   |   |   |   |   |   |   |   |   |   vers <= 0
|   |   |   |   |   |   |   |   |   |   |   |   PCh042 <= 12.88
|   |   |   |   |   |   |   |   |   |   |   |   |    basics2 <= 10.88
|   |   |   |   |   |   |   |   |   |   |   |   |   |   PCh102 <= 2.6
|   |   |   |   |   |   |   |   |   |   |   |   |   |   |    devices2 <= 5.58
|   |   |   |   |   |   |   |   |   |   |   |   |   |   |   |    basics2 <= 8.99
|   |   |   |   |   |   |   |   |   |   |   |   |   |   |   |   |   PCh052 <= 2.13
|   |   |   |   |   |   |   |   |   |   |   |   |   |   |   |   |   |   PCh022 <= 1.51: non (4.0/1.0)
|   |   |   |   |   |   |   |   |   |   |   |   |   |   |   |   |   |   PCh022 > 1.51
|   |   |   |   |   |   |   |   |   |   |   |   |   |   |   |   |   |   |   PCh051 <= 0.58
|   |   |   |   |   |   |   |   |   |   |   |   |   |   |   |   |   |   |   |    maintaninence1 <= 8.43: dup (11.0)
|   |   |   |   |   |   |   |   |   |   |   |   |   |   |   |   |   |   |   |    maintaninence1 > 8.43: non (3.0)
|   |   |   |   |   |   |   |   |   |   |   |   |   |   |   |   |   |   |   PCh051 > 0.58: dup (44.0)
|   |   |   |   |   |   |   |   |   |   |   |   |   |   |   |   |   PCh052 > 2.13
|   |   |   |   |   |   |   |   |   |   |   |   |   |   |   |   |   |   PCh011 <= 2.14: non (5.0)
|   |   |   |   |   |   |   |   |   |   |   |   |   |   |   |   |   |   PCh011 > 2.14: dup (4.0)
|   |   |   |   |   |   |   |   |   |   |   |   |   |   |   |    basics2 > 8.99: non (7.0/1.0)
|   |   |   |   |   |   |   |   |   |   |   |   |   |   |    devices2 > 5.58: dup (35.0)
|   |   |   |   |   |   |   |   |   |   |   |   |   |   PCh102 > 2.6
|   |   |   |   |   |   |   |   |   |   |   |   |   |   |    portability1 <= 6.47: dup (6.0)
|   |   |   |   |   |   |   |   |   |   |   |   |   |   |    portability1 > 6.47
|   |   |   |   |   |   |   |   |   |   |   |   |   |   |   |   PCh062 <= 7.23: non (9.0)
|   |   |   |   |   |   |   |   |   |   |   |   |   |   |   |   PCh062 > 7.23: dup (2.0)
|   |   |   |   |   |   |   |   |   |   |   |   |    basics2 > 10.88: dup (51.0/1.0)
|   |   |   |   |   |   |   |   |   |   |   |   PCh042 > 12.88
|   |   |   |   |   |   |   |   |   |   |   |   |     memoryManagement2 <= 11.78: non (10.0/1.0)
|   |   |   |   |   |   |   |   |   |   |   |   |     memoryManagement2 > 11.78: dup (7.0)
|   |   |   |   |   |   |   |   |   |   |   vers > 0: dup (12.0)
|   |   |   |   |   |   |   |   |   |    synchronisation2 > 14.58: dup (62.0/1.0)
|   |   |   |   |   |   |   |   |    syscalls1 > 9.18
|   |   |   |   |   |   |   |   |   |   vers <= 0
|   |   |   |   |   |   |   |   |   |   |    maintaninence1 <= 17.61
|   |   |   |   |   |   |   |   |   |   |   |   PCh052 <= 1.27: dup (4.0)
|   |   |   |   |   |   |   |   |   |   |   |   PCh052 > 1.27
|   |   |   |   |   |   |   |   |   |   |   |   |     memoryManagement1 <= 10.7
|   |   |   |   |   |   |   |   |   |   |   |   |   |    basics1 <= 11.52: non (4.0/1.0)
|   |   |   |   |   |   |   |   |   |   |   |   |   |    basics1 > 11.52: dup (4.0)
|   |   |   |   |   |   |   |   |   |   |   |   |     memoryManagement1 > 10.7: non (8.0)
|   |   |   |   |   |   |   |   |   |   |    maintaninence1 > 17.61: dup (8.0)
|   |   |   |   |   |   |   |   |   |   vers > 0: non (2.0)
|   |   |   |   |   |   |   |    devices1 > 10.81: dup (35.0)
|   |   |   |   |   |   |   PCh101 > 3.7: dup (59.0)
|   |   |   |   |   vers > 0.14
|   |   |   |   |   |    datastructures2 <= 7.29
|   |   |   |   |   |   |    debugging2 <= 6.65
|   |   |   |   |   |   |   |    synchronisation1 <= 3.84: non (2.0)
|   |   |   |   |   |   |   |    synchronisation1 > 3.84: dup (42.0)
|   |   |   |   |   |   |    debugging2 > 6.65: non (13.0/1.0)
|   |   |   |   |   |    datastructures2 > 7.29
|   |   |   |   |   |   |    debugging1 <= 14.13
|   |   |   |   |   |   |   |   cosine_similarity <= 0.976: dup (190.0)
|   |   |   |   |   |   |   |   cosine_similarity > 0.976
|   |   |   |   |   |   |   |   |    interrupts1 <= 6.19: non (4.0/1.0)
|   |   |   |   |   |   |   |   |    interrupts1 > 6.19: dup (13.0)
|   |   |   |   |   |   |    debugging1 > 14.13
|   |   |   |   |   |   |   |   PCh031 <= 9.23: non (5.0)
|   |   |   |   |   |   |   |   PCh031 > 9.23: dup (7.0)
|   |   |   PCh011 > 4.61
|   |   |   |   PCh051 <= 3.57
|   |   |   |   |    datastructures2 <= 7.72: dup (4.0/1.0)
|   |   |   |   |    datastructures2 > 7.72: non (15.0)
|   |   |   |   PCh051 > 3.57
|   |   |   |   |   PCh072 <= 2.6: non (3.0)
|   |   |   |   |   PCh072 > 2.6: dup (19.0/2.0)
cosine_similarity > 0.991
|    syscalls2 <= 8.51
|   |   cosine_similarity <= 0.998
|   |   |    interrupts2 <= 2.87: dup (9.0)
|   |   |    interrupts2 > 2.87
|   |   |   |    memory2 <= 5.01: non (18.0)
|   |   |   |    memory2 > 5.01
|   |   |   |   |   comp <= 0
|   |   |   |   |   |    datastructures2 <= 7.85
|   |   |   |   |   |   |    debugging2 <= 9.93
|   |   |   |   |   |   |   |   bmfb <= 23.98
|   |   |   |   |   |   |   |   |   bmfu <= 16.67: dup (2.0)
|   |   |   |   |   |   |   |   |   bmfu > 16.67: non (2.0)
|   |   |   |   |   |   |   |   bmfb > 23.98: dup (18.0)
|   |   |   |   |   |   |    debugging2 > 9.93: non (2.0)
|   |   |   |   |   |    datastructures2 > 7.85
|   |   |   |   |   |   |    datastructures1 <= 10.18
|   |   |   |   |   |   |   |    interrupts1 <= 5.92: dup (2.0)
|   |   |   |   |   |   |   |    interrupts1 > 5.92: non (24.0/1.0)
|   |   |   |   |   |   |    datastructures1 > 10.18
|   |   |   |   |   |   |   |    basics1 <= 12.66
|   |   |   |   |   |   |   |   |   PCh021 <= 10.53: dup (11.0/1.0)
|   |   |   |   |   |   |   |   |   PCh021 > 10.53: non (2.0)
|   |   |   |   |   |   |   |    basics1 > 12.66: non (5.0)
|   |   |   |   |   comp > 0
|   |   |   |   |   |   bmfu <= 18.43: non (2.0)
|   |   |   |   |   |   bmfu > 18.43: dup (15.0/1.0)
|   |   cosine_similarity > 0.998
|   |   |   bmfb <= 40.88
|   |   |   |    devices2 <= 6.02
|   |   |   |   |    maintaninence2 <= 11.26
|   |   |   |   |   |   bmfb <= 17.4: non (6.0/1.0)
|   |   |   |   |   |   bmfb > 17.4
|   |   |   |   |   |   |   PCh102 <= 0.31: dup (39.0)
|   |   |   |   |   |   |   PCh102 > 0.31
|   |   |   |   |   |   |   |   PCh102 <= 0.54: non (4.0)
|   |   |   |   |   |   |   |   PCh102 > 0.54
|   |   |   |   |   |   |   |   |   type <= 0: dup (2.0)
|   |   |   |   |   |   |   |   |   type > 0
|   |   |   |   |   |   |   |   |   |   vers <= 0.5
|   |   |   |   |   |   |   |   |   |   |    datastructures2 <= 7.77
|   |   |   |   |   |   |   |   |   |   |   |    maintaninence1 <= 10.28
|   |   |   |   |   |   |   |   |   |   |   |   |    datastructures2 <= 6.43: dup (6.0/1.0)
|   |   |   |   |   |   |   |   |   |   |   |   |    datastructures2 > 6.43: non (6.0)
|   |   |   |   |   |   |   |   |   |   |   |    maintaninence1 > 10.28: dup (5.0)
|   |   |   |   |   |   |   |   |   |   |    datastructures2 > 7.77: dup (7.0)
|   |   |   |   |   |   |   |   |   |   vers > 0.5: dup (3.0/1.0)
|   |   |   |   |    maintaninence2 > 11.26: non (5.0)
|   |   |   |    devices2 > 6.02: non (8.0)
|   |   |   bmfb > 40.88
|   |   |   |   PCh091 <= 4.31
|   |   |   |   |    interrupts2 <= 2.24
|   |   |   |   |   |   PCh091 <= 0.82: dup (5.0)
|   |   |   |   |   |   PCh091 > 0.82
|   |   |   |   |   |   |   PCh111 <= 0.77: non (6.0)
|   |   |   |   |   |   |   PCh111 > 0.77: dup (3.0/1.0)
|   |   |   |   |    interrupts2 > 2.24
|   |   |   |   |   |   PCh022 <= 7.05
|   |   |   |   |   |   |   PCh091 <= 0.98: dup (29.0)
|   |   |   |   |   |   |   PCh091 > 0.98
|   |   |   |   |   |   |   |    debugging2 <= 4.57
|   |   |   |   |   |   |   |   |     memoryManagement2 <= 5.12: dup (3.0)
|   |   |   |   |   |   |   |   |     memoryManagement2 > 5.12: non (5.0)
|   |   |   |   |   |   |   |    debugging2 > 4.57
|   |   |   |   |   |   |   |   |   PCh082 <= 5.09
|   |   |   |   |   |   |   |   |   |   PCh011 <= 1.97
|   |   |   |   |   |   |   |   |   |   |    debugging2 <= 5.77: dup (23.0)
|   |   |   |   |   |   |   |   |   |   |    debugging2 > 5.77
|   |   |   |   |   |   |   |   |   |   |   |    debugging1 <= 6.31: non (4.0)
|   |   |   |   |   |   |   |   |   |   |   |    debugging1 > 6.31
|   |   |   |   |   |   |   |   |   |   |   |   |   PCh032 <= 3.8
|   |   |   |   |   |   |   |   |   |   |   |   |   |   type <= 0: non (2.0)
|   |   |   |   |   |   |   |   |   |   |   |   |   |   type > 0
|   |   |   |   |   |   |   |   |   |   |   |   |   |   |   bmfb <= 91.46
|   |   |   |   |   |   |   |   |   |   |   |   |   |   |   |   PCh121 <= 2.86: dup (17.0)
|   |   |   |   |   |   |   |   |   |   |   |   |   |   |   |   PCh121 > 2.86: non (5.0/2.0)
|   |   |   |   |   |   |   |   |   |   |   |   |   |   |   bmfb > 91.46: non (3.0)
|   |   |   |   |   |   |   |   |   |   |   |   |   PCh032 > 3.8: dup (21.0)
|   |   |   |   |   |   |   |   |   |   PCh011 > 1.97: dup (35.0)
|   |   |   |   |   |   |   |   |   PCh082 > 5.09
|   |   |   |   |   |   |   |   |   |   PCh051 <= 2.62: non (4.0)
|   |   |   |   |   |   |   |   |   |   PCh051 > 2.62: dup (2.0)
|   |   |   |   |   |   PCh022 > 7.05: dup (43.0)
|   |   |   |   PCh091 > 4.31
|   |   |   |   |   PCh072 <= 4.65: non (13.0)
|   |   |   |   |   PCh072 > 4.65
|   |   |   |   |   |   bmfu <= 47.26
|   |   |   |   |   |   |   vers <= 0.63
|   |   |   |   |   |   |   |   PCh091 <= 4.45
|   |   |   |   |   |   |   |   |   PCh011 <= 3.36: dup (2.0)
|   |   |   |   |   |   |   |   |   PCh011 > 3.36: non (4.0)
|   |   |   |   |   |   |   |   PCh091 > 4.45
|   |   |   |   |   |   |   |   |   bmfb <= 53.53
|   |   |   |   |   |   |   |   |   |   PCh101 <= 2.44: non (3.0)
|   |   |   |   |   |   |   |   |   |   PCh101 > 2.44: dup (7.0/1.0)
|   |   |   |   |   |   |   |   |   bmfb > 53.53: dup (34.0)
|   |   |   |   |   |   |   vers > 0.63
|   |   |   |   |   |   |   |   bmfb <= 81.75: non (3.0)
|   |   |   |   |   |   |   |   bmfb > 81.75: dup (2.0)
|   |   |   |   |   |   bmfu > 47.26: non (6.0)
|    syscalls2 > 8.51
|   |     process2 <= 9.62: dup (366.0/1.0)
|   |     process2 > 9.62
|   |   |   comp <= 0
|   |   |   |   vers <= 0.32
|   |   |   |   |   bmfb <= 82.55
|   |   |   |   |   |     process1 <= 9.93: dup (2.0)
|   |   |   |   |   |     process1 > 9.93: non (10.0)
|   |   |   |   |   bmfb > 82.55: dup (29.0/1.0)
|   |   |   |   vers > 0.32: non (2.0)
|   |   |   comp > 0: dup (5.0)

Number of Leaves  : 	445

Size of the tree : 	889


Time taken to build model: 8.76 seconds
Time taken to test model on training data: 0.29 seconds

=== Error on training data ===

Correctly Classified Instances       15639               98.981  %
Incorrectly Classified Instances       161                1.019  %
Kappa statistic                          0.968 
Mean absolute error                      0.0187
Root mean squared error                  0.0966
Relative absolute error                  5.8313 %
Root relative squared error             24.1489 %
Total Number of Instances            15800     


=== Confusion Matrix ===

     a     b   <-- classified as
  3054   106 |     a = dup
    55 12585 |     b = non



=== Stratified cross-validation ===

Correctly Classified Instances       14545               92.057  %
Incorrectly Classified Instances      1255                7.943  %
Kappa statistic                          0.751 
Mean absolute error                      0.0858
Root mean squared error                  0.2747
Relative absolute error                 26.8234 %
Root relative squared error             68.6719 %
Total Number of Instances            15800     


=== Confusion Matrix ===

     a     b   <-- classified as
  2520   640 |     a = dup
   615 12025 |     b = non

