
J48 pruned tree
------------------

bmfu <= 3.36
|   comp <= 0
|   |   prod <= 0
|   |   |   bmfu <= 1.33: non (14253.0/31.0)
|   |   |   bmfu > 1.33
|   |   |   |    polymorhic1 <= 0.78
|   |   |   |   |   Ch11 <= 0.7: dup (6.0)
|   |   |   |   |   Ch11 > 0.7
|   |   |   |   |   |    introLexical1 <= 0.9
|   |   |   |   |   |   |    ssa1 <= 0.64: non (5.0)
|   |   |   |   |   |   |    ssa1 > 0.64: dup (3.0)
|   |   |   |   |   |    introLexical1 > 0.9: non (20.0)
|   |   |   |    polymorhic1 > 0.78
|   |   |   |   |   PCh101 <= 6.32
|   |   |   |   |   |   PCh032 <= 1.5
|   |   |   |   |   |   |   PCh102 <= 1.46
|   |   |   |   |   |   |   |   Ch42 <= 2.62: dup (4.0/1.0)
|   |   |   |   |   |   |   |   Ch42 > 2.62
|   |   |   |   |   |   |   |   |    introLexical1 <= 12.15: non (61.0/1.0)
|   |   |   |   |   |   |   |   |    introLexical1 > 12.15
|   |   |   |   |   |   |   |   |   |    intstructions1 <= 14.04: dup (3.0)
|   |   |   |   |   |   |   |   |   |    intstructions1 > 14.04: non (3.0)
|   |   |   |   |   |   |   PCh102 > 1.46: dup (4.0/1.0)
|   |   |   |   |   |   PCh032 > 1.5
|   |   |   |   |   |   |   bmfu <= 3.09
|   |   |   |   |   |   |   |   bmfb <= 1.99
|   |   |   |   |   |   |   |   |   Ch62 <= 8.43
|   |   |   |   |   |   |   |   |   |   PCh092 <= 6.9
|   |   |   |   |   |   |   |   |   |   |   Ch72 <= 5.91
|   |   |   |   |   |   |   |   |   |   |   |   PCh071 <= 4.32
|   |   |   |   |   |   |   |   |   |   |   |   |    functional1 <= 4.94: non (244.0/5.0)
|   |   |   |   |   |   |   |   |   |   |   |   |    functional1 > 4.94
|   |   |   |   |   |   |   |   |   |   |   |   |   |    pipeline1 <= 4.91
|   |   |   |   |   |   |   |   |   |   |   |   |   |   |   PCh102 <= 1.73: non (5.0/1.0)
|   |   |   |   |   |   |   |   |   |   |   |   |   |   |   PCh102 > 1.73: dup (8.0)
|   |   |   |   |   |   |   |   |   |   |   |   |   |    pipeline1 > 4.91
|   |   |   |   |   |   |   |   |   |   |   |   |   |   |    functional1 <= 5.06: dup (5.0/1.0)
|   |   |   |   |   |   |   |   |   |   |   |   |   |   |    functional1 > 5.06
|   |   |   |   |   |   |   |   |   |   |   |   |   |   |   |   cosine_similarity <= 0.952: non (68.0)
|   |   |   |   |   |   |   |   |   |   |   |   |   |   |   |   cosine_similarity > 0.952
|   |   |   |   |   |   |   |   |   |   |   |   |   |   |   |   |   PCh021 <= 6.26: non (3.0)
|   |   |   |   |   |   |   |   |   |   |   |   |   |   |   |   |   PCh021 > 6.26: dup (2.0)
|   |   |   |   |   |   |   |   |   |   |   |   PCh071 > 4.32
|   |   |   |   |   |   |   |   |   |   |   |   |   Ch72 <= 1.58
|   |   |   |   |   |   |   |   |   |   |   |   |   |    functional2 <= 6.44: non (22.0)
|   |   |   |   |   |   |   |   |   |   |   |   |   |    functional2 > 6.44: dup (3.0)
|   |   |   |   |   |   |   |   |   |   |   |   |   Ch72 > 1.58: non (607.0/1.0)
|   |   |   |   |   |   |   |   |   |   |   Ch72 > 5.91: non (1687.0/3.0)
|   |   |   |   |   |   |   |   |   |   PCh092 > 6.9
|   |   |   |   |   |   |   |   |   |   |   Ch21 <= 8.99: non (253.0/4.0)
|   |   |   |   |   |   |   |   |   |   |   Ch21 > 8.99
|   |   |   |   |   |   |   |   |   |   |   |   PCh021 <= 8.53: dup (12.0)
|   |   |   |   |   |   |   |   |   |   |   |   PCh021 > 8.53: non (21.0)
|   |   |   |   |   |   |   |   |   Ch62 > 8.43
|   |   |   |   |   |   |   |   |   |   Ch62 <= 8.5
|   |   |   |   |   |   |   |   |   |   |   PCh062 <= 6.93: non (7.0)
|   |   |   |   |   |   |   |   |   |   |   PCh062 > 6.93: dup (9.0)
|   |   |   |   |   |   |   |   |   |   Ch62 > 8.5
|   |   |   |   |   |   |   |   |   |   |   PCh052 <= 1.03
|   |   |   |   |   |   |   |   |   |   |   |   PCh052 <= 1: non (18.0)
|   |   |   |   |   |   |   |   |   |   |   |   PCh052 > 1: dup (7.0)
|   |   |   |   |   |   |   |   |   |   |   PCh052 > 1.03
|   |   |   |   |   |   |   |   |   |   |   |    semantics2 <= 16.77: non (241.0)
|   |   |   |   |   |   |   |   |   |   |   |    semantics2 > 16.77
|   |   |   |   |   |   |   |   |   |   |   |   |    semantics1 <= 5.03: dup (2.0)
|   |   |   |   |   |   |   |   |   |   |   |   |    semantics1 > 5.03: non (11.0)
|   |   |   |   |   |   |   |   bmfb > 1.99
|   |   |   |   |   |   |   |   |   bmfu <= 2.54
|   |   |   |   |   |   |   |   |   |   bmfu <= 1.94: non (4.0)
|   |   |   |   |   |   |   |   |   |   bmfu > 1.94: dup (6.0/1.0)
|   |   |   |   |   |   |   |   |   bmfu > 2.54: non (18.0)
|   |   |   |   |   |   |   bmfu > 3.09
|   |   |   |   |   |   |   |   PCh011 <= 3.6
|   |   |   |   |   |   |   |   |   PCh012 <= 2
|   |   |   |   |   |   |   |   |   |   Ch82 <= 6.55: non (14.0)
|   |   |   |   |   |   |   |   |   |   Ch82 > 6.55
|   |   |   |   |   |   |   |   |   |   |   Ch61 <= 3.69: non (5.0)
|   |   |   |   |   |   |   |   |   |   |   Ch61 > 3.69
|   |   |   |   |   |   |   |   |   |   |   |   PCh031 <= 9.13: dup (10.0)
|   |   |   |   |   |   |   |   |   |   |   |   PCh031 > 9.13: non (2.0)
|   |   |   |   |   |   |   |   |   PCh012 > 2
|   |   |   |   |   |   |   |   |   |    hueristics1 <= 4.41
|   |   |   |   |   |   |   |   |   |   |   PCh062 <= 4.56: non (7.0)
|   |   |   |   |   |   |   |   |   |   |   PCh062 > 4.56: dup (4.0)
|   |   |   |   |   |   |   |   |   |    hueristics1 > 4.41: non (110.0/4.0)
|   |   |   |   |   |   |   |   PCh011 > 3.6: non (70.0)
|   |   |   |   |   PCh101 > 6.32
|   |   |   |   |   |    introLexical1 <= 8.92
|   |   |   |   |   |   |    parsing2 <= 8.3
|   |   |   |   |   |   |   |   PCh082 <= 3.47: dup (2.0)
|   |   |   |   |   |   |   |   PCh082 > 3.47: non (8.0)
|   |   |   |   |   |   |    parsing2 > 8.3: dup (8.0)
|   |   |   |   |   |    introLexical1 > 8.92
|   |   |   |   |   |   |    functional1 <= 11.76: non (63.0)
|   |   |   |   |   |   |    functional1 > 11.76
|   |   |   |   |   |   |   |   bmfb <= 0.13: non (7.0)
|   |   |   |   |   |   |   |   bmfb > 0.13: dup (3.0)
|   |   prod > 0
|   |   |    semantics2 <= 1.11
|   |   |   |    liveRegisters2 <= 0.93: non (14.0)
|   |   |   |    liveRegisters2 > 0.93
|   |   |   |   |   PCh112 <= 0.43: dup (20.0/1.0)
|   |   |   |   |   PCh112 > 0.43: non (4.0)
|   |   |    semantics2 > 1.11
|   |   |   |   bmfu <= 1.25
|   |   |   |   |    functional2 <= 3.04
|   |   |   |   |   |   cosine_similarity <= 0.935
|   |   |   |   |   |   |   Ch181 <= 11.03
|   |   |   |   |   |   |   |    oops2 <= 2.05
|   |   |   |   |   |   |   |   |    ssa2 <= 3.38: non (22.0)
|   |   |   |   |   |   |   |   |    ssa2 > 3.38
|   |   |   |   |   |   |   |   |   |   PCh082 <= 2.5: dup (4.0)
|   |   |   |   |   |   |   |   |   |   PCh082 > 2.5: non (3.0)
|   |   |   |   |   |   |   |    oops2 > 2.05: non (118.0)
|   |   |   |   |   |   |   Ch181 > 11.03
|   |   |   |   |   |   |   |   Ch101 <= 6.92: dup (3.0)
|   |   |   |   |   |   |   |   Ch101 > 6.92
|   |   |   |   |   |   |   |   |   Ch121 <= 9.18
|   |   |   |   |   |   |   |   |   |   Ch51 <= 17.32: non (7.0)
|   |   |   |   |   |   |   |   |   |   Ch51 > 17.32: dup (5.0)
|   |   |   |   |   |   |   |   |   Ch121 > 9.18: non (25.0)
|   |   |   |   |   |   cosine_similarity > 0.935
|   |   |   |   |   |   |   Ch182 <= 9.76: non (12.0/1.0)
|   |   |   |   |   |   |   Ch182 > 9.76: dup (5.0)
|   |   |   |   |    functional2 > 3.04: non (391.0/6.0)
|   |   |   |   bmfu > 1.25
|   |   |   |   |    intermediate2 <= 12.06
|   |   |   |   |   |   PCh062 <= 1.21
|   |   |   |   |   |   |    memory2 <= 1.81
|   |   |   |   |   |   |   |   prior <= 0.5: dup (2.0)
|   |   |   |   |   |   |   |   prior > 0.5: non (9.0/1.0)
|   |   |   |   |   |   |    memory2 > 1.81: dup (13.0)
|   |   |   |   |   |   PCh062 > 1.21
|   |   |   |   |   |   |    semantics2 <= 3.01: non (28.0)
|   |   |   |   |   |   |    semantics2 > 3.01
|   |   |   |   |   |   |   |   PCh051 <= 4.25
|   |   |   |   |   |   |   |   |   PCh072 <= 10.46
|   |   |   |   |   |   |   |   |   |   PCh011 <= 5.91
|   |   |   |   |   |   |   |   |   |   |   Ch112 <= 6.57
|   |   |   |   |   |   |   |   |   |   |   |   PCh042 <= 3.32: dup (9.0/1.0)
|   |   |   |   |   |   |   |   |   |   |   |   PCh042 > 3.32
|   |   |   |   |   |   |   |   |   |   |   |   |   prior <= 0.5
|   |   |   |   |   |   |   |   |   |   |   |   |   |   bmfu <= 2.17: non (3.0)
|   |   |   |   |   |   |   |   |   |   |   |   |   |   bmfu > 2.17: dup (2.0)
|   |   |   |   |   |   |   |   |   |   |   |   |   prior > 0.5
|   |   |   |   |   |   |   |   |   |   |   |   |   |    semantics2 <= 5.9
|   |   |   |   |   |   |   |   |   |   |   |   |   |   |   PCh021 <= 7.54
|   |   |   |   |   |   |   |   |   |   |   |   |   |   |   |   PCh052 <= 0.55: dup (2.0)
|   |   |   |   |   |   |   |   |   |   |   |   |   |   |   |   PCh052 > 0.55: non (32.0/1.0)
|   |   |   |   |   |   |   |   |   |   |   |   |   |   |   PCh021 > 7.54: dup (6.0/1.0)
|   |   |   |   |   |   |   |   |   |   |   |   |   |    semantics2 > 5.9: non (37.0)
|   |   |   |   |   |   |   |   |   |   |   Ch112 > 6.57
|   |   |   |   |   |   |   |   |   |   |   |   Ch22 <= 1.66: dup (10.0)
|   |   |   |   |   |   |   |   |   |   |   |   Ch22 > 1.66
|   |   |   |   |   |   |   |   |   |   |   |   |   Ch142 <= 9.07
|   |   |   |   |   |   |   |   |   |   |   |   |   |   Ch52 <= 10.95
|   |   |   |   |   |   |   |   |   |   |   |   |   |   |   Ch62 <= 3.52: non (6.0/1.0)
|   |   |   |   |   |   |   |   |   |   |   |   |   |   |   Ch62 > 3.52
|   |   |   |   |   |   |   |   |   |   |   |   |   |   |   |    oops2 <= 9.04: dup (18.0)
|   |   |   |   |   |   |   |   |   |   |   |   |   |   |   |    oops2 > 9.04: non (2.0)
|   |   |   |   |   |   |   |   |   |   |   |   |   |   Ch52 > 10.95
|   |   |   |   |   |   |   |   |   |   |   |   |   |   |   bmfu <= 1.44: non (17.0)
|   |   |   |   |   |   |   |   |   |   |   |   |   |   |   bmfu > 1.44
|   |   |   |   |   |   |   |   |   |   |   |   |   |   |   |   Ch92 <= 8.47
|   |   |   |   |   |   |   |   |   |   |   |   |   |   |   |   |   PCh062 <= 6.69
|   |   |   |   |   |   |   |   |   |   |   |   |   |   |   |   |   |   Ch132 <= 5.29: dup (13.0)
|   |   |   |   |   |   |   |   |   |   |   |   |   |   |   |   |   |   Ch132 > 5.29: non (4.0/1.0)
|   |   |   |   |   |   |   |   |   |   |   |   |   |   |   |   |   PCh062 > 6.69: non (4.0)
|   |   |   |   |   |   |   |   |   |   |   |   |   |   |   |   Ch92 > 8.47
|   |   |   |   |   |   |   |   |   |   |   |   |   |   |   |   |    memory2 <= 3.25: dup (7.0/1.0)
|   |   |   |   |   |   |   |   |   |   |   |   |   |   |   |   |    memory2 > 3.25
|   |   |   |   |   |   |   |   |   |   |   |   |   |   |   |   |   |   prior <= 0.5
|   |   |   |   |   |   |   |   |   |   |   |   |   |   |   |   |   |   |   PCh111 <= 1.72: non (4.0)
|   |   |   |   |   |   |   |   |   |   |   |   |   |   |   |   |   |   |   PCh111 > 1.72: dup (2.0)
|   |   |   |   |   |   |   |   |   |   |   |   |   |   |   |   |   |   prior > 0.5
|   |   |   |   |   |   |   |   |   |   |   |   |   |   |   |   |   |   |   Ch182 <= 8.52
|   |   |   |   |   |   |   |   |   |   |   |   |   |   |   |   |   |   |   |    parsing1 <= 4.6: non (7.0/1.0)
|   |   |   |   |   |   |   |   |   |   |   |   |   |   |   |   |   |   |   |    parsing1 > 4.6: dup (7.0/1.0)
|   |   |   |   |   |   |   |   |   |   |   |   |   |   |   |   |   |   |   Ch182 > 8.52
|   |   |   |   |   |   |   |   |   |   |   |   |   |   |   |   |   |   |   |   Ch72 <= 10.1: non (38.0)
|   |   |   |   |   |   |   |   |   |   |   |   |   |   |   |   |   |   |   |   Ch72 > 10.1
|   |   |   |   |   |   |   |   |   |   |   |   |   |   |   |   |   |   |   |   |   PCh032 <= 9.45
|   |   |   |   |   |   |   |   |   |   |   |   |   |   |   |   |   |   |   |   |   |    liveRegisters2 <= 5.65: dup (2.0)
|   |   |   |   |   |   |   |   |   |   |   |   |   |   |   |   |   |   |   |   |   |    liveRegisters2 > 5.65: non (17.0/1.0)
|   |   |   |   |   |   |   |   |   |   |   |   |   |   |   |   |   |   |   |   |   PCh032 > 9.45: dup (4.0)
|   |   |   |   |   |   |   |   |   |   |   |   |   Ch142 > 9.07: dup (8.0)
|   |   |   |   |   |   |   |   |   |   PCh011 > 5.91: non (16.0)
|   |   |   |   |   |   |   |   |   PCh072 > 10.46: non (18.0)
|   |   |   |   |   |   |   |   PCh051 > 4.25: non (35.0/1.0)
|   |   |   |   |    intermediate2 > 12.06: non (69.0/1.0)
|   comp > 0
|   |   prod <= 0
|   |   |   bmfu <= 2.09: non (244.0/1.0)
|   |   |   bmfu > 2.09
|   |   |   |   PCh041 <= 4.94: dup (4.0)
|   |   |   |   PCh041 > 4.94
|   |   |   |   |   cosine_similarity <= 0.906: dup (2.0)
|   |   |   |   |   cosine_similarity > 0.906: non (32.0/2.0)
|   |   prod > 0
|   |   |   bmfu <= 0.91
|   |   |   |   Ch121 <= 9.59
|   |   |   |   |   cosine_similarity <= 0.75: non (27.0)
|   |   |   |   |   cosine_similarity > 0.75
|   |   |   |   |   |   PCh012 <= 4.24
|   |   |   |   |   |   |   type <= 0
|   |   |   |   |   |   |   |    liveRegisters2 <= 1.92: dup (6.0)
|   |   |   |   |   |   |   |    liveRegisters2 > 1.92
|   |   |   |   |   |   |   |   |   Ch172 <= 6.73
|   |   |   |   |   |   |   |   |   |   Ch122 <= 5.41
|   |   |   |   |   |   |   |   |   |   |   cosine_similarity <= 0.925
|   |   |   |   |   |   |   |   |   |   |   |    memory2 <= 2.98: non (21.0)
|   |   |   |   |   |   |   |   |   |   |   |    memory2 > 2.98
|   |   |   |   |   |   |   |   |   |   |   |   |    parsing2 <= 3.44
|   |   |   |   |   |   |   |   |   |   |   |   |   |    parsing1 <= 0.96: non (3.0)
|   |   |   |   |   |   |   |   |   |   |   |   |   |    parsing1 > 0.96: dup (7.0)
|   |   |   |   |   |   |   |   |   |   |   |   |    parsing2 > 3.44: non (10.0)
|   |   |   |   |   |   |   |   |   |   |   cosine_similarity > 0.925: dup (3.0)
|   |   |   |   |   |   |   |   |   |   Ch122 > 5.41: non (33.0)
|   |   |   |   |   |   |   |   |   Ch172 > 6.73
|   |   |   |   |   |   |   |   |   |   Ch102 <= 11.52
|   |   |   |   |   |   |   |   |   |   |   Ch51 <= 10.59: dup (11.0)
|   |   |   |   |   |   |   |   |   |   |   Ch51 > 10.59: non (6.0/1.0)
|   |   |   |   |   |   |   |   |   |   Ch102 > 11.52: non (8.0)
|   |   |   |   |   |   |   type > 0
|   |   |   |   |   |   |   |    parsing2 <= 1.55
|   |   |   |   |   |   |   |   |    ssa2 <= 3.21
|   |   |   |   |   |   |   |   |   |   PCh051 <= 1.34
|   |   |   |   |   |   |   |   |   |   |    liveRegisters2 <= 1.13: dup (5.0)
|   |   |   |   |   |   |   |   |   |   |    liveRegisters2 > 1.13: non (8.0/1.0)
|   |   |   |   |   |   |   |   |   |   PCh051 > 1.34: non (8.0)
|   |   |   |   |   |   |   |   |    ssa2 > 3.21: dup (7.0)
|   |   |   |   |   |   |   |    parsing2 > 1.55
|   |   |   |   |   |   |   |   |    functional2 <= 4.48: non (68.0/3.0)
|   |   |   |   |   |   |   |   |    functional2 > 4.48
|   |   |   |   |   |   |   |   |   |    functional1 <= 6.72
|   |   |   |   |   |   |   |   |   |   |   Ch21 <= 4.02
|   |   |   |   |   |   |   |   |   |   |   |   PCh041 <= 2.14: dup (3.0)
|   |   |   |   |   |   |   |   |   |   |   |   PCh041 > 2.14
|   |   |   |   |   |   |   |   |   |   |   |   |    garbage2 <= 2.43: dup (3.0/1.0)
|   |   |   |   |   |   |   |   |   |   |   |   |    garbage2 > 2.43: non (29.0)
|   |   |   |   |   |   |   |   |   |   |   Ch21 > 4.02: dup (7.0/1.0)
|   |   |   |   |   |   |   |   |   |    functional1 > 6.72: dup (5.0)
|   |   |   |   |   |   PCh012 > 4.24: non (24.0)
|   |   |   |   Ch121 > 9.59: non (38.0)
|   |   |   bmfu > 0.91
|   |   |   |   Ch91 <= 15.75
|   |   |   |   |   type <= 0
|   |   |   |   |   |   Ch132 <= 7.81
|   |   |   |   |   |   |   Ch11 <= 2.04: dup (24.0)
|   |   |   |   |   |   |   Ch11 > 2.04
|   |   |   |   |   |   |   |   PCh082 <= 8.62
|   |   |   |   |   |   |   |   |    parsing2 <= 6.93
|   |   |   |   |   |   |   |   |   |    pipeline1 <= 2.32
|   |   |   |   |   |   |   |   |   |   |    liveRegisters2 <= 3.64: dup (4.0/1.0)
|   |   |   |   |   |   |   |   |   |   |    liveRegisters2 > 3.64: non (11.0)
|   |   |   |   |   |   |   |   |   |    pipeline1 > 2.32
|   |   |   |   |   |   |   |   |   |   |   PCh051 <= 3.57
|   |   |   |   |   |   |   |   |   |   |   |    functional1 <= 7.14
|   |   |   |   |   |   |   |   |   |   |   |   |   Ch111 <= 6.87
|   |   |   |   |   |   |   |   |   |   |   |   |   |   Ch101 <= 5.32
|   |   |   |   |   |   |   |   |   |   |   |   |   |   |   Ch31 <= 5.16
|   |   |   |   |   |   |   |   |   |   |   |   |   |   |   |    liveRegisters1 <= 1.42: non (2.0)
|   |   |   |   |   |   |   |   |   |   |   |   |   |   |   |    liveRegisters1 > 1.42: dup (20.0/1.0)
|   |   |   |   |   |   |   |   |   |   |   |   |   |   |   Ch31 > 5.16: non (8.0)
|   |   |   |   |   |   |   |   |   |   |   |   |   |   Ch101 > 5.32: dup (36.0)
|   |   |   |   |   |   |   |   |   |   |   |   |   Ch111 > 6.87
|   |   |   |   |   |   |   |   |   |   |   |   |   |   prior <= 0.5: non (5.0/1.0)
|   |   |   |   |   |   |   |   |   |   |   |   |   |   prior > 0.5
|   |   |   |   |   |   |   |   |   |   |   |   |   |   |   Ch61 <= 4.73
|   |   |   |   |   |   |   |   |   |   |   |   |   |   |   |   PCh072 <= 3.53
|   |   |   |   |   |   |   |   |   |   |   |   |   |   |   |   |    oops2 <= 2.87: non (6.0)
|   |   |   |   |   |   |   |   |   |   |   |   |   |   |   |   |    oops2 > 2.87: dup (8.0/1.0)
|   |   |   |   |   |   |   |   |   |   |   |   |   |   |   |   PCh072 > 3.53: non (11.0)
|   |   |   |   |   |   |   |   |   |   |   |   |   |   |   Ch61 > 4.73
|   |   |   |   |   |   |   |   |   |   |   |   |   |   |   |   Ch192 <= 5.76: dup (17.0)
|   |   |   |   |   |   |   |   |   |   |   |   |   |   |   |   Ch192 > 5.76
|   |   |   |   |   |   |   |   |   |   |   |   |   |   |   |   |    functional2 <= 3.64: non (5.0)
|   |   |   |   |   |   |   |   |   |   |   |   |   |   |   |   |    functional2 > 3.64: dup (5.0/1.0)
|   |   |   |   |   |   |   |   |   |   |   |    functional1 > 7.14: dup (16.0)
|   |   |   |   |   |   |   |   |   |   |   PCh051 > 3.57
|   |   |   |   |   |   |   |   |   |   |   |   PCh072 <= 7.68
|   |   |   |   |   |   |   |   |   |   |   |   |    memory1 <= 10.19: non (14.0)
|   |   |   |   |   |   |   |   |   |   |   |   |    memory1 > 10.19: dup (2.0)
|   |   |   |   |   |   |   |   |   |   |   |   PCh072 > 7.68: dup (3.0)
|   |   |   |   |   |   |   |   |    parsing2 > 6.93: dup (24.0/1.0)
|   |   |   |   |   |   |   |   PCh082 > 8.62
|   |   |   |   |   |   |   |   |   PCh102 <= 3.51: dup (3.0)
|   |   |   |   |   |   |   |   |   PCh102 > 3.51: non (12.0)
|   |   |   |   |   |   Ch132 > 7.81
|   |   |   |   |   |   |    liveRegisters2 <= 12.86
|   |   |   |   |   |   |   |    polymorhic2 <= 7.49: non (14.0/1.0)
|   |   |   |   |   |   |   |    polymorhic2 > 7.49
|   |   |   |   |   |   |   |   |   PCh011 <= 2.77: dup (8.0)
|   |   |   |   |   |   |   |   |   PCh011 > 2.77: non (6.0/1.0)
|   |   |   |   |   |   |    liveRegisters2 > 12.86: non (9.0)
|   |   |   |   |   type > 0
|   |   |   |   |   |    pipeline1 <= 2.79
|   |   |   |   |   |   |    semantics2 <= 0.98: dup (5.0/1.0)
|   |   |   |   |   |   |    semantics2 > 0.98
|   |   |   |   |   |   |   |   PCh072 <= 4.23: non (43.0/1.0)
|   |   |   |   |   |   |   |   PCh072 > 4.23
|   |   |   |   |   |   |   |   |   Ch121 <= 3.27: dup (8.0/1.0)
|   |   |   |   |   |   |   |   |   Ch121 > 3.27
|   |   |   |   |   |   |   |   |   |    intermediate2 <= 6.08: dup (2.0)
|   |   |   |   |   |   |   |   |   |    intermediate2 > 6.08: non (11.0)
|   |   |   |   |   |    pipeline1 > 2.79
|   |   |   |   |   |   |   PCh101 <= 2.83
|   |   |   |   |   |   |   |   Ch51 <= 11.49
|   |   |   |   |   |   |   |   |   Ch42 <= 4.59: non (20.0/1.0)
|   |   |   |   |   |   |   |   |   Ch42 > 4.59
|   |   |   |   |   |   |   |   |   |    garbage1 <= 4.51
|   |   |   |   |   |   |   |   |   |   |   Ch31 <= 9.14
|   |   |   |   |   |   |   |   |   |   |   |   Ch121 <= 1.62: non (4.0)
|   |   |   |   |   |   |   |   |   |   |   |   Ch121 > 1.62
|   |   |   |   |   |   |   |   |   |   |   |   |   PCh031 <= 8.03
|   |   |   |   |   |   |   |   |   |   |   |   |   |    semantics2 <= 7.02
|   |   |   |   |   |   |   |   |   |   |   |   |   |   |   Ch121 <= 2.78
|   |   |   |   |   |   |   |   |   |   |   |   |   |   |   |   Ch21 <= 3.19: dup (6.0)
|   |   |   |   |   |   |   |   |   |   |   |   |   |   |   |   Ch21 > 3.19: non (2.0)
|   |   |   |   |   |   |   |   |   |   |   |   |   |   |   Ch121 > 2.78: dup (37.0)
|   |   |   |   |   |   |   |   |   |   |   |   |   |    semantics2 > 7.02
|   |   |   |   |   |   |   |   |   |   |   |   |   |   |   Ch31 <= 4.08: dup (6.0)
|   |   |   |   |   |   |   |   |   |   |   |   |   |   |   Ch31 > 4.08
|   |   |   |   |   |   |   |   |   |   |   |   |   |   |   |   Ch11 <= 3.99: dup (4.0/1.0)
|   |   |   |   |   |   |   |   |   |   |   |   |   |   |   |   Ch11 > 3.99: non (9.0/1.0)
|   |   |   |   |   |   |   |   |   |   |   |   |   PCh031 > 8.03: non (4.0)
|   |   |   |   |   |   |   |   |   |   |   Ch31 > 9.14: non (6.0)
|   |   |   |   |   |   |   |   |   |    garbage1 > 4.51
|   |   |   |   |   |   |   |   |   |   |   Ch122 <= 3.96: dup (5.0/1.0)
|   |   |   |   |   |   |   |   |   |   |   Ch122 > 3.96: non (21.0)
|   |   |   |   |   |   |   |   Ch51 > 11.49
|   |   |   |   |   |   |   |   |   Ch122 <= 6.4
|   |   |   |   |   |   |   |   |   |   Ch112 <= 1.34
|   |   |   |   |   |   |   |   |   |   |   PCh021 <= 5.22: dup (2.0)
|   |   |   |   |   |   |   |   |   |   |   PCh021 > 5.22: non (5.0)
|   |   |   |   |   |   |   |   |   |   Ch112 > 1.34
|   |   |   |   |   |   |   |   |   |   |   Ch111 <= 11.13
|   |   |   |   |   |   |   |   |   |   |   |   PCh071 <= 2.6
|   |   |   |   |   |   |   |   |   |   |   |   |   bmfu <= 2.44: non (2.0)
|   |   |   |   |   |   |   |   |   |   |   |   |   bmfu > 2.44: dup (4.0)
|   |   |   |   |   |   |   |   |   |   |   |   PCh071 > 2.6: dup (50.0)
|   |   |   |   |   |   |   |   |   |   |   Ch111 > 11.13
|   |   |   |   |   |   |   |   |   |   |   |   Ch172 <= 4.5: non (5.0/1.0)
|   |   |   |   |   |   |   |   |   |   |   |   Ch172 > 4.5: dup (6.0)
|   |   |   |   |   |   |   |   |   Ch122 > 6.4
|   |   |   |   |   |   |   |   |   |    garbage1 <= 7.16
|   |   |   |   |   |   |   |   |   |   |    oops1 <= 4.03: non (5.0)
|   |   |   |   |   |   |   |   |   |   |    oops1 > 4.03
|   |   |   |   |   |   |   |   |   |   |   |   PCh112 <= 1.62
|   |   |   |   |   |   |   |   |   |   |   |   |   PCh082 <= 5.49: dup (16.0/1.0)
|   |   |   |   |   |   |   |   |   |   |   |   |   PCh082 > 5.49
|   |   |   |   |   |   |   |   |   |   |   |   |   |   PCh082 <= 7.33: non (10.0)
|   |   |   |   |   |   |   |   |   |   |   |   |   |   PCh082 > 7.33
|   |   |   |   |   |   |   |   |   |   |   |   |   |   |   PCh071 <= 2.72: non (2.0)
|   |   |   |   |   |   |   |   |   |   |   |   |   |   |   PCh071 > 2.72: dup (6.0)
|   |   |   |   |   |   |   |   |   |   |   |   PCh112 > 1.62: dup (15.0)
|   |   |   |   |   |   |   |   |   |    garbage1 > 7.16: non (13.0)
|   |   |   |   |   |   |   PCh101 > 2.83
|   |   |   |   |   |   |   |    hueristics1 <= 15.13
|   |   |   |   |   |   |   |   |   PCh102 <= 4.03
|   |   |   |   |   |   |   |   |   |    polymorhic1 <= 7.84: non (25.0)
|   |   |   |   |   |   |   |   |   |    polymorhic1 > 7.84
|   |   |   |   |   |   |   |   |   |   |    liveRegisters1 <= 7.22
|   |   |   |   |   |   |   |   |   |   |   |   PCh051 <= 1.86: non (2.0)
|   |   |   |   |   |   |   |   |   |   |   |   PCh051 > 1.86: dup (9.0)
|   |   |   |   |   |   |   |   |   |   |    liveRegisters1 > 7.22
|   |   |   |   |   |   |   |   |   |   |   |   PCh122 <= 0.75: dup (2.0)
|   |   |   |   |   |   |   |   |   |   |   |   PCh122 > 0.75
|   |   |   |   |   |   |   |   |   |   |   |   |   PCh021 <= 14.06: non (26.0)
|   |   |   |   |   |   |   |   |   |   |   |   |   PCh021 > 14.06: dup (3.0/1.0)
|   |   |   |   |   |   |   |   |   PCh102 > 4.03: dup (6.0)
|   |   |   |   |   |   |   |    hueristics1 > 15.13: dup (8.0)
|   |   |   |   Ch91 > 15.75
|   |   |   |   |   PCh051 <= 1.28: dup (2.0)
|   |   |   |   |   PCh051 > 1.28
|   |   |   |   |   |   Ch162 <= 4.99
|   |   |   |   |   |   |   PCh102 <= 1.89: non (4.0)
|   |   |   |   |   |   |   PCh102 > 1.89: dup (2.0)
|   |   |   |   |   |   Ch162 > 4.99: non (24.0)
bmfu > 3.36
|   prod <= 0
|   |   cosine_similarity <= 0.999
|   |   |   bmfb <= 20.29
|   |   |   |   bmfu <= 5.03
|   |   |   |   |   Ch62 <= 0.87
|   |   |   |   |   |   PCh042 <= 3.34: non (4.0)
|   |   |   |   |   |   PCh042 > 3.34
|   |   |   |   |   |   |    polymorhic2 <= 2.72: non (2.0)
|   |   |   |   |   |   |    polymorhic2 > 2.72: dup (19.0)
|   |   |   |   |   Ch62 > 0.87
|   |   |   |   |   |    parsing2 <= 4.25
|   |   |   |   |   |   |   PCh102 <= 0.2: dup (10.0)
|   |   |   |   |   |   |   PCh102 > 0.2
|   |   |   |   |   |   |   |   Ch82 <= 13.38
|   |   |   |   |   |   |   |   |   Ch92 <= 9.82
|   |   |   |   |   |   |   |   |   |    memory2 <= 1.6: dup (6.0/1.0)
|   |   |   |   |   |   |   |   |   |    memory2 > 1.6
|   |   |   |   |   |   |   |   |   |   |   PCh052 <= 2.65
|   |   |   |   |   |   |   |   |   |   |   |   PCh022 <= 2.88
|   |   |   |   |   |   |   |   |   |   |   |   |   bmfu <= 4.4: non (2.0)
|   |   |   |   |   |   |   |   |   |   |   |   |   bmfu > 4.4: dup (2.0)
|   |   |   |   |   |   |   |   |   |   |   |   PCh022 > 2.88: non (74.0)
|   |   |   |   |   |   |   |   |   |   |   PCh052 > 2.65
|   |   |   |   |   |   |   |   |   |   |   |   Ch21 <= 3.43: dup (4.0)
|   |   |   |   |   |   |   |   |   |   |   |   Ch21 > 3.43: non (8.0/1.0)
|   |   |   |   |   |   |   |   |   Ch92 > 9.82
|   |   |   |   |   |   |   |   |   |   Ch102 <= 9.69
|   |   |   |   |   |   |   |   |   |   |   Ch122 <= 8.53: dup (24.0/1.0)
|   |   |   |   |   |   |   |   |   |   |   Ch122 > 8.53: non (4.0)
|   |   |   |   |   |   |   |   |   |   Ch102 > 9.69
|   |   |   |   |   |   |   |   |   |   |    memory2 <= 8.53: non (18.0)
|   |   |   |   |   |   |   |   |   |   |    memory2 > 8.53: dup (2.0)
|   |   |   |   |   |   |   |   Ch82 > 13.38: dup (10.0)
|   |   |   |   |   |    parsing2 > 4.25
|   |   |   |   |   |   |   PCh071 <= 2.22
|   |   |   |   |   |   |   |    hueristics1 <= 7.22
|   |   |   |   |   |   |   |   |    liveRegisters1 <= 1.95: dup (3.0)
|   |   |   |   |   |   |   |   |    liveRegisters1 > 1.95
|   |   |   |   |   |   |   |   |   |    introLexical1 <= 1.71: dup (2.0)
|   |   |   |   |   |   |   |   |   |    introLexical1 > 1.71
|   |   |   |   |   |   |   |   |   |   |   PCh071 <= 2.18: non (22.0)
|   |   |   |   |   |   |   |   |   |   |   PCh071 > 2.18: dup (2.0)
|   |   |   |   |   |   |   |    hueristics1 > 7.22: dup (6.0)
|   |   |   |   |   |   |   PCh071 > 2.22
|   |   |   |   |   |   |   |   Ch62 <= 9.37
|   |   |   |   |   |   |   |   |   PCh012 <= 1.67
|   |   |   |   |   |   |   |   |   |    intermediate2 <= 7.21
|   |   |   |   |   |   |   |   |   |   |    hueristics2 <= 10.13
|   |   |   |   |   |   |   |   |   |   |   |   PCh111 <= 0.13: dup (3.0)
|   |   |   |   |   |   |   |   |   |   |   |   PCh111 > 0.13: non (22.0/1.0)
|   |   |   |   |   |   |   |   |   |   |    hueristics2 > 10.13: dup (10.0/1.0)
|   |   |   |   |   |   |   |   |   |    intermediate2 > 7.21: non (30.0/1.0)
|   |   |   |   |   |   |   |   |   PCh012 > 1.67
|   |   |   |   |   |   |   |   |   |   bmfu <= 4.33: non (261.0/3.0)
|   |   |   |   |   |   |   |   |   |   bmfu > 4.33
|   |   |   |   |   |   |   |   |   |   |   Ch162 <= 10.32
|   |   |   |   |   |   |   |   |   |   |   |    memory1 <= 1.84
|   |   |   |   |   |   |   |   |   |   |   |   |   PCh011 <= 1.13: dup (2.0)
|   |   |   |   |   |   |   |   |   |   |   |   |   PCh011 > 1.13: non (2.0)
|   |   |   |   |   |   |   |   |   |   |   |    memory1 > 1.84: non (76.0/1.0)
|   |   |   |   |   |   |   |   |   |   |   Ch162 > 10.32
|   |   |   |   |   |   |   |   |   |   |   |   Ch132 <= 5.72: dup (7.0)
|   |   |   |   |   |   |   |   |   |   |   |   Ch132 > 5.72
|   |   |   |   |   |   |   |   |   |   |   |   |   Ch82 <= 11.25
|   |   |   |   |   |   |   |   |   |   |   |   |   |    ssa1 <= 10.9
|   |   |   |   |   |   |   |   |   |   |   |   |   |   |    intstructions1 <= 5.62: dup (3.0/1.0)
|   |   |   |   |   |   |   |   |   |   |   |   |   |   |    intstructions1 > 5.62: non (12.0)
|   |   |   |   |   |   |   |   |   |   |   |   |   |    ssa1 > 10.9: dup (3.0)
|   |   |   |   |   |   |   |   |   |   |   |   |   Ch82 > 11.25: non (33.0)
|   |   |   |   |   |   |   |   Ch62 > 9.37
|   |   |   |   |   |   |   |   |   comp <= 0
|   |   |   |   |   |   |   |   |   |   Ch42 <= 16.1: dup (4.0)
|   |   |   |   |   |   |   |   |   |   Ch42 > 16.1
|   |   |   |   |   |   |   |   |   |   |   PCh022 <= 10.08
|   |   |   |   |   |   |   |   |   |   |   |   type <= 0: dup (6.0/1.0)
|   |   |   |   |   |   |   |   |   |   |   |   type > 0: non (5.0)
|   |   |   |   |   |   |   |   |   |   |   PCh022 > 10.08: non (19.0)
|   |   |   |   |   |   |   |   |   comp > 0: dup (2.0)
|   |   |   |   bmfu > 5.03
|   |   |   |   |   PCh011 <= 5.32
|   |   |   |   |   |    parsing2 <= 0.96
|   |   |   |   |   |   |   Ch131 <= 3.15: non (24.0)
|   |   |   |   |   |   |   Ch131 > 3.15: dup (3.0)
|   |   |   |   |   |    parsing2 > 0.96
|   |   |   |   |   |   |    garbage2 <= 9.44
|   |   |   |   |   |   |   |    ssa2 <= 8.31
|   |   |   |   |   |   |   |   |   Ch102 <= 7.93
|   |   |   |   |   |   |   |   |   |    intstructions1 <= 5.51
|   |   |   |   |   |   |   |   |   |   |    semantics2 <= 8.49
|   |   |   |   |   |   |   |   |   |   |   |   Ch142 <= 3.74
|   |   |   |   |   |   |   |   |   |   |   |   |    garbage1 <= 4.23
|   |   |   |   |   |   |   |   |   |   |   |   |   |   PCh092 <= 1.54
|   |   |   |   |   |   |   |   |   |   |   |   |   |   |   Ch81 <= 6.35: non (11.0/1.0)
|   |   |   |   |   |   |   |   |   |   |   |   |   |   |   Ch81 > 6.35: dup (3.0)
|   |   |   |   |   |   |   |   |   |   |   |   |   |   PCh092 > 1.54: dup (12.0)
|   |   |   |   |   |   |   |   |   |   |   |   |    garbage1 > 4.23: non (12.0)
|   |   |   |   |   |   |   |   |   |   |   |   Ch142 > 3.74: non (26.0/1.0)
|   |   |   |   |   |   |   |   |   |   |    semantics2 > 8.49: dup (4.0)
|   |   |   |   |   |   |   |   |   |    intstructions1 > 5.51
|   |   |   |   |   |   |   |   |   |   |   PCh042 <= 3
|   |   |   |   |   |   |   |   |   |   |   |   Ch42 <= 3.58: dup (2.0)
|   |   |   |   |   |   |   |   |   |   |   |   Ch42 > 3.58: non (9.0)
|   |   |   |   |   |   |   |   |   |   |   PCh042 > 3
|   |   |   |   |   |   |   |   |   |   |   |   Ch21 <= 5.47
|   |   |   |   |   |   |   |   |   |   |   |   |    garbage2 <= 5.41
|   |   |   |   |   |   |   |   |   |   |   |   |   |    semantics1 <= 5.68
|   |   |   |   |   |   |   |   |   |   |   |   |   |   |   PCh031 <= 5.74: dup (10.0)
|   |   |   |   |   |   |   |   |   |   |   |   |   |   |   PCh031 > 5.74: non (3.0)
|   |   |   |   |   |   |   |   |   |   |   |   |   |    semantics1 > 5.68: dup (60.0)
|   |   |   |   |   |   |   |   |   |   |   |   |    garbage2 > 5.41
|   |   |   |   |   |   |   |   |   |   |   |   |   |   type <= 0: dup (2.0)
|   |   |   |   |   |   |   |   |   |   |   |   |   |   type > 0: non (4.0)
|   |   |   |   |   |   |   |   |   |   |   |   Ch21 > 5.47
|   |   |   |   |   |   |   |   |   |   |   |   |   PCh112 <= 1.87
|   |   |   |   |   |   |   |   |   |   |   |   |   |   PCh041 <= 15.43
|   |   |   |   |   |   |   |   |   |   |   |   |   |   |   Ch161 <= 7.9: dup (3.0)
|   |   |   |   |   |   |   |   |   |   |   |   |   |   |   Ch161 > 7.9: non (12.0)
|   |   |   |   |   |   |   |   |   |   |   |   |   |   PCh041 > 15.43: dup (3.0)
|   |   |   |   |   |   |   |   |   |   |   |   |   PCh112 > 1.87: dup (8.0)
|   |   |   |   |   |   |   |   |   Ch102 > 7.93
|   |   |   |   |   |   |   |   |   |    oops2 <= 10.35
|   |   |   |   |   |   |   |   |   |   |   PCh011 <= 1.34
|   |   |   |   |   |   |   |   |   |   |   |   comp <= 0
|   |   |   |   |   |   |   |   |   |   |   |   |   PCh062 <= 4.46
|   |   |   |   |   |   |   |   |   |   |   |   |   |   PCh111 <= 1.97: dup (12.0)
|   |   |   |   |   |   |   |   |   |   |   |   |   |   PCh111 > 1.97: non (2.0)
|   |   |   |   |   |   |   |   |   |   |   |   |   PCh062 > 4.46: non (4.0)
|   |   |   |   |   |   |   |   |   |   |   |   comp > 0: non (2.0)
|   |   |   |   |   |   |   |   |   |   |   PCh011 > 1.34
|   |   |   |   |   |   |   |   |   |   |   |   prior <= 0.5
|   |   |   |   |   |   |   |   |   |   |   |   |   PCh071 <= 6.55
|   |   |   |   |   |   |   |   |   |   |   |   |   |   PCh112 <= 0.51: non (3.0)
|   |   |   |   |   |   |   |   |   |   |   |   |   |   PCh112 > 0.51: dup (7.0)
|   |   |   |   |   |   |   |   |   |   |   |   |   PCh071 > 6.55: non (7.0)
|   |   |   |   |   |   |   |   |   |   |   |   prior > 0.5
|   |   |   |   |   |   |   |   |   |   |   |   |   Ch62 <= 3.18: non (28.0)
|   |   |   |   |   |   |   |   |   |   |   |   |   Ch62 > 3.18
|   |   |   |   |   |   |   |   |   |   |   |   |   |   Ch92 <= 8.58
|   |   |   |   |   |   |   |   |   |   |   |   |   |   |   Ch21 <= 3.11: non (4.0)
|   |   |   |   |   |   |   |   |   |   |   |   |   |   |   Ch21 > 3.11: dup (7.0)
|   |   |   |   |   |   |   |   |   |   |   |   |   |   Ch92 > 8.58
|   |   |   |   |   |   |   |   |   |   |   |   |   |   |    liveRegisters1 <= 11.04
|   |   |   |   |   |   |   |   |   |   |   |   |   |   |   |    memory2 <= 2.84
|   |   |   |   |   |   |   |   |   |   |   |   |   |   |   |   |    semantics1 <= 5.78: non (3.0)
|   |   |   |   |   |   |   |   |   |   |   |   |   |   |   |   |    semantics1 > 5.78: dup (3.0)
|   |   |   |   |   |   |   |   |   |   |   |   |   |   |   |    memory2 > 2.84: non (45.0)
|   |   |   |   |   |   |   |   |   |   |   |   |   |   |    liveRegisters1 > 11.04
|   |   |   |   |   |   |   |   |   |   |   |   |   |   |   |   PCh011 <= 3.86: dup (7.0/1.0)
|   |   |   |   |   |   |   |   |   |   |   |   |   |   |   |   PCh011 > 3.86: non (5.0)
|   |   |   |   |   |   |   |   |   |    oops2 > 10.35: dup (10.0/1.0)
|   |   |   |   |   |   |   |    ssa2 > 8.31
|   |   |   |   |   |   |   |   |   Ch122 <= 12.57
|   |   |   |   |   |   |   |   |   |   Ch31 <= 12.18
|   |   |   |   |   |   |   |   |   |   |    polymorhic1 <= 4.59
|   |   |   |   |   |   |   |   |   |   |   |   PCh071 <= 2.99: dup (17.0/1.0)
|   |   |   |   |   |   |   |   |   |   |   |   PCh071 > 2.99
|   |   |   |   |   |   |   |   |   |   |   |   |   bmfu <= 8.92: non (10.0/1.0)
|   |   |   |   |   |   |   |   |   |   |   |   |   bmfu > 8.92: dup (3.0)
|   |   |   |   |   |   |   |   |   |   |    polymorhic1 > 4.59
|   |   |   |   |   |   |   |   |   |   |   |   Ch131 <= 4.79: dup (135.0/1.0)
|   |   |   |   |   |   |   |   |   |   |   |   Ch131 > 4.79
|   |   |   |   |   |   |   |   |   |   |   |   |    functional2 <= 4.8: non (5.0/1.0)
|   |   |   |   |   |   |   |   |   |   |   |   |    functional2 > 4.8
|   |   |   |   |   |   |   |   |   |   |   |   |   |   PCh071 <= 4.24
|   |   |   |   |   |   |   |   |   |   |   |   |   |   |    garbage1 <= 3.01: dup (5.0)
|   |   |   |   |   |   |   |   |   |   |   |   |   |   |    garbage1 > 3.01: non (4.0)
|   |   |   |   |   |   |   |   |   |   |   |   |   |   PCh071 > 4.24
|   |   |   |   |   |   |   |   |   |   |   |   |   |   |   Ch171 <= 5.97
|   |   |   |   |   |   |   |   |   |   |   |   |   |   |   |   PCh111 <= 1.94: non (2.0)
|   |   |   |   |   |   |   |   |   |   |   |   |   |   |   |   PCh111 > 1.94: dup (4.0)
|   |   |   |   |   |   |   |   |   |   |   |   |   |   |   Ch171 > 5.97: dup (48.0)
|   |   |   |   |   |   |   |   |   |   Ch31 > 12.18
|   |   |   |   |   |   |   |   |   |   |   Ch61 <= 9.3: non (15.0)
|   |   |   |   |   |   |   |   |   |   |   Ch61 > 9.3: dup (8.0)
|   |   |   |   |   |   |   |   |   Ch122 > 12.57
|   |   |   |   |   |   |   |   |   |   PCh032 <= 6.9: dup (4.0)
|   |   |   |   |   |   |   |   |   |   PCh032 > 6.9
|   |   |   |   |   |   |   |   |   |   |    semantics1 <= 5.28: dup (3.0)
|   |   |   |   |   |   |   |   |   |   |    semantics1 > 5.28: non (20.0)
|   |   |   |   |   |   |    garbage2 > 9.44
|   |   |   |   |   |   |   |   bmfu <= 8.5: non (24.0)
|   |   |   |   |   |   |   |   bmfu > 8.5
|   |   |   |   |   |   |   |   |    introLexical2 <= 10.46: non (4.0)
|   |   |   |   |   |   |   |   |    introLexical2 > 10.46: dup (5.0)
|   |   |   |   |   PCh011 > 5.32
|   |   |   |   |   |   PCh012 <= 7.89: non (38.0)
|   |   |   |   |   |   PCh012 > 7.89: dup (2.0)
|   |   |   bmfb > 20.29
|   |   |   |   Ch171 <= 3.1
|   |   |   |   |   PCh071 <= 1.86: dup (7.0)
|   |   |   |   |   PCh071 > 1.86
|   |   |   |   |   |   PCh061 <= 3.58: non (11.0)
|   |   |   |   |   |   PCh061 > 3.58: dup (3.0)
|   |   |   |   Ch171 > 3.1
|   |   |   |   |   bmfu <= 19.75
|   |   |   |   |   |   PCh071 <= 4.2
|   |   |   |   |   |   |   PCh051 <= 0.91: dup (4.0)
|   |   |   |   |   |   |   PCh051 > 0.91: non (9.0)
|   |   |   |   |   |   PCh071 > 4.2: dup (14.0)
|   |   |   |   |   bmfu > 19.75
|   |   |   |   |   |    hueristics2 <= 5.28
|   |   |   |   |   |   |   PCh012 <= 1.97: dup (7.0)
|   |   |   |   |   |   |   PCh012 > 1.97: non (4.0)
|   |   |   |   |   |    hueristics2 > 5.28
|   |   |   |   |   |   |    parsing1 <= 7.57: dup (176.0/2.0)
|   |   |   |   |   |   |    parsing1 > 7.57
|   |   |   |   |   |   |   |   Ch51 <= 18.9: non (3.0)
|   |   |   |   |   |   |   |   Ch51 > 18.9: dup (7.0)
|   |   cosine_similarity > 0.999
|   |   |   Ch151 <= 4.72: non (300.0)
|   |   |   Ch151 > 4.72
|   |   |   |   Ch171 <= 7.09: non (12.0)
|   |   |   |   Ch171 > 7.09: dup (8.0)
|   prod > 0
|   |   Ch112 <= 1.77
|   |   |   type <= 0
|   |   |   |   comp <= 0: non (3.0)
|   |   |   |   comp > 0
|   |   |   |   |   PCh011 <= 3.04: dup (15.0)
|   |   |   |   |   PCh011 > 3.04: non (2.0)
|   |   |   type > 0
|   |   |   |   Ch91 <= 6.15
|   |   |   |   |   bmfb <= 25.99
|   |   |   |   |   |    intstructions1 <= 5.57
|   |   |   |   |   |   |   Ch152 <= 0.06
|   |   |   |   |   |   |   |   Ch141 <= 1.64
|   |   |   |   |   |   |   |   |   Ch12 <= 2.74
|   |   |   |   |   |   |   |   |   |    ssa2 <= 1.12
|   |   |   |   |   |   |   |   |   |   |   bmfb <= 3.89: dup (2.0)
|   |   |   |   |   |   |   |   |   |   |   bmfb > 3.89: non (2.0)
|   |   |   |   |   |   |   |   |   |    ssa2 > 1.12: non (25.0)
|   |   |   |   |   |   |   |   |   Ch12 > 2.74: dup (2.0)
|   |   |   |   |   |   |   |   Ch141 > 1.64: dup (3.0)
|   |   |   |   |   |   |   Ch152 > 0.06
|   |   |   |   |   |   |   |    intstructions1 <= 0.68
|   |   |   |   |   |   |   |   |   PCh061 <= 0.73: non (4.0)
|   |   |   |   |   |   |   |   |   PCh061 > 0.73: dup (2.0)
|   |   |   |   |   |   |   |    intstructions1 > 0.68: non (72.0)
|   |   |   |   |   |    intstructions1 > 5.57
|   |   |   |   |   |   |   Ch132 <= 1.67: dup (4.0)
|   |   |   |   |   |   |   Ch132 > 1.67: non (3.0)
|   |   |   |   |   bmfb > 25.99
|   |   |   |   |   |   PCh122 <= 1.28: dup (9.0)
|   |   |   |   |   |   PCh122 > 1.28: non (6.0)
|   |   |   |   Ch91 > 6.15
|   |   |   |   |   Ch121 <= 4.88
|   |   |   |   |   |   Ch162 <= 2.98: non (10.0)
|   |   |   |   |   |   Ch162 > 2.98: dup (3.0)
|   |   |   |   |   Ch121 > 4.88: dup (14.0/1.0)
|   |   Ch112 > 1.77
|   |   |   Ch122 <= 0.61
|   |   |   |   Ch131 <= 2.82: non (23.0)
|   |   |   |   Ch131 > 2.82: dup (3.0)
|   |   |   Ch122 > 0.61
|   |   |   |   Ch152 <= 0.53
|   |   |   |   |   Ch22 <= 2.77
|   |   |   |   |   |   bmfb <= 2: dup (9.0)
|   |   |   |   |   |   bmfb > 2
|   |   |   |   |   |   |   Ch82 <= 1.08: dup (6.0)
|   |   |   |   |   |   |   Ch82 > 1.08
|   |   |   |   |   |   |   |    pipeline2 <= 2.78: non (19.0/2.0)
|   |   |   |   |   |   |   |    pipeline2 > 2.78
|   |   |   |   |   |   |   |   |    hueristics2 <= 5.11: dup (13.0)
|   |   |   |   |   |   |   |   |    hueristics2 > 5.11
|   |   |   |   |   |   |   |   |   |   Ch152 <= 0.06
|   |   |   |   |   |   |   |   |   |   |   PCh042 <= 7.95: non (10.0)
|   |   |   |   |   |   |   |   |   |   |   PCh042 > 7.95: dup (2.0)
|   |   |   |   |   |   |   |   |   |   Ch152 > 0.06: dup (2.0)
|   |   |   |   |   Ch22 > 2.77: non (17.0)
|   |   |   |   Ch152 > 0.53
|   |   |   |   |   bmfu <= 15.21
|   |   |   |   |   |   type <= 0
|   |   |   |   |   |   |   bmfu <= 4.9
|   |   |   |   |   |   |   |    garbage2 <= 5.96
|   |   |   |   |   |   |   |   |   Ch72 <= 2.12
|   |   |   |   |   |   |   |   |   |   PCh021 <= 5.28: dup (3.0)
|   |   |   |   |   |   |   |   |   |   PCh021 > 5.28: non (8.0)
|   |   |   |   |   |   |   |   |   Ch72 > 2.12
|   |   |   |   |   |   |   |   |   |    pipeline2 <= 2.47
|   |   |   |   |   |   |   |   |   |   |    polymorhic1 <= 6.09: non (7.0)
|   |   |   |   |   |   |   |   |   |   |    polymorhic1 > 6.09: dup (5.0/1.0)
|   |   |   |   |   |   |   |   |   |    pipeline2 > 2.47
|   |   |   |   |   |   |   |   |   |   |   Ch102 <= 12.83
|   |   |   |   |   |   |   |   |   |   |   |    ssa2 <= 3.22
|   |   |   |   |   |   |   |   |   |   |   |   |   Ch62 <= 2.48: dup (5.0)
|   |   |   |   |   |   |   |   |   |   |   |   |   Ch62 > 2.48: non (6.0)
|   |   |   |   |   |   |   |   |   |   |   |    ssa2 > 3.22
|   |   |   |   |   |   |   |   |   |   |   |   |   PCh091 <= 2.99: dup (81.0/1.0)
|   |   |   |   |   |   |   |   |   |   |   |   |   PCh091 > 2.99
|   |   |   |   |   |   |   |   |   |   |   |   |   |    garbage2 <= 3.03: dup (22.0)
|   |   |   |   |   |   |   |   |   |   |   |   |   |    garbage2 > 3.03
|   |   |   |   |   |   |   |   |   |   |   |   |   |   |   Ch11 <= 3.89: non (5.0/1.0)
|   |   |   |   |   |   |   |   |   |   |   |   |   |   |   Ch11 > 3.89
|   |   |   |   |   |   |   |   |   |   |   |   |   |   |   |   PCh112 <= 1.11
|   |   |   |   |   |   |   |   |   |   |   |   |   |   |   |   |    semantics1 <= 5.49: dup (7.0)
|   |   |   |   |   |   |   |   |   |   |   |   |   |   |   |   |    semantics1 > 5.49
|   |   |   |   |   |   |   |   |   |   |   |   |   |   |   |   |   |    pipeline2 <= 9.1: non (11.0/1.0)
|   |   |   |   |   |   |   |   |   |   |   |   |   |   |   |   |   |    pipeline2 > 9.1: dup (7.0)
|   |   |   |   |   |   |   |   |   |   |   |   |   |   |   |   PCh112 > 1.11: dup (26.0)
|   |   |   |   |   |   |   |   |   |   |   Ch102 > 12.83
|   |   |   |   |   |   |   |   |   |   |   |   Ch92 <= 12.43: dup (4.0)
|   |   |   |   |   |   |   |   |   |   |   |   Ch92 > 12.43: non (6.0)
|   |   |   |   |   |   |   |    garbage2 > 5.96
|   |   |   |   |   |   |   |   |    pipeline1 <= 8.84
|   |   |   |   |   |   |   |   |   |   comp <= 0
|   |   |   |   |   |   |   |   |   |   |   PCh011 <= 1.18: dup (7.0)
|   |   |   |   |   |   |   |   |   |   |   PCh011 > 1.18
|   |   |   |   |   |   |   |   |   |   |   |   PCh072 <= 4.83: dup (3.0)
|   |   |   |   |   |   |   |   |   |   |   |   PCh072 > 4.83: non (16.0/1.0)
|   |   |   |   |   |   |   |   |   |   comp > 0
|   |   |   |   |   |   |   |   |   |   |   PCh051 <= 1.86
|   |   |   |   |   |   |   |   |   |   |   |   Ch71 <= 6.37
|   |   |   |   |   |   |   |   |   |   |   |   |    oops2 <= 8.83: non (9.0)
|   |   |   |   |   |   |   |   |   |   |   |   |    oops2 > 8.83
|   |   |   |   |   |   |   |   |   |   |   |   |   |   PCh022 <= 13.84: dup (8.0)
|   |   |   |   |   |   |   |   |   |   |   |   |   |   PCh022 > 13.84: non (2.0)
|   |   |   |   |   |   |   |   |   |   |   |   Ch71 > 6.37: dup (9.0)
|   |   |   |   |   |   |   |   |   |   |   PCh051 > 1.86: dup (18.0)
|   |   |   |   |   |   |   |   |    pipeline1 > 8.84
|   |   |   |   |   |   |   |   |   |   PCh101 <= 1.25: dup (2.0)
|   |   |   |   |   |   |   |   |   |   PCh101 > 1.25: non (34.0/1.0)
|   |   |   |   |   |   |   bmfu > 4.9
|   |   |   |   |   |   |   |    pipeline1 <= 15.25
|   |   |   |   |   |   |   |   |   cosine_similarity <= 0.864
|   |   |   |   |   |   |   |   |   |    parsing2 <= 8.32
|   |   |   |   |   |   |   |   |   |   |    pipeline2 <= 0.7: non (4.0)
|   |   |   |   |   |   |   |   |   |   |    pipeline2 > 0.7
|   |   |   |   |   |   |   |   |   |   |   |   PCh082 <= 6.7
|   |   |   |   |   |   |   |   |   |   |   |   |    liveRegisters2 <= 3.56
|   |   |   |   |   |   |   |   |   |   |   |   |   |   PCh101 <= 0.68: dup (3.0)
|   |   |   |   |   |   |   |   |   |   |   |   |   |   PCh101 > 0.68: non (2.0)
|   |   |   |   |   |   |   |   |   |   |   |   |    liveRegisters2 > 3.56: dup (22.0)
|   |   |   |   |   |   |   |   |   |   |   |   PCh082 > 6.7: non (2.0)
|   |   |   |   |   |   |   |   |   |    parsing2 > 8.32: non (6.0)
|   |   |   |   |   |   |   |   |   cosine_similarity > 0.864
|   |   |   |   |   |   |   |   |   |   PCh012 <= 6.06
|   |   |   |   |   |   |   |   |   |   |    ssa1 <= 3.7: dup (93.0)
|   |   |   |   |   |   |   |   |   |   |    ssa1 > 3.7
|   |   |   |   |   |   |   |   |   |   |   |    introLexical2 <= 4.37
|   |   |   |   |   |   |   |   |   |   |   |   |   PCh102 <= 2.17
|   |   |   |   |   |   |   |   |   |   |   |   |   |   bmfb <= 8.43
|   |   |   |   |   |   |   |   |   |   |   |   |   |   |    functional1 <= 1.25: non (5.0/1.0)
|   |   |   |   |   |   |   |   |   |   |   |   |   |   |    functional1 > 1.25
|   |   |   |   |   |   |   |   |   |   |   |   |   |   |   |    parsing2 <= 4.94: dup (52.0)
|   |   |   |   |   |   |   |   |   |   |   |   |   |   |   |    parsing2 > 4.94: non (3.0/1.0)
|   |   |   |   |   |   |   |   |   |   |   |   |   |   bmfb > 8.43
|   |   |   |   |   |   |   |   |   |   |   |   |   |   |    polymorhic1 <= 7.06: dup (7.0)
|   |   |   |   |   |   |   |   |   |   |   |   |   |   |    polymorhic1 > 7.06: non (10.0)
|   |   |   |   |   |   |   |   |   |   |   |   |   PCh102 > 2.17: non (13.0/1.0)
|   |   |   |   |   |   |   |   |   |   |   |    introLexical2 > 4.37
|   |   |   |   |   |   |   |   |   |   |   |   |   Ch31 <= 5.54
|   |   |   |   |   |   |   |   |   |   |   |   |   |   Ch122 <= 14.07
|   |   |   |   |   |   |   |   |   |   |   |   |   |   |   Ch12 <= 2.71: non (6.0/1.0)
|   |   |   |   |   |   |   |   |   |   |   |   |   |   |   Ch12 > 2.71
|   |   |   |   |   |   |   |   |   |   |   |   |   |   |   |   Ch131 <= 2.27: dup (43.0)
|   |   |   |   |   |   |   |   |   |   |   |   |   |   |   |   Ch131 > 2.27
|   |   |   |   |   |   |   |   |   |   |   |   |   |   |   |   |   Ch132 <= 4.47: dup (17.0)
|   |   |   |   |   |   |   |   |   |   |   |   |   |   |   |   |   Ch132 > 4.47
|   |   |   |   |   |   |   |   |   |   |   |   |   |   |   |   |   |    garbage1 <= 3.75: non (10.0/1.0)
|   |   |   |   |   |   |   |   |   |   |   |   |   |   |   |   |   |    garbage1 > 3.75
|   |   |   |   |   |   |   |   |   |   |   |   |   |   |   |   |   |   |   PCh082 <= 8.69: dup (9.0)
|   |   |   |   |   |   |   |   |   |   |   |   |   |   |   |   |   |   |   PCh082 > 8.69: non (3.0/1.0)
|   |   |   |   |   |   |   |   |   |   |   |   |   |   Ch122 > 14.07: non (7.0)
|   |   |   |   |   |   |   |   |   |   |   |   |   Ch31 > 5.54
|   |   |   |   |   |   |   |   |   |   |   |   |   |   Ch141 <= 5.36: dup (291.0/6.0)
|   |   |   |   |   |   |   |   |   |   |   |   |   |   Ch141 > 5.36
|   |   |   |   |   |   |   |   |   |   |   |   |   |   |   Ch191 <= 5.76
|   |   |   |   |   |   |   |   |   |   |   |   |   |   |   |   Ch82 <= 5.57: dup (11.0)
|   |   |   |   |   |   |   |   |   |   |   |   |   |   |   |   Ch82 > 5.57
|   |   |   |   |   |   |   |   |   |   |   |   |   |   |   |   |    pipeline2 <= 10.59
|   |   |   |   |   |   |   |   |   |   |   |   |   |   |   |   |   |   PCh122 <= 4.44
|   |   |   |   |   |   |   |   |   |   |   |   |   |   |   |   |   |   |    intstructions1 <= 5.78: non (4.0)
|   |   |   |   |   |   |   |   |   |   |   |   |   |   |   |   |   |   |    intstructions1 > 5.78
|   |   |   |   |   |   |   |   |   |   |   |   |   |   |   |   |   |   |   |   Ch51 <= 12.32: non (3.0)
|   |   |   |   |   |   |   |   |   |   |   |   |   |   |   |   |   |   |   |   Ch51 > 12.32: dup (10.0)
|   |   |   |   |   |   |   |   |   |   |   |   |   |   |   |   |   |   PCh122 > 4.44: non (11.0)
|   |   |   |   |   |   |   |   |   |   |   |   |   |   |   |   |    pipeline2 > 10.59: dup (7.0)
|   |   |   |   |   |   |   |   |   |   |   |   |   |   |   Ch191 > 5.76
|   |   |   |   |   |   |   |   |   |   |   |   |   |   |   |   Ch152 <= 5.9
|   |   |   |   |   |   |   |   |   |   |   |   |   |   |   |   |   PCh052 <= 4.15
|   |   |   |   |   |   |   |   |   |   |   |   |   |   |   |   |   |   PCh112 <= 0.29
|   |   |   |   |   |   |   |   |   |   |   |   |   |   |   |   |   |   |   PCh112 <= 0.06
|   |   |   |   |   |   |   |   |   |   |   |   |   |   |   |   |   |   |   |   PCh062 <= 3.96: dup (12.0)
|   |   |   |   |   |   |   |   |   |   |   |   |   |   |   |   |   |   |   |   PCh062 > 3.96: non (5.0/1.0)
|   |   |   |   |   |   |   |   |   |   |   |   |   |   |   |   |   |   |   PCh112 > 0.06: non (2.0)
|   |   |   |   |   |   |   |   |   |   |   |   |   |   |   |   |   |   PCh112 > 0.29: dup (83.0/2.0)
|   |   |   |   |   |   |   |   |   |   |   |   |   |   |   |   |   PCh052 > 4.15
|   |   |   |   |   |   |   |   |   |   |   |   |   |   |   |   |   |   Ch81 <= 10.2: non (6.0)
|   |   |   |   |   |   |   |   |   |   |   |   |   |   |   |   |   |   Ch81 > 10.2: dup (6.0)
|   |   |   |   |   |   |   |   |   |   |   |   |   |   |   |   Ch152 > 5.9
|   |   |   |   |   |   |   |   |   |   |   |   |   |   |   |   |    oops1 <= 5.07
|   |   |   |   |   |   |   |   |   |   |   |   |   |   |   |   |   |   PCh011 <= 1.47: non (2.0)
|   |   |   |   |   |   |   |   |   |   |   |   |   |   |   |   |   |   PCh011 > 1.47: dup (5.0)
|   |   |   |   |   |   |   |   |   |   |   |   |   |   |   |   |    oops1 > 5.07: dup (134.0)
|   |   |   |   |   |   |   |   |   |   PCh012 > 6.06
|   |   |   |   |   |   |   |   |   |   |   Ch21 <= 6.53
|   |   |   |   |   |   |   |   |   |   |   |    parsing2 <= 5.47: non (9.0)
|   |   |   |   |   |   |   |   |   |   |   |    parsing2 > 5.47
|   |   |   |   |   |   |   |   |   |   |   |   |   PCh092 <= 6.52: dup (8.0)
|   |   |   |   |   |   |   |   |   |   |   |   |   PCh092 > 6.52
|   |   |   |   |   |   |   |   |   |   |   |   |   |   PCh071 <= 8.99: non (4.0)
|   |   |   |   |   |   |   |   |   |   |   |   |   |   PCh071 > 8.99: dup (2.0)
|   |   |   |   |   |   |   |   |   |   |   Ch21 > 6.53: dup (10.0)
|   |   |   |   |   |   |   |    pipeline1 > 15.25
|   |   |   |   |   |   |   |   |   comp <= 0: non (7.0)
|   |   |   |   |   |   |   |   |   comp > 0
|   |   |   |   |   |   |   |   |   |   PCh031 <= 9.37: non (7.0/1.0)
|   |   |   |   |   |   |   |   |   |   PCh031 > 9.37
|   |   |   |   |   |   |   |   |   |   |   PCh051 <= 6.62: dup (17.0)
|   |   |   |   |   |   |   |   |   |   |   PCh051 > 6.62: non (2.0)
|   |   |   |   |   |   type > 0
|   |   |   |   |   |   |   comp <= 0
|   |   |   |   |   |   |   |   Ch22 <= 7.6
|   |   |   |   |   |   |   |   |   PCh072 <= 5.89
|   |   |   |   |   |   |   |   |   |    intstructions2 <= 7.64
|   |   |   |   |   |   |   |   |   |   |   Ch32 <= 10.96
|   |   |   |   |   |   |   |   |   |   |   |   Ch131 <= 9.54
|   |   |   |   |   |   |   |   |   |   |   |   |   cosine_similarity <= 0.964
|   |   |   |   |   |   |   |   |   |   |   |   |   |   Ch132 <= 6.47
|   |   |   |   |   |   |   |   |   |   |   |   |   |   |   bmfu <= 4.72
|   |   |   |   |   |   |   |   |   |   |   |   |   |   |   |   PCh051 <= 1.08
|   |   |   |   |   |   |   |   |   |   |   |   |   |   |   |   |   Ch192 <= 2.81: non (2.0)
|   |   |   |   |   |   |   |   |   |   |   |   |   |   |   |   |   Ch192 > 2.81: dup (8.0)
|   |   |   |   |   |   |   |   |   |   |   |   |   |   |   |   PCh051 > 1.08
|   |   |   |   |   |   |   |   |   |   |   |   |   |   |   |   |   Ch111 <= 12.74: non (17.0)
|   |   |   |   |   |   |   |   |   |   |   |   |   |   |   |   |   Ch111 > 12.74: dup (3.0)
|   |   |   |   |   |   |   |   |   |   |   |   |   |   |   bmfu > 4.72
|   |   |   |   |   |   |   |   |   |   |   |   |   |   |   |   Ch112 <= 3.26: non (9.0/1.0)
|   |   |   |   |   |   |   |   |   |   |   |   |   |   |   |   Ch112 > 3.26
|   |   |   |   |   |   |   |   |   |   |   |   |   |   |   |   |   Ch151 <= 8.74
|   |   |   |   |   |   |   |   |   |   |   |   |   |   |   |   |   |   bmfb <= 8.15
|   |   |   |   |   |   |   |   |   |   |   |   |   |   |   |   |   |   |   Ch52 <= 5.25
|   |   |   |   |   |   |   |   |   |   |   |   |   |   |   |   |   |   |   |   PCh042 <= 5.2: dup (5.0)
|   |   |   |   |   |   |   |   |   |   |   |   |   |   |   |   |   |   |   |   PCh042 > 5.2: non (3.0)
|   |   |   |   |   |   |   |   |   |   |   |   |   |   |   |   |   |   |   Ch52 > 5.25: dup (52.0)
|   |   |   |   |   |   |   |   |   |   |   |   |   |   |   |   |   |   bmfb > 8.15
|   |   |   |   |   |   |   |   |   |   |   |   |   |   |   |   |   |   |   Ch31 <= 5.73: dup (5.0/1.0)
|   |   |   |   |   |   |   |   |   |   |   |   |   |   |   |   |   |   |   Ch31 > 5.73: non (4.0)
|   |   |   |   |   |   |   |   |   |   |   |   |   |   |   |   |   Ch151 > 8.74: non (5.0/1.0)
|   |   |   |   |   |   |   |   |   |   |   |   |   |   Ch132 > 6.47: non (12.0/1.0)
|   |   |   |   |   |   |   |   |   |   |   |   |   cosine_similarity > 0.964
|   |   |   |   |   |   |   |   |   |   |   |   |   |   Ch111 <= 13.56
|   |   |   |   |   |   |   |   |   |   |   |   |   |   |   PCh062 <= 2.61
|   |   |   |   |   |   |   |   |   |   |   |   |   |   |   |   PCh082 <= 2.99: non (7.0)
|   |   |   |   |   |   |   |   |   |   |   |   |   |   |   |   PCh082 > 2.99: dup (4.0)
|   |   |   |   |   |   |   |   |   |   |   |   |   |   |   PCh062 > 2.61: non (25.0)
|   |   |   |   |   |   |   |   |   |   |   |   |   |   Ch111 > 13.56: dup (5.0)
|   |   |   |   |   |   |   |   |   |   |   |   Ch131 > 9.54: non (12.0)
|   |   |   |   |   |   |   |   |   |   |   Ch32 > 10.96: dup (12.0)
|   |   |   |   |   |   |   |   |   |    intstructions2 > 7.64
|   |   |   |   |   |   |   |   |   |   |   Ch11 <= 3.03: non (5.0/1.0)
|   |   |   |   |   |   |   |   |   |   |   Ch11 > 3.03
|   |   |   |   |   |   |   |   |   |   |   |    ssa1 <= 13.1: dup (48.0/1.0)
|   |   |   |   |   |   |   |   |   |   |   |    ssa1 > 13.1
|   |   |   |   |   |   |   |   |   |   |   |   |   PCh011 <= 4.3: non (3.0)
|   |   |   |   |   |   |   |   |   |   |   |   |   PCh011 > 4.3: dup (3.0)
|   |   |   |   |   |   |   |   |   PCh072 > 5.89
|   |   |   |   |   |   |   |   |   |   Ch62 <= 5.75
|   |   |   |   |   |   |   |   |   |   |   Ch92 <= 14.67
|   |   |   |   |   |   |   |   |   |   |   |    oops2 <= 7.11
|   |   |   |   |   |   |   |   |   |   |   |   |    polymorhic2 <= 5.08
|   |   |   |   |   |   |   |   |   |   |   |   |   |    hueristics2 <= 4.47: dup (2.0)
|   |   |   |   |   |   |   |   |   |   |   |   |   |    hueristics2 > 4.47: non (12.0)
|   |   |   |   |   |   |   |   |   |   |   |   |    polymorhic2 > 5.08: dup (8.0)
|   |   |   |   |   |   |   |   |   |   |   |    oops2 > 7.11
|   |   |   |   |   |   |   |   |   |   |   |   |   bmfb <= 0.18
|   |   |   |   |   |   |   |   |   |   |   |   |   |   PCh072 <= 8.96: dup (7.0/1.0)
|   |   |   |   |   |   |   |   |   |   |   |   |   |   PCh072 > 8.96: non (6.0)
|   |   |   |   |   |   |   |   |   |   |   |   |   bmfb > 0.18
|   |   |   |   |   |   |   |   |   |   |   |   |   |   PCh032 <= 7.69: non (66.0)
|   |   |   |   |   |   |   |   |   |   |   |   |   |   PCh032 > 7.69
|   |   |   |   |   |   |   |   |   |   |   |   |   |   |   PCh111 <= 1.05: non (15.0)
|   |   |   |   |   |   |   |   |   |   |   |   |   |   |   PCh111 > 1.05
|   |   |   |   |   |   |   |   |   |   |   |   |   |   |   |   Ch72 <= 7.5: non (9.0/1.0)
|   |   |   |   |   |   |   |   |   |   |   |   |   |   |   |   Ch72 > 7.5: dup (5.0)
|   |   |   |   |   |   |   |   |   |   |   Ch92 > 14.67: dup (7.0/1.0)
|   |   |   |   |   |   |   |   |   |   Ch62 > 5.75
|   |   |   |   |   |   |   |   |   |   |   Ch191 <= 3.5: non (8.0)
|   |   |   |   |   |   |   |   |   |   |   Ch191 > 3.5
|   |   |   |   |   |   |   |   |   |   |   |   Ch22 <= 6.92
|   |   |   |   |   |   |   |   |   |   |   |   |    hueristics1 <= 14.78
|   |   |   |   |   |   |   |   |   |   |   |   |   |   PCh042 <= 8.69: non (3.0/1.0)
|   |   |   |   |   |   |   |   |   |   |   |   |   |   PCh042 > 8.69: dup (23.0)
|   |   |   |   |   |   |   |   |   |   |   |   |    hueristics1 > 14.78: non (3.0)
|   |   |   |   |   |   |   |   |   |   |   |   Ch22 > 6.92: non (4.0)
|   |   |   |   |   |   |   |   Ch22 > 7.6
|   |   |   |   |   |   |   |   |   PCh062 <= 8.3
|   |   |   |   |   |   |   |   |   |    intermediate2 <= 5.32
|   |   |   |   |   |   |   |   |   |   |   bmfu <= 6: non (3.0)
|   |   |   |   |   |   |   |   |   |   |   bmfu > 6: dup (2.0)
|   |   |   |   |   |   |   |   |   |    intermediate2 > 5.32: dup (46.0)
|   |   |   |   |   |   |   |   |   PCh062 > 8.3: non (4.0/1.0)
|   |   |   |   |   |   |   comp > 0
|   |   |   |   |   |   |   |   Ch72 <= 2.06
|   |   |   |   |   |   |   |   |   PCh022 <= 4.98
|   |   |   |   |   |   |   |   |   |   Ch52 <= 8.26
|   |   |   |   |   |   |   |   |   |   |   Ch72 <= 1.32: dup (12.0/1.0)
|   |   |   |   |   |   |   |   |   |   |   Ch72 > 1.32
|   |   |   |   |   |   |   |   |   |   |   |   Ch152 <= 1.42
|   |   |   |   |   |   |   |   |   |   |   |   |   PCh021 <= 4.18: dup (6.0)
|   |   |   |   |   |   |   |   |   |   |   |   |   PCh021 > 4.18: non (7.0/1.0)
|   |   |   |   |   |   |   |   |   |   |   |   Ch152 > 1.42: non (10.0)
|   |   |   |   |   |   |   |   |   |   Ch52 > 8.26: dup (10.0)
|   |   |   |   |   |   |   |   |   PCh022 > 4.98
|   |   |   |   |   |   |   |   |   |   Ch141 <= 1.12: dup (3.0)
|   |   |   |   |   |   |   |   |   |   Ch141 > 1.12
|   |   |   |   |   |   |   |   |   |   |   bmfu <= 13.41: non (35.0)
|   |   |   |   |   |   |   |   |   |   |   bmfu > 13.41: dup (3.0)
|   |   |   |   |   |   |   |   Ch72 > 2.06
|   |   |   |   |   |   |   |   |   cosine_similarity <= 0.992
|   |   |   |   |   |   |   |   |   |   Ch172 <= 9
|   |   |   |   |   |   |   |   |   |   |   PCh081 <= 0.4: dup (28.0)
|   |   |   |   |   |   |   |   |   |   |   PCh081 > 0.4
|   |   |   |   |   |   |   |   |   |   |   |    parsing1 <= 0.67
|   |   |   |   |   |   |   |   |   |   |   |   |   Ch31 <= 4.94: non (24.0/1.0)
|   |   |   |   |   |   |   |   |   |   |   |   |   Ch31 > 4.94
|   |   |   |   |   |   |   |   |   |   |   |   |   |    parsing1 <= 0: dup (8.0)
|   |   |   |   |   |   |   |   |   |   |   |   |   |    parsing1 > 0: non (2.0)
|   |   |   |   |   |   |   |   |   |   |   |    parsing1 > 0.67
|   |   |   |   |   |   |   |   |   |   |   |   |   cosine_similarity <= 0.873
|   |   |   |   |   |   |   |   |   |   |   |   |   |    parsing1 <= 1.53: dup (6.0)
|   |   |   |   |   |   |   |   |   |   |   |   |   |    parsing1 > 1.53
|   |   |   |   |   |   |   |   |   |   |   |   |   |   |    parsing2 <= 1.1: dup (4.0)
|   |   |   |   |   |   |   |   |   |   |   |   |   |   |    parsing2 > 1.1
|   |   |   |   |   |   |   |   |   |   |   |   |   |   |   |   PCh072 <= 2.28
|   |   |   |   |   |   |   |   |   |   |   |   |   |   |   |   |   PCh071 <= 2.34: non (2.0)
|   |   |   |   |   |   |   |   |   |   |   |   |   |   |   |   |   PCh071 > 2.34: dup (5.0)
|   |   |   |   |   |   |   |   |   |   |   |   |   |   |   |   PCh072 > 2.28
|   |   |   |   |   |   |   |   |   |   |   |   |   |   |   |   |    intstructions1 <= 3.84
|   |   |   |   |   |   |   |   |   |   |   |   |   |   |   |   |   |   PCh111 <= 0.32
|   |   |   |   |   |   |   |   |   |   |   |   |   |   |   |   |   |   |    liveRegisters1 <= 4.57: non (8.0)
|   |   |   |   |   |   |   |   |   |   |   |   |   |   |   |   |   |   |    liveRegisters1 > 4.57: dup (4.0/1.0)
|   |   |   |   |   |   |   |   |   |   |   |   |   |   |   |   |   |   PCh111 > 0.32: dup (3.0)
|   |   |   |   |   |   |   |   |   |   |   |   |   |   |   |   |    intstructions1 > 3.84: non (23.0)
|   |   |   |   |   |   |   |   |   |   |   |   |   cosine_similarity > 0.873
|   |   |   |   |   |   |   |   |   |   |   |   |   |   PCh062 <= 0.56
|   |   |   |   |   |   |   |   |   |   |   |   |   |   |   PCh111 <= 1.1
|   |   |   |   |   |   |   |   |   |   |   |   |   |   |   |   PCh072 <= 0: dup (3.0)
|   |   |   |   |   |   |   |   |   |   |   |   |   |   |   |   PCh072 > 0: non (18.0/1.0)
|   |   |   |   |   |   |   |   |   |   |   |   |   |   |   PCh111 > 1.1: dup (4.0)
|   |   |   |   |   |   |   |   |   |   |   |   |   |   PCh062 > 0.56
|   |   |   |   |   |   |   |   |   |   |   |   |   |   |    liveRegisters2 <= 1.99
|   |   |   |   |   |   |   |   |   |   |   |   |   |   |   |   Ch142 <= 2.18: non (4.0/1.0)
|   |   |   |   |   |   |   |   |   |   |   |   |   |   |   |   Ch142 > 2.18: dup (87.0)
|   |   |   |   |   |   |   |   |   |   |   |   |   |   |    liveRegisters2 > 1.99
|   |   |   |   |   |   |   |   |   |   |   |   |   |   |   |   Ch181 <= 11.26
|   |   |   |   |   |   |   |   |   |   |   |   |   |   |   |   |   bmfb <= 13.78
|   |   |   |   |   |   |   |   |   |   |   |   |   |   |   |   |   |   prior <= 0.5
|   |   |   |   |   |   |   |   |   |   |   |   |   |   |   |   |   |   |    functional1 <= 4.29
|   |   |   |   |   |   |   |   |   |   |   |   |   |   |   |   |   |   |   |    hueristics1 <= 9.37
|   |   |   |   |   |   |   |   |   |   |   |   |   |   |   |   |   |   |   |   |   PCh031 <= 6.83: dup (13.0)
|   |   |   |   |   |   |   |   |   |   |   |   |   |   |   |   |   |   |   |   |   PCh031 > 6.83
|   |   |   |   |   |   |   |   |   |   |   |   |   |   |   |   |   |   |   |   |   |   PCh021 <= 6.74: non (3.0)
|   |   |   |   |   |   |   |   |   |   |   |   |   |   |   |   |   |   |   |   |   |   PCh021 > 6.74: dup (2.0)
|   |   |   |   |   |   |   |   |   |   |   |   |   |   |   |   |   |   |   |    hueristics1 > 9.37: non (8.0)
|   |   |   |   |   |   |   |   |   |   |   |   |   |   |   |   |   |   |    functional1 > 4.29: dup (29.0/1.0)
|   |   |   |   |   |   |   |   |   |   |   |   |   |   |   |   |   |   prior > 0.5
|   |   |   |   |   |   |   |   |   |   |   |   |   |   |   |   |   |   |   Ch102 <= 3.84
|   |   |   |   |   |   |   |   |   |   |   |   |   |   |   |   |   |   |   |   Ch51 <= 13.93: dup (33.0)
|   |   |   |   |   |   |   |   |   |   |   |   |   |   |   |   |   |   |   |   Ch51 > 13.93
|   |   |   |   |   |   |   |   |   |   |   |   |   |   |   |   |   |   |   |   |   Ch41 <= 12.51: non (4.0)
|   |   |   |   |   |   |   |   |   |   |   |   |   |   |   |   |   |   |   |   |   Ch41 > 12.51: dup (7.0/1.0)
|   |   |   |   |   |   |   |   |   |   |   |   |   |   |   |   |   |   |   Ch102 > 3.84
|   |   |   |   |   |   |   |   |   |   |   |   |   |   |   |   |   |   |   |   PCh092 <= 1.61
|   |   |   |   |   |   |   |   |   |   |   |   |   |   |   |   |   |   |   |   |   PCh041 <= 9.29
|   |   |   |   |   |   |   |   |   |   |   |   |   |   |   |   |   |   |   |   |   |   PCh122 <= 1.39
|   |   |   |   |   |   |   |   |   |   |   |   |   |   |   |   |   |   |   |   |   |   |   Ch122 <= 7.21: dup (15.0)
|   |   |   |   |   |   |   |   |   |   |   |   |   |   |   |   |   |   |   |   |   |   |   Ch122 > 7.21
|   |   |   |   |   |   |   |   |   |   |   |   |   |   |   |   |   |   |   |   |   |   |   |   PCh031 <= 3.9: non (2.0)
|   |   |   |   |   |   |   |   |   |   |   |   |   |   |   |   |   |   |   |   |   |   |   |   PCh031 > 3.9: dup (2.0)
|   |   |   |   |   |   |   |   |   |   |   |   |   |   |   |   |   |   |   |   |   |   PCh122 > 1.39
|   |   |   |   |   |   |   |   |   |   |   |   |   |   |   |   |   |   |   |   |   |   |   Ch91 <= 8.65
|   |   |   |   |   |   |   |   |   |   |   |   |   |   |   |   |   |   |   |   |   |   |   |   PCh112 <= 0.67: non (14.0)
|   |   |   |   |   |   |   |   |   |   |   |   |   |   |   |   |   |   |   |   |   |   |   |   PCh112 > 0.67
|   |   |   |   |   |   |   |   |   |   |   |   |   |   |   |   |   |   |   |   |   |   |   |   |   Ch112 <= 6.42: non (9.0/2.0)
|   |   |   |   |   |   |   |   |   |   |   |   |   |   |   |   |   |   |   |   |   |   |   |   |   Ch112 > 6.42: dup (6.0)
|   |   |   |   |   |   |   |   |   |   |   |   |   |   |   |   |   |   |   |   |   |   |   Ch91 > 8.65: dup (8.0/1.0)
|   |   |   |   |   |   |   |   |   |   |   |   |   |   |   |   |   |   |   |   |   PCh041 > 9.29: non (15.0)
|   |   |   |   |   |   |   |   |   |   |   |   |   |   |   |   |   |   |   |   PCh092 > 1.61: dup (371.0/124.0)
|   |   |   |   |   |   |   |   |   |   |   |   |   |   |   |   |   bmfb > 13.78
|   |   |   |   |   |   |   |   |   |   |   |   |   |   |   |   |   |   Ch72 <= 7.16
|   |   |   |   |   |   |   |   |   |   |   |   |   |   |   |   |   |   |   PCh121 <= 1.03: dup (4.0)
|   |   |   |   |   |   |   |   |   |   |   |   |   |   |   |   |   |   |   PCh121 > 1.03
|   |   |   |   |   |   |   |   |   |   |   |   |   |   |   |   |   |   |   |   Ch152 <= 1.24: dup (2.0)
|   |   |   |   |   |   |   |   |   |   |   |   |   |   |   |   |   |   |   |   Ch152 > 1.24
|   |   |   |   |   |   |   |   |   |   |   |   |   |   |   |   |   |   |   |   |    oops1 <= 7.89: non (31.0)
|   |   |   |   |   |   |   |   |   |   |   |   |   |   |   |   |   |   |   |   |    oops1 > 7.89
|   |   |   |   |   |   |   |   |   |   |   |   |   |   |   |   |   |   |   |   |   |   PCh031 <= 4.39: dup (2.0)
|   |   |   |   |   |   |   |   |   |   |   |   |   |   |   |   |   |   |   |   |   |   PCh031 > 4.39: non (2.0)
|   |   |   |   |   |   |   |   |   |   |   |   |   |   |   |   |   |   Ch72 > 7.16: dup (14.0/1.0)
|   |   |   |   |   |   |   |   |   |   |   |   |   |   |   |   Ch181 > 11.26
|   |   |   |   |   |   |   |   |   |   |   |   |   |   |   |   |   PCh091 <= 8.79
|   |   |   |   |   |   |   |   |   |   |   |   |   |   |   |   |   |    garbage1 <= 8.67
|   |   |   |   |   |   |   |   |   |   |   |   |   |   |   |   |   |   |   PCh122 <= 5.19
|   |   |   |   |   |   |   |   |   |   |   |   |   |   |   |   |   |   |   |    intermediate1 <= 6.11
|   |   |   |   |   |   |   |   |   |   |   |   |   |   |   |   |   |   |   |   |   PCh011 <= 1.66: dup (3.0)
|   |   |   |   |   |   |   |   |   |   |   |   |   |   |   |   |   |   |   |   |   PCh011 > 1.66: non (3.0)
|   |   |   |   |   |   |   |   |   |   |   |   |   |   |   |   |   |   |   |    intermediate1 > 6.11: dup (113.0/1.0)
|   |   |   |   |   |   |   |   |   |   |   |   |   |   |   |   |   |   |   PCh122 > 5.19
|   |   |   |   |   |   |   |   |   |   |   |   |   |   |   |   |   |   |   |   PCh062 <= 4.03: non (4.0)
|   |   |   |   |   |   |   |   |   |   |   |   |   |   |   |   |   |   |   |   PCh062 > 4.03
|   |   |   |   |   |   |   |   |   |   |   |   |   |   |   |   |   |   |   |   |    intermediate1 <= 13.26: dup (18.0)
|   |   |   |   |   |   |   |   |   |   |   |   |   |   |   |   |   |   |   |   |    intermediate1 > 13.26
|   |   |   |   |   |   |   |   |   |   |   |   |   |   |   |   |   |   |   |   |   |   bmfu <= 7.47: dup (2.0)
|   |   |   |   |   |   |   |   |   |   |   |   |   |   |   |   |   |   |   |   |   |   bmfu > 7.47: non (4.0)
|   |   |   |   |   |   |   |   |   |   |   |   |   |   |   |   |   |    garbage1 > 8.67
|   |   |   |   |   |   |   |   |   |   |   |   |   |   |   |   |   |   |   PCh082 <= 6.19
|   |   |   |   |   |   |   |   |   |   |   |   |   |   |   |   |   |   |   |   prior <= 0.5: dup (2.0)
|   |   |   |   |   |   |   |   |   |   |   |   |   |   |   |   |   |   |   |   prior > 0.5
|   |   |   |   |   |   |   |   |   |   |   |   |   |   |   |   |   |   |   |   |   PCh012 <= 1.19: dup (6.0)
|   |   |   |   |   |   |   |   |   |   |   |   |   |   |   |   |   |   |   |   |   PCh012 > 1.19
|   |   |   |   |   |   |   |   |   |   |   |   |   |   |   |   |   |   |   |   |   |   Ch61 <= 6.5
|   |   |   |   |   |   |   |   |   |   |   |   |   |   |   |   |   |   |   |   |   |   |   Ch41 <= 16.26
|   |   |   |   |   |   |   |   |   |   |   |   |   |   |   |   |   |   |   |   |   |   |   |   Ch171 <= 10.23: non (6.0)
|   |   |   |   |   |   |   |   |   |   |   |   |   |   |   |   |   |   |   |   |   |   |   |   Ch171 > 10.23: dup (2.0)
|   |   |   |   |   |   |   |   |   |   |   |   |   |   |   |   |   |   |   |   |   |   |   Ch41 > 16.26: dup (8.0)
|   |   |   |   |   |   |   |   |   |   |   |   |   |   |   |   |   |   |   |   |   |   Ch61 > 6.5: non (10.0)
|   |   |   |   |   |   |   |   |   |   |   |   |   |   |   |   |   |   |   PCh082 > 6.19: dup (18.0)
|   |   |   |   |   |   |   |   |   |   |   |   |   |   |   |   |   PCh091 > 8.79
|   |   |   |   |   |   |   |   |   |   |   |   |   |   |   |   |   |    functional1 <= 8.87: non (9.0)
|   |   |   |   |   |   |   |   |   |   |   |   |   |   |   |   |   |    functional1 > 8.87: dup (4.0)
|   |   |   |   |   |   |   |   |   |   Ch172 > 9
|   |   |   |   |   |   |   |   |   |   |   prior <= 0.5
|   |   |   |   |   |   |   |   |   |   |   |   prior <= 0.33: dup (11.0)
|   |   |   |   |   |   |   |   |   |   |   |   prior > 0.33
|   |   |   |   |   |   |   |   |   |   |   |   |   Ch72 <= 8.84: non (6.0)
|   |   |   |   |   |   |   |   |   |   |   |   |   Ch72 > 8.84
|   |   |   |   |   |   |   |   |   |   |   |   |   |   PCh012 <= 4.36: dup (7.0)
|   |   |   |   |   |   |   |   |   |   |   |   |   |   PCh012 > 4.36: non (2.0)
|   |   |   |   |   |   |   |   |   |   |   prior > 0.5
|   |   |   |   |   |   |   |   |   |   |   |    parsing2 <= 3.63: dup (43.0)
|   |   |   |   |   |   |   |   |   |   |   |    parsing2 > 3.63
|   |   |   |   |   |   |   |   |   |   |   |   |   PCh021 <= 3.98: dup (33.0)
|   |   |   |   |   |   |   |   |   |   |   |   |   PCh021 > 3.98
|   |   |   |   |   |   |   |   |   |   |   |   |   |   Ch191 <= 8.2
|   |   |   |   |   |   |   |   |   |   |   |   |   |   |   Ch52 <= 24.42
|   |   |   |   |   |   |   |   |   |   |   |   |   |   |   |   Ch172 <= 9.37: dup (13.0)
|   |   |   |   |   |   |   |   |   |   |   |   |   |   |   |   Ch172 > 9.37
|   |   |   |   |   |   |   |   |   |   |   |   |   |   |   |   |    polymorhic2 <= 4.57: non (7.0/1.0)
|   |   |   |   |   |   |   |   |   |   |   |   |   |   |   |   |    polymorhic2 > 4.57
|   |   |   |   |   |   |   |   |   |   |   |   |   |   |   |   |   |    oops2 <= 7.3: dup (16.0)
|   |   |   |   |   |   |   |   |   |   |   |   |   |   |   |   |   |    oops2 > 7.3
|   |   |   |   |   |   |   |   |   |   |   |   |   |   |   |   |   |   |   PCh111 <= 0.5: dup (18.0/1.0)
|   |   |   |   |   |   |   |   |   |   |   |   |   |   |   |   |   |   |   PCh111 > 0.5
|   |   |   |   |   |   |   |   |   |   |   |   |   |   |   |   |   |   |   |   PCh081 <= 8.58
|   |   |   |   |   |   |   |   |   |   |   |   |   |   |   |   |   |   |   |   |   Ch191 <= 7.52
|   |   |   |   |   |   |   |   |   |   |   |   |   |   |   |   |   |   |   |   |   |   Ch101 <= 8.1
|   |   |   |   |   |   |   |   |   |   |   |   |   |   |   |   |   |   |   |   |   |   |   Ch61 <= 3.19: dup (6.0/1.0)
|   |   |   |   |   |   |   |   |   |   |   |   |   |   |   |   |   |   |   |   |   |   |   Ch61 > 3.19: non (11.0)
|   |   |   |   |   |   |   |   |   |   |   |   |   |   |   |   |   |   |   |   |   |   Ch101 > 8.1
|   |   |   |   |   |   |   |   |   |   |   |   |   |   |   |   |   |   |   |   |   |   |   PCh021 <= 9.86: dup (21.0/1.0)
|   |   |   |   |   |   |   |   |   |   |   |   |   |   |   |   |   |   |   |   |   |   |   PCh021 > 9.86: non (4.0)
|   |   |   |   |   |   |   |   |   |   |   |   |   |   |   |   |   |   |   |   |   Ch191 > 7.52: non (7.0)
|   |   |   |   |   |   |   |   |   |   |   |   |   |   |   |   |   |   |   |   PCh081 > 8.58: dup (9.0)
|   |   |   |   |   |   |   |   |   |   |   |   |   |   |   Ch52 > 24.42: dup (18.0)
|   |   |   |   |   |   |   |   |   |   |   |   |   |   Ch191 > 8.2
|   |   |   |   |   |   |   |   |   |   |   |   |   |   |   PCh092 <= 7.38: dup (67.0)
|   |   |   |   |   |   |   |   |   |   |   |   |   |   |   PCh092 > 7.38
|   |   |   |   |   |   |   |   |   |   |   |   |   |   |   |   PCh102 <= 5.21
|   |   |   |   |   |   |   |   |   |   |   |   |   |   |   |   |   PCh081 <= 6.51: dup (2.0)
|   |   |   |   |   |   |   |   |   |   |   |   |   |   |   |   |   PCh081 > 6.51: non (4.0)
|   |   |   |   |   |   |   |   |   |   |   |   |   |   |   |   PCh102 > 5.21: dup (6.0)
|   |   |   |   |   |   |   |   |   cosine_similarity > 0.992: dup (59.0)
|   |   |   |   |   bmfu > 15.21
|   |   |   |   |   |    hueristics1 <= 1.98
|   |   |   |   |   |   |   PCh041 <= 4.49: dup (11.0)
|   |   |   |   |   |   |   PCh041 > 4.49: non (17.0/1.0)
|   |   |   |   |   |    hueristics1 > 1.98
|   |   |   |   |   |   |    intermediate1 <= 13.39
|   |   |   |   |   |   |   |   Ch192 <= 1.71
|   |   |   |   |   |   |   |   |   PCh102 <= 1: non (9.0)
|   |   |   |   |   |   |   |   |   PCh102 > 1
|   |   |   |   |   |   |   |   |   |   comp <= 0
|   |   |   |   |   |   |   |   |   |   |   cosine_similarity <= 0.975: dup (2.0)
|   |   |   |   |   |   |   |   |   |   |   cosine_similarity > 0.975: non (6.0/1.0)
|   |   |   |   |   |   |   |   |   |   comp > 0: dup (13.0/1.0)
|   |   |   |   |   |   |   |   Ch192 > 1.71
|   |   |   |   |   |   |   |   |   Ch62 <= 7.07
|   |   |   |   |   |   |   |   |   |    garbage1 <= 7.93
|   |   |   |   |   |   |   |   |   |   |   Ch161 <= 11.28
|   |   |   |   |   |   |   |   |   |   |   |   Ch191 <= 2.51
|   |   |   |   |   |   |   |   |   |   |   |   |    ssa1 <= 9.14
|   |   |   |   |   |   |   |   |   |   |   |   |   |   Ch122 <= 3.37
|   |   |   |   |   |   |   |   |   |   |   |   |   |   |   type <= 0: dup (2.0)
|   |   |   |   |   |   |   |   |   |   |   |   |   |   |   type > 0: non (4.0)
|   |   |   |   |   |   |   |   |   |   |   |   |   |   Ch122 > 3.37
|   |   |   |   |   |   |   |   |   |   |   |   |   |   |   Ch191 <= 2.38: dup (34.0)
|   |   |   |   |   |   |   |   |   |   |   |   |   |   |   Ch191 > 2.38
|   |   |   |   |   |   |   |   |   |   |   |   |   |   |   |   bmfu <= 19.77: non (2.0)
|   |   |   |   |   |   |   |   |   |   |   |   |   |   |   |   bmfu > 19.77: dup (3.0)
|   |   |   |   |   |   |   |   |   |   |   |   |    ssa1 > 9.14: non (4.0)
|   |   |   |   |   |   |   |   |   |   |   |   Ch191 > 2.51
|   |   |   |   |   |   |   |   |   |   |   |   |   Ch161 <= 3.33: dup (315.0/1.0)
|   |   |   |   |   |   |   |   |   |   |   |   |   Ch161 > 3.33
|   |   |   |   |   |   |   |   |   |   |   |   |   |   Ch151 <= 3.09
|   |   |   |   |   |   |   |   |   |   |   |   |   |   |   comp <= 0
|   |   |   |   |   |   |   |   |   |   |   |   |   |   |   |    semantics1 <= 5.63: non (10.0/1.0)
|   |   |   |   |   |   |   |   |   |   |   |   |   |   |   |    semantics1 > 5.63: dup (9.0)
|   |   |   |   |   |   |   |   |   |   |   |   |   |   |   comp > 0
|   |   |   |   |   |   |   |   |   |   |   |   |   |   |   |   Ch21 <= 3.53
|   |   |   |   |   |   |   |   |   |   |   |   |   |   |   |   |   Ch131 <= 1.38
|   |   |   |   |   |   |   |   |   |   |   |   |   |   |   |   |   |   Ch82 <= 3.34: non (5.0)
|   |   |   |   |   |   |   |   |   |   |   |   |   |   |   |   |   |   Ch82 > 3.34: dup (6.0)
|   |   |   |   |   |   |   |   |   |   |   |   |   |   |   |   |   Ch131 > 1.38
|   |   |   |   |   |   |   |   |   |   |   |   |   |   |   |   |   |   Ch31 <= 7.81: dup (128.0)
|   |   |   |   |   |   |   |   |   |   |   |   |   |   |   |   |   |   Ch31 > 7.81
|   |   |   |   |   |   |   |   |   |   |   |   |   |   |   |   |   |   |   PCh021 <= 4.09: non (2.0)
|   |   |   |   |   |   |   |   |   |   |   |   |   |   |   |   |   |   |   PCh021 > 4.09: dup (8.0)
|   |   |   |   |   |   |   |   |   |   |   |   |   |   |   |   Ch21 > 3.53
|   |   |   |   |   |   |   |   |   |   |   |   |   |   |   |   |   PCh061 <= 3.25: non (7.0)
|   |   |   |   |   |   |   |   |   |   |   |   |   |   |   |   |   PCh061 > 3.25: dup (9.0/1.0)
|   |   |   |   |   |   |   |   |   |   |   |   |   |   Ch151 > 3.09: dup (824.0/17.0)
|   |   |   |   |   |   |   |   |   |   |   Ch161 > 11.28
|   |   |   |   |   |   |   |   |   |   |   |   Ch52 <= 12.63: non (8.0/1.0)
|   |   |   |   |   |   |   |   |   |   |   |   Ch52 > 12.63
|   |   |   |   |   |   |   |   |   |   |   |   |   PCh031 <= 4.49
|   |   |   |   |   |   |   |   |   |   |   |   |   |   bmfu <= 25.73: dup (2.0)
|   |   |   |   |   |   |   |   |   |   |   |   |   |   bmfu > 25.73: non (2.0)
|   |   |   |   |   |   |   |   |   |   |   |   |   PCh031 > 4.49: dup (25.0)
|   |   |   |   |   |   |   |   |   |    garbage1 > 7.93
|   |   |   |   |   |   |   |   |   |   |   Ch51 <= 9.33: non (6.0)
|   |   |   |   |   |   |   |   |   |   |   Ch51 > 9.33
|   |   |   |   |   |   |   |   |   |   |   |   cosine_similarity <= 0.998
|   |   |   |   |   |   |   |   |   |   |   |   |   Ch12 <= 7.59
|   |   |   |   |   |   |   |   |   |   |   |   |   |   PCh041 <= 5.16: non (3.0)
|   |   |   |   |   |   |   |   |   |   |   |   |   |   PCh041 > 5.16: dup (31.0)
|   |   |   |   |   |   |   |   |   |   |   |   |   Ch12 > 7.59
|   |   |   |   |   |   |   |   |   |   |   |   |   |    liveRegisters1 <= 11.03
|   |   |   |   |   |   |   |   |   |   |   |   |   |   |   PCh061 <= 5.13: dup (2.0)
|   |   |   |   |   |   |   |   |   |   |   |   |   |   |   PCh061 > 5.13: non (11.0)
|   |   |   |   |   |   |   |   |   |   |   |   |   |    liveRegisters1 > 11.03: dup (6.0)
|   |   |   |   |   |   |   |   |   |   |   |   cosine_similarity > 0.998: dup (48.0)
|   |   |   |   |   |   |   |   |   Ch62 > 7.07
|   |   |   |   |   |   |   |   |   |    intstructions1 <= 4.52
|   |   |   |   |   |   |   |   |   |   |   Ch151 <= 6.57: non (11.0)
|   |   |   |   |   |   |   |   |   |   |   Ch151 > 6.57: dup (3.0)
|   |   |   |   |   |   |   |   |   |    intstructions1 > 4.52
|   |   |   |   |   |   |   |   |   |   |   Ch112 <= 16.2
|   |   |   |   |   |   |   |   |   |   |   |   Ch62 <= 9.65
|   |   |   |   |   |   |   |   |   |   |   |   |    hueristics2 <= 7.67: dup (20.0)
|   |   |   |   |   |   |   |   |   |   |   |   |    hueristics2 > 7.67
|   |   |   |   |   |   |   |   |   |   |   |   |   |   Ch32 <= 13.79
|   |   |   |   |   |   |   |   |   |   |   |   |   |   |    hueristics2 <= 14.89
|   |   |   |   |   |   |   |   |   |   |   |   |   |   |   |   Ch92 <= 12.98
|   |   |   |   |   |   |   |   |   |   |   |   |   |   |   |   |    hueristics2 <= 9.34: non (4.0)
|   |   |   |   |   |   |   |   |   |   |   |   |   |   |   |   |    hueristics2 > 9.34: dup (6.0)
|   |   |   |   |   |   |   |   |   |   |   |   |   |   |   |   Ch92 > 12.98: non (10.0)
|   |   |   |   |   |   |   |   |   |   |   |   |   |   |    hueristics2 > 14.89: dup (6.0)
|   |   |   |   |   |   |   |   |   |   |   |   |   |   Ch32 > 13.79: dup (12.0)
|   |   |   |   |   |   |   |   |   |   |   |   Ch62 > 9.65: non (5.0)
|   |   |   |   |   |   |   |   |   |   |   Ch112 > 16.2: dup (36.0)
|   |   |   |   |   |   |    intermediate1 > 13.39
|   |   |   |   |   |   |   |   cosine_similarity <= 0.991
|   |   |   |   |   |   |   |   |   Ch171 <= 8.85
|   |   |   |   |   |   |   |   |   |    intermediate2 <= 9.74: dup (2.0)
|   |   |   |   |   |   |   |   |   |    intermediate2 > 9.74
|   |   |   |   |   |   |   |   |   |   |   PCh071 <= 12.01: non (18.0/1.0)
|   |   |   |   |   |   |   |   |   |   |   PCh071 > 12.01: dup (2.0)
|   |   |   |   |   |   |   |   |   Ch171 > 8.85
|   |   |   |   |   |   |   |   |   |   Ch122 <= 14.92
|   |   |   |   |   |   |   |   |   |   |   Ch41 <= 23.37: dup (19.0)
|   |   |   |   |   |   |   |   |   |   |   Ch41 > 23.37: non (3.0)
|   |   |   |   |   |   |   |   |   |   Ch122 > 14.92: non (6.0)
|   |   |   |   |   |   |   |   cosine_similarity > 0.991
|   |   |   |   |   |   |   |   |   PCh071 <= 13.06: dup (22.0)
|   |   |   |   |   |   |   |   |   PCh071 > 13.06: non (2.0)

Number of Leaves  : 	574

Size of the tree : 	1147


Time taken to build model: 13.21 seconds
Time taken to test model on training data: 0.66 seconds

=== Error on training data ===

Correctly Classified Instances       27354               98.8223 %
Incorrectly Classified Instances       326                1.1777 %
Kappa statistic                          0.9634
Mean absolute error                      0.0194
Root mean squared error                  0.0985
Relative absolute error                  6.0618 %
Root relative squared error             24.6212 %
Total Number of Instances            27680     


=== Confusion Matrix ===

     a     b   <-- classified as
  5412   124 |     a = dup
   202 21942 |     b = non



=== Stratified cross-validation ===

Correctly Classified Instances       25681               92.7782 %
Incorrectly Classified Instances      1999                7.2218 %
Kappa statistic                          0.7713
Mean absolute error                      0.0766
Root mean squared error                  0.2625
Relative absolute error                 23.925  %
Root relative squared error             65.6215 %
Total Number of Instances            27680     


=== Confusion Matrix ===

     a     b   <-- classified as
  4438  1098 |     a = dup
   901 21243 |     b = non

