
J48 pruned tree
------------------

bmfu <= 3.36
|   comp <= 0
|   |   prod <= 0
|   |   |   bmfu <= 1.33: non (14253.0/31.0)
|   |   |   bmfu > 1.33
|   |   |   |    polymorhic1 <= 0.78
|   |   |   |   |   Ch11 <= 0.7: dup (6.0)
|   |   |   |   |   Ch11 > 0.7
|   |   |   |   |   |    introLexical1 <= 0.9
|   |   |   |   |   |   |    ssa1 <= 0.64: non (5.0)
|   |   |   |   |   |   |    ssa1 > 0.64: dup (3.0)
|   |   |   |   |   |    introLexical1 > 0.9: non (20.0)
|   |   |   |    polymorhic1 > 0.78
|   |   |   |   |    garbage2 <= 0.51
|   |   |   |   |   |    garbage2 <= 0.44
|   |   |   |   |   |   |    polymorhic2 <= 0: dup (3.0)
|   |   |   |   |   |   |    polymorhic2 > 0: non (30.0/1.0)
|   |   |   |   |   |    garbage2 > 0.44: dup (3.0)
|   |   |   |   |    garbage2 > 0.51
|   |   |   |   |   |   Ch92 <= 19.08
|   |   |   |   |   |   |   Ch61 <= 6.9
|   |   |   |   |   |   |   |   Ch61 <= 6.82
|   |   |   |   |   |   |   |   |    introLexical2 <= 10.12
|   |   |   |   |   |   |   |   |   |    intstructions2 <= 13.23
|   |   |   |   |   |   |   |   |   |   |    polymorhic2 <= 10.7
|   |   |   |   |   |   |   |   |   |   |   |   Ch52 <= 10.2
|   |   |   |   |   |   |   |   |   |   |   |   |   Ch52 <= 10
|   |   |   |   |   |   |   |   |   |   |   |   |   |   Ch121 <= 4.67
|   |   |   |   |   |   |   |   |   |   |   |   |   |   |   Ch11 <= 4.53: non (84.0)
|   |   |   |   |   |   |   |   |   |   |   |   |   |   |   Ch11 > 4.53
|   |   |   |   |   |   |   |   |   |   |   |   |   |   |   |   Ch121 <= 4.59
|   |   |   |   |   |   |   |   |   |   |   |   |   |   |   |   |   Ch132 <= 2.17
|   |   |   |   |   |   |   |   |   |   |   |   |   |   |   |   |   |    hueristics2 <= 4.49: non (11.0)
|   |   |   |   |   |   |   |   |   |   |   |   |   |   |   |   |   |    hueristics2 > 4.49: dup (7.0/1.0)
|   |   |   |   |   |   |   |   |   |   |   |   |   |   |   |   |   Ch132 > 2.17: non (33.0)
|   |   |   |   |   |   |   |   |   |   |   |   |   |   |   |   Ch121 > 4.59: dup (3.0)
|   |   |   |   |   |   |   |   |   |   |   |   |   |   Ch121 > 4.67: non (379.0/2.0)
|   |   |   |   |   |   |   |   |   |   |   |   |   Ch52 > 10
|   |   |   |   |   |   |   |   |   |   |   |   |   |    hueristics2 <= 8.74: non (29.0/1.0)
|   |   |   |   |   |   |   |   |   |   |   |   |   |    hueristics2 > 8.74: dup (7.0)
|   |   |   |   |   |   |   |   |   |   |   |   Ch52 > 10.2: non (1335.0/14.0)
|   |   |   |   |   |   |   |   |   |   |    polymorhic2 > 10.7
|   |   |   |   |   |   |   |   |   |   |   |    hueristics2 <= 8.04: dup (10.0)
|   |   |   |   |   |   |   |   |   |   |   |    hueristics2 > 8.04
|   |   |   |   |   |   |   |   |   |   |   |   |   Ch52 <= 10.85: dup (4.0/1.0)
|   |   |   |   |   |   |   |   |   |   |   |   |   Ch52 > 10.85: non (83.0/2.0)
|   |   |   |   |   |   |   |   |   |    intstructions2 > 13.23
|   |   |   |   |   |   |   |   |   |   |    intstructions2 <= 13.62: dup (9.0/1.0)
|   |   |   |   |   |   |   |   |   |   |    intstructions2 > 13.62: non (26.0/1.0)
|   |   |   |   |   |   |   |   |    introLexical2 > 10.12: non (868.0/7.0)
|   |   |   |   |   |   |   |   Ch61 > 6.82
|   |   |   |   |   |   |   |   |    oops1 <= 7.75: dup (20.0/3.0)
|   |   |   |   |   |   |   |   |    oops1 > 7.75: non (16.0)
|   |   |   |   |   |   |   Ch61 > 6.9: non (548.0/5.0)
|   |   |   |   |   |   Ch92 > 19.08
|   |   |   |   |   |   |   Ch92 <= 19.1: dup (14.0)
|   |   |   |   |   |   |   Ch92 > 19.1: non (129.0)
|   |   prod > 0
|   |   |    semantics2 <= 1.11
|   |   |   |    liveRegisters2 <= 0.93: non (14.0)
|   |   |   |    liveRegisters2 > 0.93
|   |   |   |   |   Ch22 <= 1.58
|   |   |   |   |   |    oops2 <= 3.14: dup (19.0)
|   |   |   |   |   |    oops2 > 3.14: non (2.0)
|   |   |   |   |   Ch22 > 1.58: non (3.0)
|   |   |    semantics2 > 1.11
|   |   |   |   bmfu <= 1.25
|   |   |   |   |   bmfb <= 0.03
|   |   |   |   |   |    functional2 <= 3.04
|   |   |   |   |   |   |   cosine_similarity <= 0.948: non (187.0/12.0)
|   |   |   |   |   |   |   cosine_similarity > 0.948
|   |   |   |   |   |   |   |   bmfu <= 0.4: non (5.0)
|   |   |   |   |   |   |   |   bmfu > 0.4
|   |   |   |   |   |   |   |   |   cosine_similarity <= 0.962: dup (6.0)
|   |   |   |   |   |   |   |   |   cosine_similarity > 0.962: non (2.0)
|   |   |   |   |   |    functional2 > 3.04: non (370.0/3.0)
|   |   |   |   |   bmfb > 0.03
|   |   |   |   |   |   Ch12 <= 3.79: dup (2.0)
|   |   |   |   |   |   Ch12 > 3.79: non (23.0/1.0)
|   |   |   |   bmfu > 1.25
|   |   |   |   |    intermediate2 <= 12.06
|   |   |   |   |   |   bmfu <= 2.45
|   |   |   |   |   |   |    memory1 <= 4.97
|   |   |   |   |   |   |   |    ssa2 <= 2.91: non (14.0)
|   |   |   |   |   |   |   |    ssa2 > 2.91
|   |   |   |   |   |   |   |   |   Ch122 <= 7.65
|   |   |   |   |   |   |   |   |   |   cosine_similarity <= 0.91
|   |   |   |   |   |   |   |   |   |   |   Ch151 <= 3.44
|   |   |   |   |   |   |   |   |   |   |   |   prior <= 0.5: dup (3.0)
|   |   |   |   |   |   |   |   |   |   |   |   prior > 0.5
|   |   |   |   |   |   |   |   |   |   |   |   |   Ch72 <= 4.88: non (10.0/1.0)
|   |   |   |   |   |   |   |   |   |   |   |   |   Ch72 > 4.88: dup (8.0/1.0)
|   |   |   |   |   |   |   |   |   |   |   Ch151 > 3.44: non (17.0)
|   |   |   |   |   |   |   |   |   |   cosine_similarity > 0.91
|   |   |   |   |   |   |   |   |   |   |    intermediate2 <= 9.5
|   |   |   |   |   |   |   |   |   |   |   |   Ch112 <= 5.96
|   |   |   |   |   |   |   |   |   |   |   |   |    introLexical1 <= 5.43: non (3.0)
|   |   |   |   |   |   |   |   |   |   |   |   |    introLexical1 > 5.43: dup (2.0)
|   |   |   |   |   |   |   |   |   |   |   |   Ch112 > 5.96: dup (18.0)
|   |   |   |   |   |   |   |   |   |   |    intermediate2 > 9.5: non (5.0/1.0)
|   |   |   |   |   |   |   |   |   Ch122 > 7.65
|   |   |   |   |   |   |   |   |   |   Ch151 <= 7.33: non (38.0/2.0)
|   |   |   |   |   |   |   |   |   |   Ch151 > 7.33
|   |   |   |   |   |   |   |   |   |   |   Ch141 <= 5.46: dup (4.0)
|   |   |   |   |   |   |   |   |   |   |   Ch141 > 5.46: non (6.0/1.0)
|   |   |   |   |   |   |    memory1 > 4.97
|   |   |   |   |   |   |   |   Ch31 <= 4.84
|   |   |   |   |   |   |   |   |    garbage1 <= 5.17: non (8.0/1.0)
|   |   |   |   |   |   |   |   |    garbage1 > 5.17: dup (4.0)
|   |   |   |   |   |   |   |   Ch31 > 4.84
|   |   |   |   |   |   |   |   |   Ch51 <= 14.31: non (46.0)
|   |   |   |   |   |   |   |   |   Ch51 > 14.31
|   |   |   |   |   |   |   |   |   |   Ch91 <= 8.53: dup (3.0)
|   |   |   |   |   |   |   |   |   |   Ch91 > 8.53: non (54.0/4.0)
|   |   |   |   |   |   bmfu > 2.45
|   |   |   |   |   |   |   Ch72 <= 13.99
|   |   |   |   |   |   |   |   Ch141 <= 5.47
|   |   |   |   |   |   |   |   |   Ch31 <= 10.09
|   |   |   |   |   |   |   |   |   |    memory1 <= 1.33: dup (5.0)
|   |   |   |   |   |   |   |   |   |    memory1 > 1.33
|   |   |   |   |   |   |   |   |   |   |   Ch101 <= 6
|   |   |   |   |   |   |   |   |   |   |   |    parsing1 <= 7.62
|   |   |   |   |   |   |   |   |   |   |   |   |   Ch182 <= 12.93: non (30.0)
|   |   |   |   |   |   |   |   |   |   |   |   |   Ch182 > 12.93: dup (2.0)
|   |   |   |   |   |   |   |   |   |   |   |    parsing1 > 7.62: dup (2.0)
|   |   |   |   |   |   |   |   |   |   |   Ch101 > 6
|   |   |   |   |   |   |   |   |   |   |   |   Ch22 <= 3.14: dup (12.0)
|   |   |   |   |   |   |   |   |   |   |   |   Ch22 > 3.14
|   |   |   |   |   |   |   |   |   |   |   |   |    functional1 <= 3.04: dup (7.0/1.0)
|   |   |   |   |   |   |   |   |   |   |   |   |    functional1 > 3.04: non (11.0/1.0)
|   |   |   |   |   |   |   |   |   Ch31 > 10.09: dup (13.0)
|   |   |   |   |   |   |   |   Ch141 > 5.47
|   |   |   |   |   |   |   |   |   Ch152 <= 4.46
|   |   |   |   |   |   |   |   |   |   Ch62 <= 3.96
|   |   |   |   |   |   |   |   |   |   |   Ch21 <= 7.93: non (21.0/1.0)
|   |   |   |   |   |   |   |   |   |   |   Ch21 > 7.93: dup (2.0)
|   |   |   |   |   |   |   |   |   |   Ch62 > 3.96: dup (4.0)
|   |   |   |   |   |   |   |   |   Ch152 > 4.46: non (21.0)
|   |   |   |   |   |   |   Ch72 > 13.99: dup (9.0)
|   |   |   |   |    intermediate2 > 12.06: non (69.0/1.0)
|   comp > 0
|   |   prod <= 0
|   |   |   bmfu <= 2.09: non (244.0/1.0)
|   |   |   bmfu > 2.09
|   |   |   |    oops1 <= 5.87
|   |   |   |   |   Ch52 <= 19.92: dup (7.0)
|   |   |   |   |   Ch52 > 19.92: non (3.0)
|   |   |   |    oops1 > 5.87: non (28.0/1.0)
|   |   prod > 0
|   |   |   bmfu <= 0.91
|   |   |   |   Ch121 <= 9.59
|   |   |   |   |   cosine_similarity <= 0.763: non (32.0)
|   |   |   |   |   cosine_similarity > 0.763
|   |   |   |   |   |   Ch12 <= 1.76
|   |   |   |   |   |   |   Ch181 <= 5.02: non (6.0)
|   |   |   |   |   |   |   Ch181 > 5.02
|   |   |   |   |   |   |   |    pipeline2 <= 1.39: non (2.0)
|   |   |   |   |   |   |   |    pipeline2 > 1.39: dup (12.0)
|   |   |   |   |   |   Ch12 > 1.76
|   |   |   |   |   |   |   Ch62 <= 0.97: non (34.0)
|   |   |   |   |   |   |   Ch62 > 0.97
|   |   |   |   |   |   |   |   prior <= 0.33
|   |   |   |   |   |   |   |   |    intstructions2 <= 5.11: non (6.0)
|   |   |   |   |   |   |   |   |    intstructions2 > 5.11: dup (5.0)
|   |   |   |   |   |   |   |   prior > 0.33
|   |   |   |   |   |   |   |   |   prior <= 0.5: non (14.0/1.0)
|   |   |   |   |   |   |   |   |   prior > 0.5
|   |   |   |   |   |   |   |   |   |   Ch141 <= 4.42
|   |   |   |   |   |   |   |   |   |   |    liveRegisters2 <= 4.68
|   |   |   |   |   |   |   |   |   |   |   |    introLexical1 <= 7.74
|   |   |   |   |   |   |   |   |   |   |   |   |   Ch22 <= 1.18: dup (5.0)
|   |   |   |   |   |   |   |   |   |   |   |   |   Ch22 > 1.18
|   |   |   |   |   |   |   |   |   |   |   |   |   |   Ch171 <= 6.18
|   |   |   |   |   |   |   |   |   |   |   |   |   |   |   Ch111 <= 1.52: dup (2.0)
|   |   |   |   |   |   |   |   |   |   |   |   |   |   |   Ch111 > 1.52: non (24.0/1.0)
|   |   |   |   |   |   |   |   |   |   |   |   |   |   Ch171 > 6.18: dup (6.0/1.0)
|   |   |   |   |   |   |   |   |   |   |   |    introLexical1 > 7.74: dup (9.0)
|   |   |   |   |   |   |   |   |   |   |    liveRegisters2 > 4.68
|   |   |   |   |   |   |   |   |   |   |   |   Ch142 <= 2.71: non (24.0)
|   |   |   |   |   |   |   |   |   |   |   |   Ch142 > 2.71
|   |   |   |   |   |   |   |   |   |   |   |   |    functional2 <= 9.85
|   |   |   |   |   |   |   |   |   |   |   |   |   |    parsing2 <= 2.73
|   |   |   |   |   |   |   |   |   |   |   |   |   |   |    introLexical1 <= 5.72: non (5.0/1.0)
|   |   |   |   |   |   |   |   |   |   |   |   |   |   |    introLexical1 > 5.72: dup (5.0)
|   |   |   |   |   |   |   |   |   |   |   |   |   |    parsing2 > 2.73
|   |   |   |   |   |   |   |   |   |   |   |   |   |   |    functional1 <= 7.26
|   |   |   |   |   |   |   |   |   |   |   |   |   |   |   |   Ch101 <= 4.41
|   |   |   |   |   |   |   |   |   |   |   |   |   |   |   |   |   Ch141 <= 2.62: non (17.0/1.0)
|   |   |   |   |   |   |   |   |   |   |   |   |   |   |   |   |   Ch141 > 2.62: dup (3.0)
|   |   |   |   |   |   |   |   |   |   |   |   |   |   |   |   Ch101 > 4.41: non (30.0)
|   |   |   |   |   |   |   |   |   |   |   |   |   |   |    functional1 > 7.26: dup (3.0)
|   |   |   |   |   |   |   |   |   |   |   |   |    functional2 > 9.85: dup (4.0)
|   |   |   |   |   |   |   |   |   |   Ch141 > 4.42
|   |   |   |   |   |   |   |   |   |   |    functional2 <= 8.78: non (51.0/1.0)
|   |   |   |   |   |   |   |   |   |   |    functional2 > 8.78: dup (3.0/1.0)
|   |   |   |   Ch121 > 9.59: non (38.0)
|   |   |   bmfu > 0.91
|   |   |   |   Ch91 <= 15.75
|   |   |   |   |   type <= 0
|   |   |   |   |   |   Ch132 <= 7.81
|   |   |   |   |   |   |   Ch11 <= 2.04: dup (24.0)
|   |   |   |   |   |   |   Ch11 > 2.04
|   |   |   |   |   |   |   |    introLexical2 <= 12.69
|   |   |   |   |   |   |   |   |   Ch32 <= 10
|   |   |   |   |   |   |   |   |   |   Ch81 <= 10.13
|   |   |   |   |   |   |   |   |   |   |    ssa1 <= 11.77
|   |   |   |   |   |   |   |   |   |   |   |    intermediate2 <= 8.95
|   |   |   |   |   |   |   |   |   |   |   |   |    garbage2 <= 7.04
|   |   |   |   |   |   |   |   |   |   |   |   |   |   prior <= 0.5
|   |   |   |   |   |   |   |   |   |   |   |   |   |   |    parsing1 <= 2.45: dup (2.0)
|   |   |   |   |   |   |   |   |   |   |   |   |   |   |    parsing1 > 2.45: non (5.0)
|   |   |   |   |   |   |   |   |   |   |   |   |   |   prior > 0.5
|   |   |   |   |   |   |   |   |   |   |   |   |   |   |    oops1 <= 1.92: non (7.0)
|   |   |   |   |   |   |   |   |   |   |   |   |   |   |    oops1 > 1.92
|   |   |   |   |   |   |   |   |   |   |   |   |   |   |   |    garbage2 <= 6.42
|   |   |   |   |   |   |   |   |   |   |   |   |   |   |   |   |   Ch122 <= 5.89
|   |   |   |   |   |   |   |   |   |   |   |   |   |   |   |   |   |    intermediate2 <= 7.59
|   |   |   |   |   |   |   |   |   |   |   |   |   |   |   |   |   |   |   Ch22 <= 2.29
|   |   |   |   |   |   |   |   |   |   |   |   |   |   |   |   |   |   |   |    parsing2 <= 1.09: dup (9.0)
|   |   |   |   |   |   |   |   |   |   |   |   |   |   |   |   |   |   |   |    parsing2 > 1.09
|   |   |   |   |   |   |   |   |   |   |   |   |   |   |   |   |   |   |   |   |   Ch41 <= 6.39: dup (5.0)
|   |   |   |   |   |   |   |   |   |   |   |   |   |   |   |   |   |   |   |   |   Ch41 > 6.39
|   |   |   |   |   |   |   |   |   |   |   |   |   |   |   |   |   |   |   |   |   |   Ch71 <= 8.62: non (12.0)
|   |   |   |   |   |   |   |   |   |   |   |   |   |   |   |   |   |   |   |   |   |   Ch71 > 8.62: dup (2.0)
|   |   |   |   |   |   |   |   |   |   |   |   |   |   |   |   |   |   |   Ch22 > 2.29: dup (34.0/1.0)
|   |   |   |   |   |   |   |   |   |   |   |   |   |   |   |   |   |    intermediate2 > 7.59: non (4.0)
|   |   |   |   |   |   |   |   |   |   |   |   |   |   |   |   |   Ch122 > 5.89
|   |   |   |   |   |   |   |   |   |   |   |   |   |   |   |   |   |   Ch132 <= 4.51: non (16.0/1.0)
|   |   |   |   |   |   |   |   |   |   |   |   |   |   |   |   |   |   Ch132 > 4.51
|   |   |   |   |   |   |   |   |   |   |   |   |   |   |   |   |   |   |    polymorhic2 <= 3.72: non (3.0)
|   |   |   |   |   |   |   |   |   |   |   |   |   |   |   |   |   |   |    polymorhic2 > 3.72: dup (12.0/1.0)
|   |   |   |   |   |   |   |   |   |   |   |   |   |   |   |    garbage2 > 6.42: non (6.0)
|   |   |   |   |   |   |   |   |   |   |   |   |    garbage2 > 7.04: dup (10.0)
|   |   |   |   |   |   |   |   |   |   |   |    intermediate2 > 8.95
|   |   |   |   |   |   |   |   |   |   |   |   |    pipeline1 <= 12.32: dup (20.0)
|   |   |   |   |   |   |   |   |   |   |   |   |    pipeline1 > 12.32: non (2.0)
|   |   |   |   |   |   |   |   |   |   |    ssa1 > 11.77: dup (15.0)
|   |   |   |   |   |   |   |   |   |   Ch81 > 10.13
|   |   |   |   |   |   |   |   |   |   |   Ch162 <= 2.9: dup (3.0)
|   |   |   |   |   |   |   |   |   |   |   Ch162 > 2.9: non (12.0)
|   |   |   |   |   |   |   |   |   Ch32 > 10: dup (21.0)
|   |   |   |   |   |   |   |    introLexical2 > 12.69
|   |   |   |   |   |   |   |   |    intstructions1 <= 3.73: dup (2.0)
|   |   |   |   |   |   |   |   |    intstructions1 > 3.73: non (10.0)
|   |   |   |   |   |   Ch132 > 7.81
|   |   |   |   |   |   |   prior <= 0.5: non (2.0)
|   |   |   |   |   |   |   prior > 0.5
|   |   |   |   |   |   |   |    liveRegisters2 <= 12.86
|   |   |   |   |   |   |   |   |    polymorhic2 <= 7.49: non (13.0/1.0)
|   |   |   |   |   |   |   |   |    polymorhic2 > 7.49
|   |   |   |   |   |   |   |   |   |   Ch181 <= 10.29: dup (8.0)
|   |   |   |   |   |   |   |   |   |   Ch181 > 10.29: non (5.0/1.0)
|   |   |   |   |   |   |   |    liveRegisters2 > 12.86: non (9.0)
|   |   |   |   |   type > 0
|   |   |   |   |   |    pipeline1 <= 2.79
|   |   |   |   |   |   |    semantics2 <= 0.98: dup (5.0/1.0)
|   |   |   |   |   |   |    semantics2 > 0.98
|   |   |   |   |   |   |   |   Ch172 <= 7.41
|   |   |   |   |   |   |   |   |    oops1 <= 4.96: non (42.0)
|   |   |   |   |   |   |   |   |    oops1 > 4.96
|   |   |   |   |   |   |   |   |   |    introLexical1 <= 4.69: dup (4.0/1.0)
|   |   |   |   |   |   |   |   |   |    introLexical1 > 4.69: non (4.0)
|   |   |   |   |   |   |   |   Ch172 > 7.41
|   |   |   |   |   |   |   |   |    oops2 <= 3.63: non (6.0)
|   |   |   |   |   |   |   |   |    oops2 > 3.63: dup (8.0/1.0)
|   |   |   |   |   |    pipeline1 > 2.79
|   |   |   |   |   |   |   Ch42 <= 4.67
|   |   |   |   |   |   |   |   Ch142 <= 1.76
|   |   |   |   |   |   |   |   |    ssa2 <= 0.77: dup (6.0)
|   |   |   |   |   |   |   |   |    ssa2 > 0.77
|   |   |   |   |   |   |   |   |   |    polymorhic2 <= 3.81
|   |   |   |   |   |   |   |   |   |   |    memory1 <= 5.4: non (12.0)
|   |   |   |   |   |   |   |   |   |   |    memory1 > 5.4
|   |   |   |   |   |   |   |   |   |   |   |    semantics1 <= 7.93: dup (5.0)
|   |   |   |   |   |   |   |   |   |   |   |    semantics1 > 7.93: non (6.0)
|   |   |   |   |   |   |   |   |   |    polymorhic2 > 3.81: dup (5.0)
|   |   |   |   |   |   |   |   Ch142 > 1.76: non (19.0)
|   |   |   |   |   |   |   Ch42 > 4.67
|   |   |   |   |   |   |   |   Ch122 <= 4.85
|   |   |   |   |   |   |   |   |   Ch152 <= 4.96
|   |   |   |   |   |   |   |   |   |   Ch111 <= 1.95: non (5.0/1.0)
|   |   |   |   |   |   |   |   |   |   Ch111 > 1.95
|   |   |   |   |   |   |   |   |   |   |    ssa1 <= 6.13: dup (35.0)
|   |   |   |   |   |   |   |   |   |   |    ssa1 > 6.13
|   |   |   |   |   |   |   |   |   |   |   |    functional1 <= 2.95: non (4.0)
|   |   |   |   |   |   |   |   |   |   |   |    functional1 > 2.95
|   |   |   |   |   |   |   |   |   |   |   |   |   Ch61 <= 5.9
|   |   |   |   |   |   |   |   |   |   |   |   |   |    oops1 <= 10.5: dup (25.0)
|   |   |   |   |   |   |   |   |   |   |   |   |   |    oops1 > 10.5
|   |   |   |   |   |   |   |   |   |   |   |   |   |   |    introLexical1 <= 9.76: non (3.0)
|   |   |   |   |   |   |   |   |   |   |   |   |   |   |    introLexical1 > 9.76: dup (8.0)
|   |   |   |   |   |   |   |   |   |   |   |   |   Ch61 > 5.9: non (4.0/1.0)
|   |   |   |   |   |   |   |   |   Ch152 > 4.96
|   |   |   |   |   |   |   |   |   |    functional1 <= 9.81: non (10.0)
|   |   |   |   |   |   |   |   |   |    functional1 > 9.81: dup (3.0)
|   |   |   |   |   |   |   |   Ch122 > 4.85
|   |   |   |   |   |   |   |   |   prior <= 0.5: non (10.0/1.0)
|   |   |   |   |   |   |   |   |   prior > 0.5
|   |   |   |   |   |   |   |   |   |   Ch191 <= 8.15
|   |   |   |   |   |   |   |   |   |   |    pipeline2 <= 2.89: non (13.0)
|   |   |   |   |   |   |   |   |   |   |    pipeline2 > 2.89
|   |   |   |   |   |   |   |   |   |   |   |    pipeline2 <= 3.87: dup (11.0)
|   |   |   |   |   |   |   |   |   |   |   |    pipeline2 > 3.87
|   |   |   |   |   |   |   |   |   |   |   |   |    hueristics1 <= 4.98
|   |   |   |   |   |   |   |   |   |   |   |   |   |   Ch41 <= 8.43
|   |   |   |   |   |   |   |   |   |   |   |   |   |   |   Ch191 <= 3.89: dup (14.0)
|   |   |   |   |   |   |   |   |   |   |   |   |   |   |   Ch191 > 3.89
|   |   |   |   |   |   |   |   |   |   |   |   |   |   |   |    semantics2 <= 6.63: dup (5.0)
|   |   |   |   |   |   |   |   |   |   |   |   |   |   |   |    semantics2 > 6.63: non (3.0)
|   |   |   |   |   |   |   |   |   |   |   |   |   |   Ch41 > 8.43: non (2.0)
|   |   |   |   |   |   |   |   |   |   |   |   |    hueristics1 > 4.98
|   |   |   |   |   |   |   |   |   |   |   |   |   |   cosine_similarity <= 0.946
|   |   |   |   |   |   |   |   |   |   |   |   |   |   |   bmfu <= 3.11
|   |   |   |   |   |   |   |   |   |   |   |   |   |   |   |   Ch111 <= 7.86
|   |   |   |   |   |   |   |   |   |   |   |   |   |   |   |   |    polymorhic1 <= 4.85
|   |   |   |   |   |   |   |   |   |   |   |   |   |   |   |   |   |    oops1 <= 7.2: non (6.0)
|   |   |   |   |   |   |   |   |   |   |   |   |   |   |   |   |   |    oops1 > 7.2: dup (3.0)
|   |   |   |   |   |   |   |   |   |   |   |   |   |   |   |   |    polymorhic1 > 4.85: non (34.0)
|   |   |   |   |   |   |   |   |   |   |   |   |   |   |   |   Ch111 > 7.86
|   |   |   |   |   |   |   |   |   |   |   |   |   |   |   |   |   Ch171 <= 4.78: dup (6.0)
|   |   |   |   |   |   |   |   |   |   |   |   |   |   |   |   |   Ch171 > 4.78
|   |   |   |   |   |   |   |   |   |   |   |   |   |   |   |   |   |   Ch192 <= 5.57: non (11.0)
|   |   |   |   |   |   |   |   |   |   |   |   |   |   |   |   |   |   Ch192 > 5.57
|   |   |   |   |   |   |   |   |   |   |   |   |   |   |   |   |   |   |    semantics1 <= 7: non (2.0)
|   |   |   |   |   |   |   |   |   |   |   |   |   |   |   |   |   |   |    semantics1 > 7: dup (4.0)
|   |   |   |   |   |   |   |   |   |   |   |   |   |   |   bmfu > 3.11: dup (4.0)
|   |   |   |   |   |   |   |   |   |   |   |   |   |   cosine_similarity > 0.946
|   |   |   |   |   |   |   |   |   |   |   |   |   |   |    garbage2 <= 7.97
|   |   |   |   |   |   |   |   |   |   |   |   |   |   |   |   Ch12 <= 10.39: dup (19.0/1.0)
|   |   |   |   |   |   |   |   |   |   |   |   |   |   |   |   Ch12 > 10.39
|   |   |   |   |   |   |   |   |   |   |   |   |   |   |   |   |   Ch101 <= 8.69: non (6.0)
|   |   |   |   |   |   |   |   |   |   |   |   |   |   |   |   |   Ch101 > 8.69: dup (3.0)
|   |   |   |   |   |   |   |   |   |   |   |   |   |   |    garbage2 > 7.97: non (10.0/1.0)
|   |   |   |   |   |   |   |   |   |   Ch191 > 8.15
|   |   |   |   |   |   |   |   |   |   |    introLexical1 <= 4.14: non (3.0)
|   |   |   |   |   |   |   |   |   |   |    introLexical1 > 4.14
|   |   |   |   |   |   |   |   |   |   |   |   Ch21 <= 7.21: dup (22.0)
|   |   |   |   |   |   |   |   |   |   |   |   Ch21 > 7.21
|   |   |   |   |   |   |   |   |   |   |   |   |    garbage1 <= 5.23: non (2.0)
|   |   |   |   |   |   |   |   |   |   |   |   |    garbage1 > 5.23: dup (3.0)
|   |   |   |   Ch91 > 15.75
|   |   |   |   |   Ch71 <= 9.77: dup (2.0)
|   |   |   |   |   Ch71 > 9.77: non (30.0/2.0)
bmfu > 3.36
|   prod <= 0
|   |   cosine_similarity <= 0.999
|   |   |   bmfb <= 20.29
|   |   |   |   bmfu <= 5.03
|   |   |   |   |   Ch62 <= 0.87
|   |   |   |   |   |    functional2 <= 1: non (4.0)
|   |   |   |   |   |    functional2 > 1
|   |   |   |   |   |   |   Ch11 <= 2.88: non (2.0)
|   |   |   |   |   |   |   Ch11 > 2.88: dup (19.0)
|   |   |   |   |   Ch62 > 0.87
|   |   |   |   |   |    parsing2 <= 4.25
|   |   |   |   |   |   |   Ch82 <= 13.38
|   |   |   |   |   |   |   |    memory2 <= 1.6: dup (9.0/1.0)
|   |   |   |   |   |   |   |    memory2 > 1.6
|   |   |   |   |   |   |   |   |    intstructions2 <= 4.05: non (28.0)
|   |   |   |   |   |   |   |   |    intstructions2 > 4.05
|   |   |   |   |   |   |   |   |   |    liveRegisters1 <= 12.1
|   |   |   |   |   |   |   |   |   |   |   Ch152 <= 2.37: non (13.0)
|   |   |   |   |   |   |   |   |   |   |   Ch152 > 2.37
|   |   |   |   |   |   |   |   |   |   |   |    garbage2 <= 2.88: dup (15.0/1.0)
|   |   |   |   |   |   |   |   |   |   |   |    garbage2 > 2.88
|   |   |   |   |   |   |   |   |   |   |   |   |   Ch102 <= 9.84
|   |   |   |   |   |   |   |   |   |   |   |   |   |   Ch132 <= 4.01
|   |   |   |   |   |   |   |   |   |   |   |   |   |   |   Ch81 <= 3.51: dup (2.0)
|   |   |   |   |   |   |   |   |   |   |   |   |   |   |   Ch81 > 3.51: non (20.0/1.0)
|   |   |   |   |   |   |   |   |   |   |   |   |   |   Ch132 > 4.01
|   |   |   |   |   |   |   |   |   |   |   |   |   |   |    ssa2 <= 9.24: dup (22.0)
|   |   |   |   |   |   |   |   |   |   |   |   |   |   |    ssa2 > 9.24: non (4.0)
|   |   |   |   |   |   |   |   |   |   |   |   |   Ch102 > 9.84: non (21.0)
|   |   |   |   |   |   |   |   |   |    liveRegisters1 > 12.1: non (20.0)
|   |   |   |   |   |   |   Ch82 > 13.38: dup (10.0)
|   |   |   |   |   |    parsing2 > 4.25
|   |   |   |   |   |   |   Ch62 <= 9.37
|   |   |   |   |   |   |   |   Ch21 <= 1.22
|   |   |   |   |   |   |   |   |   Ch101 <= 2.6: dup (5.0)
|   |   |   |   |   |   |   |   |   Ch101 > 2.6
|   |   |   |   |   |   |   |   |   |    semantics1 <= 2.35: dup (4.0)
|   |   |   |   |   |   |   |   |   |    semantics1 > 2.35: non (16.0)
|   |   |   |   |   |   |   |   Ch21 > 1.22
|   |   |   |   |   |   |   |   |   Ch132 <= 2.17
|   |   |   |   |   |   |   |   |   |    liveRegisters2 <= 6.52: non (17.0)
|   |   |   |   |   |   |   |   |   |    liveRegisters2 > 6.52
|   |   |   |   |   |   |   |   |   |   |   Ch142 <= 3.4
|   |   |   |   |   |   |   |   |   |   |   |   Ch62 <= 2.26: non (3.0/1.0)
|   |   |   |   |   |   |   |   |   |   |   |   Ch62 > 2.26: dup (8.0)
|   |   |   |   |   |   |   |   |   |   |   Ch142 > 3.4: non (6.0)
|   |   |   |   |   |   |   |   |   Ch132 > 2.17
|   |   |   |   |   |   |   |   |   |   Ch22 <= 4.05: non (138.0)
|   |   |   |   |   |   |   |   |   |   Ch22 > 4.05
|   |   |   |   |   |   |   |   |   |   |   Ch122 <= 11.51
|   |   |   |   |   |   |   |   |   |   |   |   Ch42 <= 15.32
|   |   |   |   |   |   |   |   |   |   |   |   |    intermediate2 <= 5.99
|   |   |   |   |   |   |   |   |   |   |   |   |   |   comp <= 0
|   |   |   |   |   |   |   |   |   |   |   |   |   |   |    memory2 <= 5.54: non (18.0)
|   |   |   |   |   |   |   |   |   |   |   |   |   |   |    memory2 > 5.54: dup (5.0/1.0)
|   |   |   |   |   |   |   |   |   |   |   |   |   |   comp > 0: dup (2.0)
|   |   |   |   |   |   |   |   |   |   |   |   |    intermediate2 > 5.99: non (117.0/1.0)
|   |   |   |   |   |   |   |   |   |   |   |   Ch42 > 15.32
|   |   |   |   |   |   |   |   |   |   |   |   |   comp <= 0
|   |   |   |   |   |   |   |   |   |   |   |   |   |    oops2 <= 7.7: dup (4.0)
|   |   |   |   |   |   |   |   |   |   |   |   |   |    oops2 > 7.7
|   |   |   |   |   |   |   |   |   |   |   |   |   |   |   Ch12 <= 7.76
|   |   |   |   |   |   |   |   |   |   |   |   |   |   |   |   bmfu <= 3.98: non (5.0)
|   |   |   |   |   |   |   |   |   |   |   |   |   |   |   |   bmfu > 3.98: dup (5.0)
|   |   |   |   |   |   |   |   |   |   |   |   |   |   |   Ch12 > 7.76
|   |   |   |   |   |   |   |   |   |   |   |   |   |   |   |   cosine_similarity <= 0.972: non (49.0)
|   |   |   |   |   |   |   |   |   |   |   |   |   |   |   |   cosine_similarity > 0.972
|   |   |   |   |   |   |   |   |   |   |   |   |   |   |   |   |   Ch81 <= 7.48: dup (3.0)
|   |   |   |   |   |   |   |   |   |   |   |   |   |   |   |   |   Ch81 > 7.48: non (8.0/1.0)
|   |   |   |   |   |   |   |   |   |   |   |   |   comp > 0: dup (4.0)
|   |   |   |   |   |   |   |   |   |   |   Ch122 > 11.51: non (78.0)
|   |   |   |   |   |   |   Ch62 > 9.37
|   |   |   |   |   |   |   |   comp <= 0
|   |   |   |   |   |   |   |   |   Ch42 <= 16.1: dup (6.0)
|   |   |   |   |   |   |   |   |   Ch42 > 16.1
|   |   |   |   |   |   |   |   |   |   cosine_similarity <= 0.942
|   |   |   |   |   |   |   |   |   |   |   Ch31 <= 6.21: non (8.0)
|   |   |   |   |   |   |   |   |   |   |   Ch31 > 6.21: dup (6.0)
|   |   |   |   |   |   |   |   |   |   cosine_similarity > 0.942: non (18.0)
|   |   |   |   |   |   |   |   comp > 0: dup (2.0)
|   |   |   |   bmfu > 5.03
|   |   |   |   |    garbage2 <= 9.44
|   |   |   |   |   |    ssa2 <= 8.31
|   |   |   |   |   |   |    intstructions1 <= 5.4
|   |   |   |   |   |   |   |   bmfu <= 13.25
|   |   |   |   |   |   |   |   |    liveRegisters1 <= 5.7
|   |   |   |   |   |   |   |   |   |   Ch22 <= 5.84
|   |   |   |   |   |   |   |   |   |   |   Ch122 <= 1.96: dup (4.0)
|   |   |   |   |   |   |   |   |   |   |   Ch122 > 1.96
|   |   |   |   |   |   |   |   |   |   |   |    hueristics2 <= 4.19: non (14.0)
|   |   |   |   |   |   |   |   |   |   |   |    hueristics2 > 4.19
|   |   |   |   |   |   |   |   |   |   |   |   |   Ch52 <= 7.78: dup (6.0)
|   |   |   |   |   |   |   |   |   |   |   |   |   Ch52 > 7.78
|   |   |   |   |   |   |   |   |   |   |   |   |   |    memory1 <= 3.38
|   |   |   |   |   |   |   |   |   |   |   |   |   |   |   prior <= 0.33: dup (2.0)
|   |   |   |   |   |   |   |   |   |   |   |   |   |   |   prior > 0.33
|   |   |   |   |   |   |   |   |   |   |   |   |   |   |   |    garbage1 <= 5.01
|   |   |   |   |   |   |   |   |   |   |   |   |   |   |   |   |    semantics1 <= 4.2
|   |   |   |   |   |   |   |   |   |   |   |   |   |   |   |   |   |    intstructions1 <= 3.5: non (8.0/1.0)
|   |   |   |   |   |   |   |   |   |   |   |   |   |   |   |   |   |    intstructions1 > 3.5: dup (7.0)
|   |   |   |   |   |   |   |   |   |   |   |   |   |   |   |   |    semantics1 > 4.2: non (10.0)
|   |   |   |   |   |   |   |   |   |   |   |   |   |   |   |    garbage1 > 5.01: dup (4.0)
|   |   |   |   |   |   |   |   |   |   |   |   |   |    memory1 > 3.38: non (16.0)
|   |   |   |   |   |   |   |   |   |   Ch22 > 5.84: dup (6.0)
|   |   |   |   |   |   |   |   |    liveRegisters1 > 5.7: non (24.0)
|   |   |   |   |   |   |   |   bmfu > 13.25: non (34.0)
|   |   |   |   |   |   |    intstructions1 > 5.4
|   |   |   |   |   |   |   |   Ch102 <= 7.95
|   |   |   |   |   |   |   |   |   prior <= 0.5
|   |   |   |   |   |   |   |   |   |   Ch131 <= 5.09: dup (5.0)
|   |   |   |   |   |   |   |   |   |   Ch131 > 5.09: non (9.0)
|   |   |   |   |   |   |   |   |   prior > 0.5
|   |   |   |   |   |   |   |   |   |    semantics2 <= 3.7
|   |   |   |   |   |   |   |   |   |   |   Ch192 <= 3.29
|   |   |   |   |   |   |   |   |   |   |   |   type <= 0
|   |   |   |   |   |   |   |   |   |   |   |   |    introLexical2 <= 4.12: non (2.0)
|   |   |   |   |   |   |   |   |   |   |   |   |    introLexical2 > 4.12: dup (3.0)
|   |   |   |   |   |   |   |   |   |   |   |   type > 0: dup (4.0)
|   |   |   |   |   |   |   |   |   |   |   Ch192 > 3.29: non (12.0/1.0)
|   |   |   |   |   |   |   |   |   |    semantics2 > 3.7
|   |   |   |   |   |   |   |   |   |   |    garbage2 <= 5.32
|   |   |   |   |   |   |   |   |   |   |   |    intstructions2 <= 4.8
|   |   |   |   |   |   |   |   |   |   |   |   |    introLexical2 <= 5.11: dup (17.0/1.0)
|   |   |   |   |   |   |   |   |   |   |   |   |    introLexical2 > 5.11
|   |   |   |   |   |   |   |   |   |   |   |   |   |   type <= 0
|   |   |   |   |   |   |   |   |   |   |   |   |   |   |    liveRegisters2 <= 4.8: dup (3.0)
|   |   |   |   |   |   |   |   |   |   |   |   |   |   |    liveRegisters2 > 4.8: non (2.0)
|   |   |   |   |   |   |   |   |   |   |   |   |   |   type > 0: non (5.0)
|   |   |   |   |   |   |   |   |   |   |   |    intstructions2 > 4.8
|   |   |   |   |   |   |   |   |   |   |   |   |    pipeline2 <= 3.38
|   |   |   |   |   |   |   |   |   |   |   |   |   |    introLexical1 <= 7.37: dup (2.0)
|   |   |   |   |   |   |   |   |   |   |   |   |   |    introLexical1 > 7.37: non (2.0)
|   |   |   |   |   |   |   |   |   |   |   |   |    pipeline2 > 3.38: dup (55.0)
|   |   |   |   |   |   |   |   |   |   |    garbage2 > 5.32: non (6.0/1.0)
|   |   |   |   |   |   |   |   Ch102 > 7.95
|   |   |   |   |   |   |   |   |   Ch152 <= 9.56
|   |   |   |   |   |   |   |   |   |    parsing1 <= 5.92
|   |   |   |   |   |   |   |   |   |   |    polymorhic2 <= 7.22
|   |   |   |   |   |   |   |   |   |   |   |   comp <= 0
|   |   |   |   |   |   |   |   |   |   |   |   |   Ch92 <= 8.88: dup (9.0/1.0)
|   |   |   |   |   |   |   |   |   |   |   |   |   Ch92 > 8.88
|   |   |   |   |   |   |   |   |   |   |   |   |   |   Ch142 <= 6.25: non (21.0)
|   |   |   |   |   |   |   |   |   |   |   |   |   |   Ch142 > 6.25
|   |   |   |   |   |   |   |   |   |   |   |   |   |   |   Ch71 <= 5.44: dup (2.0)
|   |   |   |   |   |   |   |   |   |   |   |   |   |   |   Ch71 > 5.44: non (11.0/1.0)
|   |   |   |   |   |   |   |   |   |   |   |   comp > 0: non (4.0)
|   |   |   |   |   |   |   |   |   |   |    polymorhic2 > 7.22: dup (15.0/1.0)
|   |   |   |   |   |   |   |   |   |    parsing1 > 5.92
|   |   |   |   |   |   |   |   |   |   |   Ch52 <= 12.2
|   |   |   |   |   |   |   |   |   |   |   |    ssa1 <= 9.49: dup (2.0)
|   |   |   |   |   |   |   |   |   |   |   |    ssa1 > 9.49: non (5.0/1.0)
|   |   |   |   |   |   |   |   |   |   |   Ch52 > 12.2: non (37.0/2.0)
|   |   |   |   |   |   |   |   |   Ch152 > 9.56: dup (8.0/1.0)
|   |   |   |   |   |    ssa2 > 8.31
|   |   |   |   |   |   |   Ch122 <= 12.57
|   |   |   |   |   |   |   |    garbage1 <= 8.38
|   |   |   |   |   |   |   |   |   Ch81 <= 10.34
|   |   |   |   |   |   |   |   |   |    functional1 <= 4.52
|   |   |   |   |   |   |   |   |   |   |    functional1 <= 4.39
|   |   |   |   |   |   |   |   |   |   |   |    parsing2 <= 6.24: dup (35.0)
|   |   |   |   |   |   |   |   |   |   |   |    parsing2 > 6.24
|   |   |   |   |   |   |   |   |   |   |   |   |    ssa2 <= 10.17
|   |   |   |   |   |   |   |   |   |   |   |   |   |    introLexical1 <= 4.16: dup (2.0)
|   |   |   |   |   |   |   |   |   |   |   |   |   |    introLexical1 > 4.16: non (9.0)
|   |   |   |   |   |   |   |   |   |   |   |   |    ssa2 > 10.17
|   |   |   |   |   |   |   |   |   |   |   |   |   |    oops2 <= 16.31: dup (17.0/1.0)
|   |   |   |   |   |   |   |   |   |   |   |   |   |    oops2 > 16.31: non (3.0)
|   |   |   |   |   |   |   |   |   |   |    functional1 > 4.39: non (5.0)
|   |   |   |   |   |   |   |   |   |    functional1 > 4.52: dup (153.0/2.0)
|   |   |   |   |   |   |   |   |   Ch81 > 10.34
|   |   |   |   |   |   |   |   |   |   Ch61 <= 6.09: non (7.0)
|   |   |   |   |   |   |   |   |   |   Ch61 > 6.09
|   |   |   |   |   |   |   |   |   |   |    functional1 <= 7.01: dup (9.0)
|   |   |   |   |   |   |   |   |   |   |    functional1 > 7.01: non (2.0)
|   |   |   |   |   |   |   |    garbage1 > 8.38
|   |   |   |   |   |   |   |   |    polymorhic2 <= 10.87
|   |   |   |   |   |   |   |   |   |   Ch62 <= 6.24: non (19.0)
|   |   |   |   |   |   |   |   |   |   Ch62 > 6.24: dup (5.0/1.0)
|   |   |   |   |   |   |   |   |    polymorhic2 > 10.87: dup (4.0)
|   |   |   |   |   |   |   Ch122 > 12.57
|   |   |   |   |   |   |   |   Ch162 <= 8.47: dup (3.0)
|   |   |   |   |   |   |   |   Ch162 > 8.47
|   |   |   |   |   |   |   |   |    semantics1 <= 5.28: dup (2.0)
|   |   |   |   |   |   |   |   |    semantics1 > 5.28
|   |   |   |   |   |   |   |   |   |   Ch181 <= 16.1: non (18.0)
|   |   |   |   |   |   |   |   |   |   Ch181 > 16.1
|   |   |   |   |   |   |   |   |   |   |   bmfu <= 9.77: non (2.0)
|   |   |   |   |   |   |   |   |   |   |   bmfu > 9.77: dup (2.0)
|   |   |   |   |    garbage2 > 9.44
|   |   |   |   |   |   bmfu <= 8.5: non (34.0)
|   |   |   |   |   |   bmfu > 8.5
|   |   |   |   |   |   |    introLexical2 <= 10.46: non (4.0)
|   |   |   |   |   |   |    introLexical2 > 10.46: dup (5.0)
|   |   |   bmfb > 20.29
|   |   |   |   Ch171 <= 3.1
|   |   |   |   |   Ch122 <= 4.4: dup (7.0)
|   |   |   |   |   Ch122 > 4.4
|   |   |   |   |   |    intermediate2 <= 8.1: non (11.0)
|   |   |   |   |   |    intermediate2 > 8.1: dup (3.0)
|   |   |   |   Ch171 > 3.1
|   |   |   |   |   bmfu <= 19.75
|   |   |   |   |   |    hueristics1 <= 6.36: dup (15.0/1.0)
|   |   |   |   |   |    hueristics1 > 6.36
|   |   |   |   |   |   |    pipeline2 <= 5.97: non (7.0)
|   |   |   |   |   |   |    pipeline2 > 5.97: dup (5.0/1.0)
|   |   |   |   |   bmfu > 19.75
|   |   |   |   |   |    hueristics2 <= 5.28
|   |   |   |   |   |   |   Ch72 <= 7.03: dup (7.0)
|   |   |   |   |   |   |   Ch72 > 7.03: non (4.0)
|   |   |   |   |   |    hueristics2 > 5.28
|   |   |   |   |   |   |    parsing1 <= 7.57: dup (175.0/2.0)
|   |   |   |   |   |   |    parsing1 > 7.57
|   |   |   |   |   |   |   |   Ch51 <= 18.9: non (3.0)
|   |   |   |   |   |   |   |   Ch51 > 18.9: dup (7.0)
|   |   cosine_similarity > 0.999
|   |   |   Ch151 <= 4.72: non (300.0)
|   |   |   Ch151 > 4.72
|   |   |   |   Ch171 <= 6.64: non (12.0)
|   |   |   |   Ch171 > 6.64: dup (9.0)
|   prod > 0
|   |   Ch112 <= 1.77
|   |   |   type <= 0
|   |   |   |   comp <= 0: non (3.0)
|   |   |   |   comp > 0
|   |   |   |   |   Ch182 <= 4.57: dup (15.0)
|   |   |   |   |   Ch182 > 4.57: non (2.0)
|   |   |   type > 0
|   |   |   |   Ch91 <= 6.15
|   |   |   |   |   bmfb <= 25.99
|   |   |   |   |   |    intstructions1 <= 5.57
|   |   |   |   |   |   |   Ch152 <= 0.06
|   |   |   |   |   |   |   |   Ch141 <= 1.64
|   |   |   |   |   |   |   |   |   Ch12 <= 2.74
|   |   |   |   |   |   |   |   |   |    ssa2 <= 1.12
|   |   |   |   |   |   |   |   |   |   |   bmfb <= 3.89: dup (2.0)
|   |   |   |   |   |   |   |   |   |   |   bmfb > 3.89: non (2.0)
|   |   |   |   |   |   |   |   |   |    ssa2 > 1.12: non (25.0)
|   |   |   |   |   |   |   |   |   Ch12 > 2.74: dup (2.0)
|   |   |   |   |   |   |   |   Ch141 > 1.64: dup (3.0)
|   |   |   |   |   |   |   Ch152 > 0.06
|   |   |   |   |   |   |   |    intstructions1 <= 0.68
|   |   |   |   |   |   |   |   |    liveRegisters1 <= 0.35: non (4.0)
|   |   |   |   |   |   |   |   |    liveRegisters1 > 0.35: dup (2.0)
|   |   |   |   |   |   |   |    intstructions1 > 0.68: non (72.0)
|   |   |   |   |   |    intstructions1 > 5.57
|   |   |   |   |   |   |   Ch132 <= 1.67: dup (4.0)
|   |   |   |   |   |   |   Ch132 > 1.67: non (3.0)
|   |   |   |   |   bmfb > 25.99
|   |   |   |   |   |    hueristics2 <= 3.96: dup (8.0)
|   |   |   |   |   |    hueristics2 > 3.96: non (7.0/1.0)
|   |   |   |   Ch91 > 6.15
|   |   |   |   |   Ch121 <= 4.88
|   |   |   |   |   |   Ch162 <= 2.98: non (10.0)
|   |   |   |   |   |   Ch162 > 2.98: dup (3.0)
|   |   |   |   |   Ch121 > 4.88: dup (14.0/1.0)
|   |   Ch112 > 1.77
|   |   |   Ch122 <= 0.61
|   |   |   |   Ch131 <= 2.82: non (23.0)
|   |   |   |   Ch131 > 2.82: dup (3.0)
|   |   |   Ch122 > 0.61
|   |   |   |   Ch152 <= 0.53
|   |   |   |   |   Ch22 <= 2.77
|   |   |   |   |   |   bmfb <= 2: dup (9.0)
|   |   |   |   |   |   bmfb > 2
|   |   |   |   |   |   |   Ch82 <= 1.08: dup (6.0)
|   |   |   |   |   |   |   Ch82 > 1.08
|   |   |   |   |   |   |   |    pipeline2 <= 2.78: non (19.0/2.0)
|   |   |   |   |   |   |   |    pipeline2 > 2.78
|   |   |   |   |   |   |   |   |    hueristics2 <= 5.11: dup (13.0)
|   |   |   |   |   |   |   |   |    hueristics2 > 5.11
|   |   |   |   |   |   |   |   |   |   Ch152 <= 0.06
|   |   |   |   |   |   |   |   |   |   |    polymorhic1 <= 8.38: non (10.0)
|   |   |   |   |   |   |   |   |   |   |    polymorhic1 > 8.38: dup (2.0)
|   |   |   |   |   |   |   |   |   |   Ch152 > 0.06: dup (2.0)
|   |   |   |   |   Ch22 > 2.77: non (17.0)
|   |   |   |   Ch152 > 0.53
|   |   |   |   |   bmfu <= 15.21
|   |   |   |   |   |   type <= 0
|   |   |   |   |   |   |   bmfu <= 4.9
|   |   |   |   |   |   |   |    garbage2 <= 5.96
|   |   |   |   |   |   |   |   |   Ch72 <= 2.12
|   |   |   |   |   |   |   |   |   |    garbage1 <= 3.2: dup (4.0/1.0)
|   |   |   |   |   |   |   |   |   |    garbage1 > 3.2: non (7.0)
|   |   |   |   |   |   |   |   |   Ch72 > 2.12
|   |   |   |   |   |   |   |   |   |    pipeline2 <= 2.47
|   |   |   |   |   |   |   |   |   |   |    polymorhic1 <= 6.09: non (7.0)
|   |   |   |   |   |   |   |   |   |   |    polymorhic1 > 6.09: dup (5.0/1.0)
|   |   |   |   |   |   |   |   |   |    pipeline2 > 2.47
|   |   |   |   |   |   |   |   |   |   |   Ch102 <= 12.83
|   |   |   |   |   |   |   |   |   |   |   |    ssa2 <= 3.22
|   |   |   |   |   |   |   |   |   |   |   |   |   Ch62 <= 2.48: dup (5.0)
|   |   |   |   |   |   |   |   |   |   |   |   |   Ch62 > 2.48: non (6.0)
|   |   |   |   |   |   |   |   |   |   |   |    ssa2 > 3.22
|   |   |   |   |   |   |   |   |   |   |   |   |   prior <= 0.5: dup (16.0)
|   |   |   |   |   |   |   |   |   |   |   |   |   prior > 0.5
|   |   |   |   |   |   |   |   |   |   |   |   |   |   Ch162 <= 5.29
|   |   |   |   |   |   |   |   |   |   |   |   |   |   |    garbage2 <= 3.1: dup (10.0)
|   |   |   |   |   |   |   |   |   |   |   |   |   |   |    garbage2 > 3.1
|   |   |   |   |   |   |   |   |   |   |   |   |   |   |   |    pipeline1 <= 6.43
|   |   |   |   |   |   |   |   |   |   |   |   |   |   |   |   |    polymorhic2 <= 6.53: dup (7.0)
|   |   |   |   |   |   |   |   |   |   |   |   |   |   |   |   |    polymorhic2 > 6.53: non (2.0)
|   |   |   |   |   |   |   |   |   |   |   |   |   |   |   |    pipeline1 > 6.43: non (6.0)
|   |   |   |   |   |   |   |   |   |   |   |   |   |   Ch162 > 5.29
|   |   |   |   |   |   |   |   |   |   |   |   |   |   |   Ch81 <= 13.36: dup (112.0/4.0)
|   |   |   |   |   |   |   |   |   |   |   |   |   |   |   Ch81 > 13.36
|   |   |   |   |   |   |   |   |   |   |   |   |   |   |   |   Ch51 <= 23.65: non (3.0)
|   |   |   |   |   |   |   |   |   |   |   |   |   |   |   |   Ch51 > 23.65: dup (3.0)
|   |   |   |   |   |   |   |   |   |   |   Ch102 > 12.83
|   |   |   |   |   |   |   |   |   |   |   |   Ch92 <= 12.43: dup (4.0)
|   |   |   |   |   |   |   |   |   |   |   |   Ch92 > 12.43: non (6.0)
|   |   |   |   |   |   |   |    garbage2 > 5.96
|   |   |   |   |   |   |   |   |    pipeline1 <= 8.84
|   |   |   |   |   |   |   |   |   |   comp <= 0
|   |   |   |   |   |   |   |   |   |   |    liveRegisters1 <= 9.93
|   |   |   |   |   |   |   |   |   |   |   |   Ch42 <= 12.75: dup (5.0)
|   |   |   |   |   |   |   |   |   |   |   |   Ch42 > 12.75: non (16.0/1.0)
|   |   |   |   |   |   |   |   |   |   |    liveRegisters1 > 9.93: dup (5.0)
|   |   |   |   |   |   |   |   |   |   comp > 0
|   |   |   |   |   |   |   |   |   |   |   Ch71 <= 6.37
|   |   |   |   |   |   |   |   |   |   |   |    oops2 <= 8.83
|   |   |   |   |   |   |   |   |   |   |   |   |   Ch62 <= 2.81: dup (2.0)
|   |   |   |   |   |   |   |   |   |   |   |   |   Ch62 > 2.81: non (9.0)
|   |   |   |   |   |   |   |   |   |   |   |    oops2 > 8.83
|   |   |   |   |   |   |   |   |   |   |   |   |    parsing2 <= 9.11: dup (18.0)
|   |   |   |   |   |   |   |   |   |   |   |   |    parsing2 > 9.11: non (2.0)
|   |   |   |   |   |   |   |   |   |   |   Ch71 > 6.37: dup (15.0)
|   |   |   |   |   |   |   |   |    pipeline1 > 8.84
|   |   |   |   |   |   |   |   |   |   Ch152 <= 7.93: non (29.0/1.0)
|   |   |   |   |   |   |   |   |   |   Ch152 > 7.93
|   |   |   |   |   |   |   |   |   |   |    liveRegisters2 <= 10.54: dup (2.0)
|   |   |   |   |   |   |   |   |   |   |    liveRegisters2 > 10.54: non (5.0)
|   |   |   |   |   |   |   bmfu > 4.9
|   |   |   |   |   |   |   |    pipeline1 <= 15.25
|   |   |   |   |   |   |   |   |   Ch191 <= 7.73
|   |   |   |   |   |   |   |   |   |   prior <= 0.33: dup (36.0/1.0)
|   |   |   |   |   |   |   |   |   |   prior > 0.33
|   |   |   |   |   |   |   |   |   |   |    memory2 <= 1.89: dup (68.0/1.0)
|   |   |   |   |   |   |   |   |   |   |    memory2 > 1.89
|   |   |   |   |   |   |   |   |   |   |   |    introLexical2 <= 4.31
|   |   |   |   |   |   |   |   |   |   |   |   |   bmfu <= 13.41
|   |   |   |   |   |   |   |   |   |   |   |   |   |    parsing2 <= 2.51: dup (20.0/1.0)
|   |   |   |   |   |   |   |   |   |   |   |   |   |    parsing2 > 2.51
|   |   |   |   |   |   |   |   |   |   |   |   |   |   |    liveRegisters2 <= 4.12
|   |   |   |   |   |   |   |   |   |   |   |   |   |   |   |    parsing1 <= 1.12: dup (3.0)
|   |   |   |   |   |   |   |   |   |   |   |   |   |   |   |    parsing1 > 1.12
|   |   |   |   |   |   |   |   |   |   |   |   |   |   |   |   |    liveRegisters2 <= 2.98
|   |   |   |   |   |   |   |   |   |   |   |   |   |   |   |   |   |    functional1 <= 4.43: non (2.0)
|   |   |   |   |   |   |   |   |   |   |   |   |   |   |   |   |   |    functional1 > 4.43: dup (2.0)
|   |   |   |   |   |   |   |   |   |   |   |   |   |   |   |   |    liveRegisters2 > 2.98: non (15.0)
|   |   |   |   |   |   |   |   |   |   |   |   |   |   |    liveRegisters2 > 4.12: dup (14.0/1.0)
|   |   |   |   |   |   |   |   |   |   |   |   |   bmfu > 13.41: non (11.0)
|   |   |   |   |   |   |   |   |   |   |   |    introLexical2 > 4.31
|   |   |   |   |   |   |   |   |   |   |   |   |    garbage2 <= 4.27
|   |   |   |   |   |   |   |   |   |   |   |   |   |   comp <= 0: dup (53.0)
|   |   |   |   |   |   |   |   |   |   |   |   |   |   comp > 0
|   |   |   |   |   |   |   |   |   |   |   |   |   |   |   Ch22 <= 3.74: dup (58.0)
|   |   |   |   |   |   |   |   |   |   |   |   |   |   |   Ch22 > 3.74
|   |   |   |   |   |   |   |   |   |   |   |   |   |   |   |    oops2 <= 4.56: non (3.0)
|   |   |   |   |   |   |   |   |   |   |   |   |   |   |   |    oops2 > 4.56
|   |   |   |   |   |   |   |   |   |   |   |   |   |   |   |   |   Ch61 <= 5.94: dup (36.0/1.0)
|   |   |   |   |   |   |   |   |   |   |   |   |   |   |   |   |   Ch61 > 5.94
|   |   |   |   |   |   |   |   |   |   |   |   |   |   |   |   |   |    functional1 <= 3.52: dup (2.0)
|   |   |   |   |   |   |   |   |   |   |   |   |   |   |   |   |   |    functional1 > 3.52: non (3.0)
|   |   |   |   |   |   |   |   |   |   |   |   |    garbage2 > 4.27
|   |   |   |   |   |   |   |   |   |   |   |   |   |    polymorhic2 <= 7.93
|   |   |   |   |   |   |   |   |   |   |   |   |   |   |    intermediate2 <= 13.86
|   |   |   |   |   |   |   |   |   |   |   |   |   |   |   |   Ch142 <= 4.98
|   |   |   |   |   |   |   |   |   |   |   |   |   |   |   |   |   Ch151 <= 0.66: non (5.0/1.0)
|   |   |   |   |   |   |   |   |   |   |   |   |   |   |   |   |   Ch151 > 0.66
|   |   |   |   |   |   |   |   |   |   |   |   |   |   |   |   |   |    hueristics2 <= 10.12
|   |   |   |   |   |   |   |   |   |   |   |   |   |   |   |   |   |   |    liveRegisters2 <= 6.9: dup (45.0/3.0)
|   |   |   |   |   |   |   |   |   |   |   |   |   |   |   |   |   |   |    liveRegisters2 > 6.9
|   |   |   |   |   |   |   |   |   |   |   |   |   |   |   |   |   |   |   |   Ch62 <= 3.21: dup (7.0/1.0)
|   |   |   |   |   |   |   |   |   |   |   |   |   |   |   |   |   |   |   |   Ch62 > 3.21: non (6.0/1.0)
|   |   |   |   |   |   |   |   |   |   |   |   |   |   |   |   |   |    hueristics2 > 10.12: dup (34.0)
|   |   |   |   |   |   |   |   |   |   |   |   |   |   |   |   Ch142 > 4.98
|   |   |   |   |   |   |   |   |   |   |   |   |   |   |   |   |   Ch62 <= 4.46
|   |   |   |   |   |   |   |   |   |   |   |   |   |   |   |   |   |   Ch132 <= 4.46: dup (4.0)
|   |   |   |   |   |   |   |   |   |   |   |   |   |   |   |   |   |   Ch132 > 4.46: non (18.0)
|   |   |   |   |   |   |   |   |   |   |   |   |   |   |   |   |   Ch62 > 4.46
|   |   |   |   |   |   |   |   |   |   |   |   |   |   |   |   |   |    hueristics1 <= 8.88: dup (14.0)
|   |   |   |   |   |   |   |   |   |   |   |   |   |   |   |   |   |    hueristics1 > 8.88
|   |   |   |   |   |   |   |   |   |   |   |   |   |   |   |   |   |   |   bmfu <= 10.12
|   |   |   |   |   |   |   |   |   |   |   |   |   |   |   |   |   |   |   |    pipeline2 <= 7.95: non (7.0)
|   |   |   |   |   |   |   |   |   |   |   |   |   |   |   |   |   |   |   |    pipeline2 > 7.95: dup (3.0)
|   |   |   |   |   |   |   |   |   |   |   |   |   |   |   |   |   |   |   bmfu > 10.12: dup (6.0)
|   |   |   |   |   |   |   |   |   |   |   |   |   |   |    intermediate2 > 13.86: non (8.0)
|   |   |   |   |   |   |   |   |   |   |   |   |   |    polymorhic2 > 7.93
|   |   |   |   |   |   |   |   |   |   |   |   |   |   |   Ch22 <= 7.83
|   |   |   |   |   |   |   |   |   |   |   |   |   |   |   |    garbage2 <= 10.04: dup (125.0/2.0)
|   |   |   |   |   |   |   |   |   |   |   |   |   |   |   |    garbage2 > 10.04
|   |   |   |   |   |   |   |   |   |   |   |   |   |   |   |   |    polymorhic1 <= 7.31
|   |   |   |   |   |   |   |   |   |   |   |   |   |   |   |   |   |    garbage1 <= 5.65: dup (6.0)
|   |   |   |   |   |   |   |   |   |   |   |   |   |   |   |   |   |    garbage1 > 5.65: non (6.0)
|   |   |   |   |   |   |   |   |   |   |   |   |   |   |   |   |    polymorhic1 > 7.31: dup (19.0)
|   |   |   |   |   |   |   |   |   |   |   |   |   |   |   Ch22 > 7.83
|   |   |   |   |   |   |   |   |   |   |   |   |   |   |   |   prior <= 0.5: non (3.0)
|   |   |   |   |   |   |   |   |   |   |   |   |   |   |   |   prior > 0.5
|   |   |   |   |   |   |   |   |   |   |   |   |   |   |   |   |   Ch72 <= 9.29: non (8.0/1.0)
|   |   |   |   |   |   |   |   |   |   |   |   |   |   |   |   |   Ch72 > 9.29
|   |   |   |   |   |   |   |   |   |   |   |   |   |   |   |   |   |   Ch42 <= 27.81
|   |   |   |   |   |   |   |   |   |   |   |   |   |   |   |   |   |   |   Ch61 <= 6.22: dup (25.0)
|   |   |   |   |   |   |   |   |   |   |   |   |   |   |   |   |   |   |   Ch61 > 6.22
|   |   |   |   |   |   |   |   |   |   |   |   |   |   |   |   |   |   |   |    semantics1 <= 7.6: non (2.0)
|   |   |   |   |   |   |   |   |   |   |   |   |   |   |   |   |   |   |   |    semantics1 > 7.6: dup (3.0)
|   |   |   |   |   |   |   |   |   |   |   |   |   |   |   |   |   |   Ch42 > 27.81: non (3.0)
|   |   |   |   |   |   |   |   |   Ch191 > 7.73
|   |   |   |   |   |   |   |   |   |   bmfb <= 9.09: dup (223.0/3.0)
|   |   |   |   |   |   |   |   |   |   bmfb > 9.09
|   |   |   |   |   |   |   |   |   |   |   Ch171 <= 4.59: non (3.0)
|   |   |   |   |   |   |   |   |   |   |   Ch171 > 4.59
|   |   |   |   |   |   |   |   |   |   |   |    parsing2 <= 1.95: non (4.0/1.0)
|   |   |   |   |   |   |   |   |   |   |   |    parsing2 > 1.95: dup (29.0/1.0)
|   |   |   |   |   |   |   |    pipeline1 > 15.25
|   |   |   |   |   |   |   |   |   comp <= 0: non (7.0)
|   |   |   |   |   |   |   |   |   comp > 0
|   |   |   |   |   |   |   |   |   |    parsing2 <= 11.09
|   |   |   |   |   |   |   |   |   |   |    functional1 <= 8.18
|   |   |   |   |   |   |   |   |   |   |   |    garbage1 <= 8.73: dup (2.0)
|   |   |   |   |   |   |   |   |   |   |   |    garbage1 > 8.73: non (4.0)
|   |   |   |   |   |   |   |   |   |   |    functional1 > 8.18: dup (16.0)
|   |   |   |   |   |   |   |   |   |    parsing2 > 11.09: non (4.0)
|   |   |   |   |   |   type > 0
|   |   |   |   |   |   |   Ch152 <= 0.59: dup (48.0)
|   |   |   |   |   |   |   Ch152 > 0.59
|   |   |   |   |   |   |   |   comp <= 0
|   |   |   |   |   |   |   |   |   Ch22 <= 7.6
|   |   |   |   |   |   |   |   |   |   Ch192 <= 8.59
|   |   |   |   |   |   |   |   |   |   |    garbage2 <= 8.5
|   |   |   |   |   |   |   |   |   |   |   |    intstructions2 <= 11.29
|   |   |   |   |   |   |   |   |   |   |   |   |   cosine_similarity <= 0.982
|   |   |   |   |   |   |   |   |   |   |   |   |   |    parsing1 <= 4.49
|   |   |   |   |   |   |   |   |   |   |   |   |   |   |   Ch111 <= 8.63
|   |   |   |   |   |   |   |   |   |   |   |   |   |   |   |   Ch192 <= 1.71: non (9.0)
|   |   |   |   |   |   |   |   |   |   |   |   |   |   |   |   Ch192 > 1.71
|   |   |   |   |   |   |   |   |   |   |   |   |   |   |   |   |   Ch111 <= 8.19
|   |   |   |   |   |   |   |   |   |   |   |   |   |   |   |   |   |   Ch161 <= 7.1
|   |   |   |   |   |   |   |   |   |   |   |   |   |   |   |   |   |   |   Ch11 <= 2.19: dup (7.0)
|   |   |   |   |   |   |   |   |   |   |   |   |   |   |   |   |   |   |   Ch11 > 2.19
|   |   |   |   |   |   |   |   |   |   |   |   |   |   |   |   |   |   |   |    polymorhic2 <= 3.18: non (11.0)
|   |   |   |   |   |   |   |   |   |   |   |   |   |   |   |   |   |   |   |    polymorhic2 > 3.18
|   |   |   |   |   |   |   |   |   |   |   |   |   |   |   |   |   |   |   |   |   Ch31 <= 5.35
|   |   |   |   |   |   |   |   |   |   |   |   |   |   |   |   |   |   |   |   |   |   cosine_similarity <= 0.949
|   |   |   |   |   |   |   |   |   |   |   |   |   |   |   |   |   |   |   |   |   |   |    hueristics2 <= 8.37
|   |   |   |   |   |   |   |   |   |   |   |   |   |   |   |   |   |   |   |   |   |   |   |    hueristics2 <= 5.49: non (4.0)
|   |   |   |   |   |   |   |   |   |   |   |   |   |   |   |   |   |   |   |   |   |   |   |    hueristics2 > 5.49: dup (9.0)
|   |   |   |   |   |   |   |   |   |   |   |   |   |   |   |   |   |   |   |   |   |   |    hueristics2 > 8.37: non (6.0)
|   |   |   |   |   |   |   |   |   |   |   |   |   |   |   |   |   |   |   |   |   |   cosine_similarity > 0.949: non (10.0)
|   |   |   |   |   |   |   |   |   |   |   |   |   |   |   |   |   |   |   |   |   Ch31 > 5.35
|   |   |   |   |   |   |   |   |   |   |   |   |   |   |   |   |   |   |   |   |   |   Ch81 <= 7.4
|   |   |   |   |   |   |   |   |   |   |   |   |   |   |   |   |   |   |   |   |   |   |    polymorhic1 <= 7.17: dup (18.0)
|   |   |   |   |   |   |   |   |   |   |   |   |   |   |   |   |   |   |   |   |   |   |    polymorhic1 > 7.17: non (3.0/1.0)
|   |   |   |   |   |   |   |   |   |   |   |   |   |   |   |   |   |   |   |   |   |   Ch81 > 7.4: non (3.0)
|   |   |   |   |   |   |   |   |   |   |   |   |   |   |   |   |   |   Ch161 > 7.1: dup (10.0)
|   |   |   |   |   |   |   |   |   |   |   |   |   |   |   |   |   Ch111 > 8.19: non (7.0)
|   |   |   |   |   |   |   |   |   |   |   |   |   |   |   Ch111 > 8.63
|   |   |   |   |   |   |   |   |   |   |   |   |   |   |   |   prior <= 0.33: non (3.0/1.0)
|   |   |   |   |   |   |   |   |   |   |   |   |   |   |   |   prior > 0.33
|   |   |   |   |   |   |   |   |   |   |   |   |   |   |   |   |   Ch121 <= 13.14
|   |   |   |   |   |   |   |   |   |   |   |   |   |   |   |   |   |   Ch61 <= 6.31: dup (30.0)
|   |   |   |   |   |   |   |   |   |   |   |   |   |   |   |   |   |   Ch61 > 6.31
|   |   |   |   |   |   |   |   |   |   |   |   |   |   |   |   |   |   |    parsing1 <= 3.9: non (2.0)
|   |   |   |   |   |   |   |   |   |   |   |   |   |   |   |   |   |   |    parsing1 > 3.9: dup (4.0)
|   |   |   |   |   |   |   |   |   |   |   |   |   |   |   |   |   Ch121 > 13.14: non (2.0)
|   |   |   |   |   |   |   |   |   |   |   |   |   |    parsing1 > 4.49
|   |   |   |   |   |   |   |   |   |   |   |   |   |   |   prior <= 0.5
|   |   |   |   |   |   |   |   |   |   |   |   |   |   |   |   bmfu <= 8.36: dup (6.0)
|   |   |   |   |   |   |   |   |   |   |   |   |   |   |   |   bmfu > 8.36: non (3.0)
|   |   |   |   |   |   |   |   |   |   |   |   |   |   |   prior > 0.5
|   |   |   |   |   |   |   |   |   |   |   |   |   |   |   |   Ch191 <= 3.72
|   |   |   |   |   |   |   |   |   |   |   |   |   |   |   |   |   Ch102 <= 8.88: non (23.0)
|   |   |   |   |   |   |   |   |   |   |   |   |   |   |   |   |   Ch102 > 8.88
|   |   |   |   |   |   |   |   |   |   |   |   |   |   |   |   |   |    intermediate1 <= 7.33: dup (2.0)
|   |   |   |   |   |   |   |   |   |   |   |   |   |   |   |   |   |    intermediate1 > 7.33: non (2.0)
|   |   |   |   |   |   |   |   |   |   |   |   |   |   |   |   Ch191 > 3.72
|   |   |   |   |   |   |   |   |   |   |   |   |   |   |   |   |   Ch121 <= 7.82
|   |   |   |   |   |   |   |   |   |   |   |   |   |   |   |   |   |   Ch22 <= 4.19
|   |   |   |   |   |   |   |   |   |   |   |   |   |   |   |   |   |   |    intermediate1 <= 10.81: dup (17.0)
|   |   |   |   |   |   |   |   |   |   |   |   |   |   |   |   |   |   |    intermediate1 > 10.81
|   |   |   |   |   |   |   |   |   |   |   |   |   |   |   |   |   |   |   |    introLexical1 <= 11.91: non (3.0)
|   |   |   |   |   |   |   |   |   |   |   |   |   |   |   |   |   |   |   |    introLexical1 > 11.91: dup (3.0)
|   |   |   |   |   |   |   |   |   |   |   |   |   |   |   |   |   |   Ch22 > 4.19
|   |   |   |   |   |   |   |   |   |   |   |   |   |   |   |   |   |   |   Ch191 <= 6.58: non (7.0)
|   |   |   |   |   |   |   |   |   |   |   |   |   |   |   |   |   |   |   Ch191 > 6.58: dup (3.0)
|   |   |   |   |   |   |   |   |   |   |   |   |   |   |   |   |   Ch121 > 7.82
|   |   |   |   |   |   |   |   |   |   |   |   |   |   |   |   |   |   Ch132 <= 1.7: dup (4.0)
|   |   |   |   |   |   |   |   |   |   |   |   |   |   |   |   |   |   Ch132 > 1.7
|   |   |   |   |   |   |   |   |   |   |   |   |   |   |   |   |   |   |   Ch192 <= 3.86: non (26.0)
|   |   |   |   |   |   |   |   |   |   |   |   |   |   |   |   |   |   |   Ch192 > 3.86
|   |   |   |   |   |   |   |   |   |   |   |   |   |   |   |   |   |   |   |   Ch111 <= 9.15: non (9.0)
|   |   |   |   |   |   |   |   |   |   |   |   |   |   |   |   |   |   |   |   Ch111 > 9.15
|   |   |   |   |   |   |   |   |   |   |   |   |   |   |   |   |   |   |   |   |   Ch11 <= 12.32
|   |   |   |   |   |   |   |   |   |   |   |   |   |   |   |   |   |   |   |   |   |    parsing1 <= 5.72
|   |   |   |   |   |   |   |   |   |   |   |   |   |   |   |   |   |   |   |   |   |   |   Ch21 <= 7: non (8.0)
|   |   |   |   |   |   |   |   |   |   |   |   |   |   |   |   |   |   |   |   |   |   |   Ch21 > 7: dup (2.0)
|   |   |   |   |   |   |   |   |   |   |   |   |   |   |   |   |   |   |   |   |   |    parsing1 > 5.72
|   |   |   |   |   |   |   |   |   |   |   |   |   |   |   |   |   |   |   |   |   |   |    intstructions2 <= 4.61: non (3.0)
|   |   |   |   |   |   |   |   |   |   |   |   |   |   |   |   |   |   |   |   |   |   |    intstructions2 > 4.61: dup (14.0)
|   |   |   |   |   |   |   |   |   |   |   |   |   |   |   |   |   |   |   |   |   Ch11 > 12.32: non (8.0)
|   |   |   |   |   |   |   |   |   |   |   |   |   cosine_similarity > 0.982: non (16.0/1.0)
|   |   |   |   |   |   |   |   |   |   |   |    intstructions2 > 11.29
|   |   |   |   |   |   |   |   |   |   |   |   |   Ch152 <= 7.82: dup (17.0)
|   |   |   |   |   |   |   |   |   |   |   |   |   Ch152 > 7.82: non (2.0)
|   |   |   |   |   |   |   |   |   |   |    garbage2 > 8.5
|   |   |   |   |   |   |   |   |   |   |   |    parsing2 <= 12.12
|   |   |   |   |   |   |   |   |   |   |   |   |   Ch152 <= 2.6: dup (4.0/1.0)
|   |   |   |   |   |   |   |   |   |   |   |   |   Ch152 > 2.6
|   |   |   |   |   |   |   |   |   |   |   |   |   |   bmfb <= 0.18
|   |   |   |   |   |   |   |   |   |   |   |   |   |   |    parsing2 <= 7.42: dup (3.0)
|   |   |   |   |   |   |   |   |   |   |   |   |   |   |    parsing2 > 7.42: non (6.0/1.0)
|   |   |   |   |   |   |   |   |   |   |   |   |   |   bmfb > 0.18: non (44.0)
|   |   |   |   |   |   |   |   |   |   |   |    parsing2 > 12.12: dup (4.0)
|   |   |   |   |   |   |   |   |   |   Ch192 > 8.59
|   |   |   |   |   |   |   |   |   |   |   cosine_similarity <= 0.91: non (4.0)
|   |   |   |   |   |   |   |   |   |   |   cosine_similarity > 0.91
|   |   |   |   |   |   |   |   |   |   |   |   bmfb <= 10.67
|   |   |   |   |   |   |   |   |   |   |   |   |   bmfu <= 6.26
|   |   |   |   |   |   |   |   |   |   |   |   |   |   Ch121 <= 9.03: dup (10.0)
|   |   |   |   |   |   |   |   |   |   |   |   |   |   Ch121 > 9.03: non (4.0)
|   |   |   |   |   |   |   |   |   |   |   |   |   bmfu > 6.26: dup (29.0)
|   |   |   |   |   |   |   |   |   |   |   |   bmfb > 10.67: non (3.0)
|   |   |   |   |   |   |   |   |   Ch22 > 7.6
|   |   |   |   |   |   |   |   |   |    intermediate2 <= 5.32: non (5.0/2.0)
|   |   |   |   |   |   |   |   |   |    intermediate2 > 5.32
|   |   |   |   |   |   |   |   |   |   |    oops2 <= 16.6: dup (47.0/1.0)
|   |   |   |   |   |   |   |   |   |   |    oops2 > 16.6: non (3.0/1.0)
|   |   |   |   |   |   |   |   comp > 0
|   |   |   |   |   |   |   |   |   Ch72 <= 2.06
|   |   |   |   |   |   |   |   |   |    garbage2 <= 2.9
|   |   |   |   |   |   |   |   |   |   |   Ch82 <= 1.44: non (10.0)
|   |   |   |   |   |   |   |   |   |   |   Ch82 > 1.44
|   |   |   |   |   |   |   |   |   |   |   |   Ch141 <= 3.16
|   |   |   |   |   |   |   |   |   |   |   |   |   prior <= 0.5: dup (3.0)
|   |   |   |   |   |   |   |   |   |   |   |   |   prior > 0.5
|   |   |   |   |   |   |   |   |   |   |   |   |   |   Ch102 <= 2.32: non (7.0)
|   |   |   |   |   |   |   |   |   |   |   |   |   |   Ch102 > 2.32
|   |   |   |   |   |   |   |   |   |   |   |   |   |   |   Ch71 <= 3.92: dup (9.0)
|   |   |   |   |   |   |   |   |   |   |   |   |   |   |   Ch71 > 3.92: non (5.0)
|   |   |   |   |   |   |   |   |   |   |   |   Ch141 > 3.16: dup (14.0)
|   |   |   |   |   |   |   |   |   |    garbage2 > 2.9
|   |   |   |   |   |   |   |   |   |   |   Ch141 <= 1.12: dup (2.0)
|   |   |   |   |   |   |   |   |   |   |   Ch141 > 1.12
|   |   |   |   |   |   |   |   |   |   |   |   Ch162 <= 5.31: non (29.0)
|   |   |   |   |   |   |   |   |   |   |   |   Ch162 > 5.31: dup (3.0/1.0)
|   |   |   |   |   |   |   |   |   Ch72 > 2.06
|   |   |   |   |   |   |   |   |   |   Ch52 <= 3.37: dup (41.0)
|   |   |   |   |   |   |   |   |   |   Ch52 > 3.37
|   |   |   |   |   |   |   |   |   |   |   Ch172 <= 9
|   |   |   |   |   |   |   |   |   |   |   |   cosine_similarity <= 0.994
|   |   |   |   |   |   |   |   |   |   |   |   |   Ch181 <= 11.22
|   |   |   |   |   |   |   |   |   |   |   |   |   |   Ch62 <= 0.89
|   |   |   |   |   |   |   |   |   |   |   |   |   |   |   Ch191 <= 2.89: non (22.0/1.0)
|   |   |   |   |   |   |   |   |   |   |   |   |   |   |   Ch191 > 2.89
|   |   |   |   |   |   |   |   |   |   |   |   |   |   |   |   Ch31 <= 5.35: dup (7.0)
|   |   |   |   |   |   |   |   |   |   |   |   |   |   |   |   Ch31 > 5.35
|   |   |   |   |   |   |   |   |   |   |   |   |   |   |   |   |    polymorhic1 <= 9.79
|   |   |   |   |   |   |   |   |   |   |   |   |   |   |   |   |   |    parsing2 <= 1.62: dup (2.0)
|   |   |   |   |   |   |   |   |   |   |   |   |   |   |   |   |   |    parsing2 > 1.62: non (11.0)
|   |   |   |   |   |   |   |   |   |   |   |   |   |   |   |   |    polymorhic1 > 9.79: dup (4.0)
|   |   |   |   |   |   |   |   |   |   |   |   |   |   Ch62 > 0.89
|   |   |   |   |   |   |   |   |   |   |   |   |   |   |   Ch22 <= 1.59
|   |   |   |   |   |   |   |   |   |   |   |   |   |   |   |   Ch102 <= 9.89
|   |   |   |   |   |   |   |   |   |   |   |   |   |   |   |   |   Ch102 <= 5.73
|   |   |   |   |   |   |   |   |   |   |   |   |   |   |   |   |   |   prior <= 0.5: non (3.0)
|   |   |   |   |   |   |   |   |   |   |   |   |   |   |   |   |   |   prior > 0.5
|   |   |   |   |   |   |   |   |   |   |   |   |   |   |   |   |   |   |   cosine_similarity <= 0.977
|   |   |   |   |   |   |   |   |   |   |   |   |   |   |   |   |   |   |   |   bmfu <= 4.75
|   |   |   |   |   |   |   |   |   |   |   |   |   |   |   |   |   |   |   |   |   Ch181 <= 6.37: non (4.0)
|   |   |   |   |   |   |   |   |   |   |   |   |   |   |   |   |   |   |   |   |   Ch181 > 6.37
|   |   |   |   |   |   |   |   |   |   |   |   |   |   |   |   |   |   |   |   |   |    hueristics2 <= 6.93: dup (6.0)
|   |   |   |   |   |   |   |   |   |   |   |   |   |   |   |   |   |   |   |   |   |    hueristics2 > 6.93: non (2.0)
|   |   |   |   |   |   |   |   |   |   |   |   |   |   |   |   |   |   |   |   bmfu > 4.75
|   |   |   |   |   |   |   |   |   |   |   |   |   |   |   |   |   |   |   |   |   Ch132 <= 4.04: dup (36.0/1.0)
|   |   |   |   |   |   |   |   |   |   |   |   |   |   |   |   |   |   |   |   |   Ch132 > 4.04: non (2.0)
|   |   |   |   |   |   |   |   |   |   |   |   |   |   |   |   |   |   |   cosine_similarity > 0.977: non (3.0)
|   |   |   |   |   |   |   |   |   |   |   |   |   |   |   |   |   Ch102 > 5.73: dup (56.0)
|   |   |   |   |   |   |   |   |   |   |   |   |   |   |   |   Ch102 > 9.89: non (7.0/1.0)
|   |   |   |   |   |   |   |   |   |   |   |   |   |   |   Ch22 > 1.59
|   |   |   |   |   |   |   |   |   |   |   |   |   |   |   |   prior <= 0.5
|   |   |   |   |   |   |   |   |   |   |   |   |   |   |   |   |   Ch21 <= 1.79
|   |   |   |   |   |   |   |   |   |   |   |   |   |   |   |   |   |   Ch21 <= 1.39: dup (4.0)
|   |   |   |   |   |   |   |   |   |   |   |   |   |   |   |   |   |   Ch21 > 1.39: non (7.0/1.0)
|   |   |   |   |   |   |   |   |   |   |   |   |   |   |   |   |   Ch21 > 1.79
|   |   |   |   |   |   |   |   |   |   |   |   |   |   |   |   |   |   bmfb <= 11.4: dup (35.0)
|   |   |   |   |   |   |   |   |   |   |   |   |   |   |   |   |   |   bmfb > 11.4: non (4.0/1.0)
|   |   |   |   |   |   |   |   |   |   |   |   |   |   |   |   prior > 0.5
|   |   |   |   |   |   |   |   |   |   |   |   |   |   |   |   |   Ch12 <= 2.74
|   |   |   |   |   |   |   |   |   |   |   |   |   |   |   |   |   |    ssa2 <= 1.74: dup (4.0)
|   |   |   |   |   |   |   |   |   |   |   |   |   |   |   |   |   |    ssa2 > 1.74
|   |   |   |   |   |   |   |   |   |   |   |   |   |   |   |   |   |   |   Ch101 <= 7.97: non (24.0)
|   |   |   |   |   |   |   |   |   |   |   |   |   |   |   |   |   |   |   Ch101 > 7.97
|   |   |   |   |   |   |   |   |   |   |   |   |   |   |   |   |   |   |   |   Ch21 <= 2.21: non (2.0)
|   |   |   |   |   |   |   |   |   |   |   |   |   |   |   |   |   |   |   |   Ch21 > 2.21: dup (4.0)
|   |   |   |   |   |   |   |   |   |   |   |   |   |   |   |   |   Ch12 > 2.74
|   |   |   |   |   |   |   |   |   |   |   |   |   |   |   |   |   |   Ch141 <= 6.43
|   |   |   |   |   |   |   |   |   |   |   |   |   |   |   |   |   |   |   Ch132 <= 8.99
|   |   |   |   |   |   |   |   |   |   |   |   |   |   |   |   |   |   |   |   Ch61 <= 1.88
|   |   |   |   |   |   |   |   |   |   |   |   |   |   |   |   |   |   |   |   |    memory2 <= 1.22: non (10.0)
|   |   |   |   |   |   |   |   |   |   |   |   |   |   |   |   |   |   |   |   |    memory2 > 1.22
|   |   |   |   |   |   |   |   |   |   |   |   |   |   |   |   |   |   |   |   |   |    polymorhic1 <= 1.3: dup (9.0)
|   |   |   |   |   |   |   |   |   |   |   |   |   |   |   |   |   |   |   |   |   |    polymorhic1 > 1.3
|   |   |   |   |   |   |   |   |   |   |   |   |   |   |   |   |   |   |   |   |   |   |   Ch181 <= 3.08
|   |   |   |   |   |   |   |   |   |   |   |   |   |   |   |   |   |   |   |   |   |   |   |   Ch191 <= 0.72: non (3.0/1.0)
|   |   |   |   |   |   |   |   |   |   |   |   |   |   |   |   |   |   |   |   |   |   |   |   Ch191 > 0.72: dup (12.0)
|   |   |   |   |   |   |   |   |   |   |   |   |   |   |   |   |   |   |   |   |   |   |   Ch181 > 3.08
|   |   |   |   |   |   |   |   |   |   |   |   |   |   |   |   |   |   |   |   |   |   |   |   Ch101 <= 1.93: non (14.0)
|   |   |   |   |   |   |   |   |   |   |   |   |   |   |   |   |   |   |   |   |   |   |   |   Ch101 > 1.93
|   |   |   |   |   |   |   |   |   |   |   |   |   |   |   |   |   |   |   |   |   |   |   |   |    garbage1 <= 2.27
|   |   |   |   |   |   |   |   |   |   |   |   |   |   |   |   |   |   |   |   |   |   |   |   |   |    parsing1 <= 0.35: non (3.0)
|   |   |   |   |   |   |   |   |   |   |   |   |   |   |   |   |   |   |   |   |   |   |   |   |   |    parsing1 > 0.35: dup (17.0/1.0)
|   |   |   |   |   |   |   |   |   |   |   |   |   |   |   |   |   |   |   |   |   |   |   |   |    garbage1 > 2.27
|   |   |   |   |   |   |   |   |   |   |   |   |   |   |   |   |   |   |   |   |   |   |   |   |   |   Ch51 <= 8.57: non (18.0/1.0)
|   |   |   |   |   |   |   |   |   |   |   |   |   |   |   |   |   |   |   |   |   |   |   |   |   |   Ch51 > 8.57
|   |   |   |   |   |   |   |   |   |   |   |   |   |   |   |   |   |   |   |   |   |   |   |   |   |   |    liveRegisters2 <= 7.16
|   |   |   |   |   |   |   |   |   |   |   |   |   |   |   |   |   |   |   |   |   |   |   |   |   |   |   |   Ch22 <= 5.09: dup (16.0/1.0)
|   |   |   |   |   |   |   |   |   |   |   |   |   |   |   |   |   |   |   |   |   |   |   |   |   |   |   |   Ch22 > 5.09: non (3.0)
|   |   |   |   |   |   |   |   |   |   |   |   |   |   |   |   |   |   |   |   |   |   |   |   |   |   |    liveRegisters2 > 7.16
|   |   |   |   |   |   |   |   |   |   |   |   |   |   |   |   |   |   |   |   |   |   |   |   |   |   |   |    liveRegisters2 <= 9.66: non (11.0)
|   |   |   |   |   |   |   |   |   |   |   |   |   |   |   |   |   |   |   |   |   |   |   |   |   |   |   |    liveRegisters2 > 9.66
|   |   |   |   |   |   |   |   |   |   |   |   |   |   |   |   |   |   |   |   |   |   |   |   |   |   |   |   |    hueristics1 <= 10.84
|   |   |   |   |   |   |   |   |   |   |   |   |   |   |   |   |   |   |   |   |   |   |   |   |   |   |   |   |   |    parsing1 <= 2.3: non (2.0)
|   |   |   |   |   |   |   |   |   |   |   |   |   |   |   |   |   |   |   |   |   |   |   |   |   |   |   |   |   |    parsing1 > 2.3: dup (7.0)
|   |   |   |   |   |   |   |   |   |   |   |   |   |   |   |   |   |   |   |   |   |   |   |   |   |   |   |   |    hueristics1 > 10.84: non (8.0)
|   |   |   |   |   |   |   |   |   |   |   |   |   |   |   |   |   |   |   |   Ch61 > 1.88
|   |   |   |   |   |   |   |   |   |   |   |   |   |   |   |   |   |   |   |   |   bmfb <= 0.61
|   |   |   |   |   |   |   |   |   |   |   |   |   |   |   |   |   |   |   |   |   |   Ch82 <= 3.43: non (4.0/1.0)
|   |   |   |   |   |   |   |   |   |   |   |   |   |   |   |   |   |   |   |   |   |   Ch82 > 3.43
|   |   |   |   |   |   |   |   |   |   |   |   |   |   |   |   |   |   |   |   |   |   |   Ch81 <= 3.42
|   |   |   |   |   |   |   |   |   |   |   |   |   |   |   |   |   |   |   |   |   |   |   |    liveRegisters1 <= 5.22: dup (4.0)
|   |   |   |   |   |   |   |   |   |   |   |   |   |   |   |   |   |   |   |   |   |   |   |    liveRegisters1 > 5.22: non (2.0)
|   |   |   |   |   |   |   |   |   |   |   |   |   |   |   |   |   |   |   |   |   |   |   Ch81 > 3.42: dup (36.0)
|   |   |   |   |   |   |   |   |   |   |   |   |   |   |   |   |   |   |   |   |   bmfb > 0.61
|   |   |   |   |   |   |   |   |   |   |   |   |   |   |   |   |   |   |   |   |   |   Ch112 <= 11.69
|   |   |   |   |   |   |   |   |   |   |   |   |   |   |   |   |   |   |   |   |   |   |   Ch132 <= 4.45
|   |   |   |   |   |   |   |   |   |   |   |   |   |   |   |   |   |   |   |   |   |   |   |   Ch161 <= 4.57: dup (28.0)
|   |   |   |   |   |   |   |   |   |   |   |   |   |   |   |   |   |   |   |   |   |   |   |   Ch161 > 4.57
|   |   |   |   |   |   |   |   |   |   |   |   |   |   |   |   |   |   |   |   |   |   |   |   |    semantics1 <= 3.66: non (5.0)
|   |   |   |   |   |   |   |   |   |   |   |   |   |   |   |   |   |   |   |   |   |   |   |   |    semantics1 > 3.66
|   |   |   |   |   |   |   |   |   |   |   |   |   |   |   |   |   |   |   |   |   |   |   |   |   |   Ch162 <= 5.2
|   |   |   |   |   |   |   |   |   |   |   |   |   |   |   |   |   |   |   |   |   |   |   |   |   |   |   Ch131 <= 6.34
|   |   |   |   |   |   |   |   |   |   |   |   |   |   |   |   |   |   |   |   |   |   |   |   |   |   |   |    functional1 <= 2.35: non (10.0/1.0)
|   |   |   |   |   |   |   |   |   |   |   |   |   |   |   |   |   |   |   |   |   |   |   |   |   |   |   |    functional1 > 2.35
|   |   |   |   |   |   |   |   |   |   |   |   |   |   |   |   |   |   |   |   |   |   |   |   |   |   |   |   |    memory2 <= 0.4: non (2.0)
|   |   |   |   |   |   |   |   |   |   |   |   |   |   |   |   |   |   |   |   |   |   |   |   |   |   |   |   |    memory2 > 0.4: dup (20.0)
|   |   |   |   |   |   |   |   |   |   |   |   |   |   |   |   |   |   |   |   |   |   |   |   |   |   |   Ch131 > 6.34: non (8.0)
|   |   |   |   |   |   |   |   |   |   |   |   |   |   |   |   |   |   |   |   |   |   |   |   |   |   Ch162 > 5.2
|   |   |   |   |   |   |   |   |   |   |   |   |   |   |   |   |   |   |   |   |   |   |   |   |   |   |   Ch11 <= 2.99: non (4.0/1.0)
|   |   |   |   |   |   |   |   |   |   |   |   |   |   |   |   |   |   |   |   |   |   |   |   |   |   |   Ch11 > 2.99
|   |   |   |   |   |   |   |   |   |   |   |   |   |   |   |   |   |   |   |   |   |   |   |   |   |   |   |   Ch72 <= 7.32: dup (35.0)
|   |   |   |   |   |   |   |   |   |   |   |   |   |   |   |   |   |   |   |   |   |   |   |   |   |   |   |   Ch72 > 7.32
|   |   |   |   |   |   |   |   |   |   |   |   |   |   |   |   |   |   |   |   |   |   |   |   |   |   |   |   |   Ch11 <= 7: dup (5.0)
|   |   |   |   |   |   |   |   |   |   |   |   |   |   |   |   |   |   |   |   |   |   |   |   |   |   |   |   |   Ch11 > 7: non (2.0)
|   |   |   |   |   |   |   |   |   |   |   |   |   |   |   |   |   |   |   |   |   |   |   Ch132 > 4.45
|   |   |   |   |   |   |   |   |   |   |   |   |   |   |   |   |   |   |   |   |   |   |   |    semantics1 <= 2.87: non (8.0)
|   |   |   |   |   |   |   |   |   |   |   |   |   |   |   |   |   |   |   |   |   |   |   |    semantics1 > 2.87
|   |   |   |   |   |   |   |   |   |   |   |   |   |   |   |   |   |   |   |   |   |   |   |   |   Ch142 <= 3.89
|   |   |   |   |   |   |   |   |   |   |   |   |   |   |   |   |   |   |   |   |   |   |   |   |   |   Ch182 <= 5.91
|   |   |   |   |   |   |   |   |   |   |   |   |   |   |   |   |   |   |   |   |   |   |   |   |   |   |   Ch161 <= 5: non (2.0)
|   |   |   |   |   |   |   |   |   |   |   |   |   |   |   |   |   |   |   |   |   |   |   |   |   |   |   Ch161 > 5: dup (6.0)
|   |   |   |   |   |   |   |   |   |   |   |   |   |   |   |   |   |   |   |   |   |   |   |   |   |   Ch182 > 5.91: non (22.0/1.0)
|   |   |   |   |   |   |   |   |   |   |   |   |   |   |   |   |   |   |   |   |   |   |   |   |   Ch142 > 3.89
|   |   |   |   |   |   |   |   |   |   |   |   |   |   |   |   |   |   |   |   |   |   |   |   |   |   Ch171 <= 3.78: non (7.0/1.0)
|   |   |   |   |   |   |   |   |   |   |   |   |   |   |   |   |   |   |   |   |   |   |   |   |   |   Ch171 > 3.78
|   |   |   |   |   |   |   |   |   |   |   |   |   |   |   |   |   |   |   |   |   |   |   |   |   |   |   bmfb <= 1.82
|   |   |   |   |   |   |   |   |   |   |   |   |   |   |   |   |   |   |   |   |   |   |   |   |   |   |   |   Ch181 <= 9.01: non (8.0)
|   |   |   |   |   |   |   |   |   |   |   |   |   |   |   |   |   |   |   |   |   |   |   |   |   |   |   |   Ch181 > 9.01: dup (3.0)
|   |   |   |   |   |   |   |   |   |   |   |   |   |   |   |   |   |   |   |   |   |   |   |   |   |   |   bmfb > 1.82
|   |   |   |   |   |   |   |   |   |   |   |   |   |   |   |   |   |   |   |   |   |   |   |   |   |   |   |   Ch192 <= 3.1
|   |   |   |   |   |   |   |   |   |   |   |   |   |   |   |   |   |   |   |   |   |   |   |   |   |   |   |   |    pipeline1 <= 8.77: non (3.0)
|   |   |   |   |   |   |   |   |   |   |   |   |   |   |   |   |   |   |   |   |   |   |   |   |   |   |   |   |    pipeline1 > 8.77: dup (2.0)
|   |   |   |   |   |   |   |   |   |   |   |   |   |   |   |   |   |   |   |   |   |   |   |   |   |   |   |   Ch192 > 3.1
|   |   |   |   |   |   |   |   |   |   |   |   |   |   |   |   |   |   |   |   |   |   |   |   |   |   |   |   |   Ch81 <= 8.23: dup (33.0)
|   |   |   |   |   |   |   |   |   |   |   |   |   |   |   |   |   |   |   |   |   |   |   |   |   |   |   |   |   Ch81 > 8.23
|   |   |   |   |   |   |   |   |   |   |   |   |   |   |   |   |   |   |   |   |   |   |   |   |   |   |   |   |   |   Ch32 <= 9.25: dup (6.0)
|   |   |   |   |   |   |   |   |   |   |   |   |   |   |   |   |   |   |   |   |   |   |   |   |   |   |   |   |   |   Ch32 > 9.25: non (7.0/1.0)
|   |   |   |   |   |   |   |   |   |   |   |   |   |   |   |   |   |   |   |   |   |   Ch112 > 11.69: dup (16.0)
|   |   |   |   |   |   |   |   |   |   |   |   |   |   |   |   |   |   |   Ch132 > 8.99: dup (23.0/1.0)
|   |   |   |   |   |   |   |   |   |   |   |   |   |   |   |   |   |   Ch141 > 6.43
|   |   |   |   |   |   |   |   |   |   |   |   |   |   |   |   |   |   |   Ch111 <= 13.5
|   |   |   |   |   |   |   |   |   |   |   |   |   |   |   |   |   |   |   |   cosine_similarity <= 0.932: non (13.0)
|   |   |   |   |   |   |   |   |   |   |   |   |   |   |   |   |   |   |   |   cosine_similarity > 0.932
|   |   |   |   |   |   |   |   |   |   |   |   |   |   |   |   |   |   |   |   |   Ch151 <= 4.83: dup (12.0/1.0)
|   |   |   |   |   |   |   |   |   |   |   |   |   |   |   |   |   |   |   |   |   Ch151 > 4.83
|   |   |   |   |   |   |   |   |   |   |   |   |   |   |   |   |   |   |   |   |   |    garbage2 <= 3.74
|   |   |   |   |   |   |   |   |   |   |   |   |   |   |   |   |   |   |   |   |   |   |   bmfb <= 4.87: non (2.0)
|   |   |   |   |   |   |   |   |   |   |   |   |   |   |   |   |   |   |   |   |   |   |   bmfb > 4.87: dup (5.0)
|   |   |   |   |   |   |   |   |   |   |   |   |   |   |   |   |   |   |   |   |   |    garbage2 > 3.74
|   |   |   |   |   |   |   |   |   |   |   |   |   |   |   |   |   |   |   |   |   |   |    ssa2 <= 11.18: non (24.0/1.0)
|   |   |   |   |   |   |   |   |   |   |   |   |   |   |   |   |   |   |   |   |   |   |    ssa2 > 11.18: dup (2.0)
|   |   |   |   |   |   |   |   |   |   |   |   |   |   |   |   |   |   |   Ch111 > 13.5: dup (5.0)
|   |   |   |   |   |   |   |   |   |   |   |   |   Ch181 > 11.22
|   |   |   |   |   |   |   |   |   |   |   |   |   |   Ch171 <= 13.49
|   |   |   |   |   |   |   |   |   |   |   |   |   |   |   Ch91 <= 11.57: dup (83.0/3.0)
|   |   |   |   |   |   |   |   |   |   |   |   |   |   |   Ch91 > 11.57
|   |   |   |   |   |   |   |   |   |   |   |   |   |   |   |   Ch41 <= 19.1
|   |   |   |   |   |   |   |   |   |   |   |   |   |   |   |   |    introLexical1 <= 9.36
|   |   |   |   |   |   |   |   |   |   |   |   |   |   |   |   |   |    pipeline1 <= 6.04
|   |   |   |   |   |   |   |   |   |   |   |   |   |   |   |   |   |   |    hueristics1 <= 8.66: dup (4.0)
|   |   |   |   |   |   |   |   |   |   |   |   |   |   |   |   |   |   |    hueristics1 > 8.66: non (2.0)
|   |   |   |   |   |   |   |   |   |   |   |   |   |   |   |   |   |    pipeline1 > 6.04: dup (23.0)
|   |   |   |   |   |   |   |   |   |   |   |   |   |   |   |   |    introLexical1 > 9.36
|   |   |   |   |   |   |   |   |   |   |   |   |   |   |   |   |   |    intermediate2 <= 7.08
|   |   |   |   |   |   |   |   |   |   |   |   |   |   |   |   |   |   |   Ch21 <= 3.46: dup (3.0)
|   |   |   |   |   |   |   |   |   |   |   |   |   |   |   |   |   |   |   Ch21 > 3.46
|   |   |   |   |   |   |   |   |   |   |   |   |   |   |   |   |   |   |   |   cosine_similarity <= 0.977: non (19.0/1.0)
|   |   |   |   |   |   |   |   |   |   |   |   |   |   |   |   |   |   |   |   cosine_similarity > 0.977: dup (2.0)
|   |   |   |   |   |   |   |   |   |   |   |   |   |   |   |   |   |    intermediate2 > 7.08
|   |   |   |   |   |   |   |   |   |   |   |   |   |   |   |   |   |   |   Ch32 <= 12.3: dup (18.0)
|   |   |   |   |   |   |   |   |   |   |   |   |   |   |   |   |   |   |   Ch32 > 12.3
|   |   |   |   |   |   |   |   |   |   |   |   |   |   |   |   |   |   |   |   bmfb <= 2.83: dup (3.0)
|   |   |   |   |   |   |   |   |   |   |   |   |   |   |   |   |   |   |   |   bmfb > 2.83: non (5.0)
|   |   |   |   |   |   |   |   |   |   |   |   |   |   |   |   Ch41 > 19.1
|   |   |   |   |   |   |   |   |   |   |   |   |   |   |   |   |   Ch111 <= 13.62
|   |   |   |   |   |   |   |   |   |   |   |   |   |   |   |   |   |    memory1 <= 7.54: dup (9.0)
|   |   |   |   |   |   |   |   |   |   |   |   |   |   |   |   |   |    memory1 > 7.54: non (4.0/1.0)
|   |   |   |   |   |   |   |   |   |   |   |   |   |   |   |   |   Ch111 > 13.62: dup (38.0)
|   |   |   |   |   |   |   |   |   |   |   |   |   |   Ch171 > 13.49
|   |   |   |   |   |   |   |   |   |   |   |   |   |   |    oops2 <= 4.43: dup (3.0)
|   |   |   |   |   |   |   |   |   |   |   |   |   |   |    oops2 > 4.43
|   |   |   |   |   |   |   |   |   |   |   |   |   |   |   |   Ch61 <= 9.47: non (12.0/1.0)
|   |   |   |   |   |   |   |   |   |   |   |   |   |   |   |   Ch61 > 9.47: dup (2.0)
|   |   |   |   |   |   |   |   |   |   |   |   cosine_similarity > 0.994: dup (29.0)
|   |   |   |   |   |   |   |   |   |   |   Ch172 > 9
|   |   |   |   |   |   |   |   |   |   |   |   prior <= 0.5
|   |   |   |   |   |   |   |   |   |   |   |   |   prior <= 0.33: dup (11.0)
|   |   |   |   |   |   |   |   |   |   |   |   |   prior > 0.33
|   |   |   |   |   |   |   |   |   |   |   |   |   |   Ch72 <= 8.84: non (6.0)
|   |   |   |   |   |   |   |   |   |   |   |   |   |   Ch72 > 8.84
|   |   |   |   |   |   |   |   |   |   |   |   |   |   |    liveRegisters2 <= 3.82: non (2.0)
|   |   |   |   |   |   |   |   |   |   |   |   |   |   |    liveRegisters2 > 3.82: dup (7.0)
|   |   |   |   |   |   |   |   |   |   |   |   prior > 0.5
|   |   |   |   |   |   |   |   |   |   |   |   |    parsing2 <= 3.63: dup (43.0)
|   |   |   |   |   |   |   |   |   |   |   |   |    parsing2 > 3.63
|   |   |   |   |   |   |   |   |   |   |   |   |   |   Ch191 <= 8.2
|   |   |   |   |   |   |   |   |   |   |   |   |   |   |    polymorhic2 <= 4.57
|   |   |   |   |   |   |   |   |   |   |   |   |   |   |   |    memory1 <= 7.24: non (6.0)
|   |   |   |   |   |   |   |   |   |   |   |   |   |   |   |    memory1 > 7.24: dup (2.0)
|   |   |   |   |   |   |   |   |   |   |   |   |   |   |    polymorhic2 > 4.57
|   |   |   |   |   |   |   |   |   |   |   |   |   |   |   |   Ch71 <= 6.34
|   |   |   |   |   |   |   |   |   |   |   |   |   |   |   |   |   Ch191 <= 1.09
|   |   |   |   |   |   |   |   |   |   |   |   |   |   |   |   |   |    liveRegisters1 <= 5.27: dup (2.0)
|   |   |   |   |   |   |   |   |   |   |   |   |   |   |   |   |   |    liveRegisters1 > 5.27: non (2.0)
|   |   |   |   |   |   |   |   |   |   |   |   |   |   |   |   |   Ch191 > 1.09: dup (60.0/1.0)
|   |   |   |   |   |   |   |   |   |   |   |   |   |   |   |   Ch71 > 6.34
|   |   |   |   |   |   |   |   |   |   |   |   |   |   |   |   |    intermediate2 <= 6.7: dup (15.0)
|   |   |   |   |   |   |   |   |   |   |   |   |   |   |   |   |    intermediate2 > 6.7
|   |   |   |   |   |   |   |   |   |   |   |   |   |   |   |   |   |    hueristics2 <= 8.26: non (7.0/1.0)
|   |   |   |   |   |   |   |   |   |   |   |   |   |   |   |   |   |    hueristics2 > 8.26
|   |   |   |   |   |   |   |   |   |   |   |   |   |   |   |   |   |   |   Ch182 <= 10.98
|   |   |   |   |   |   |   |   |   |   |   |   |   |   |   |   |   |   |   |    intstructions2 <= 9.42: dup (4.0)
|   |   |   |   |   |   |   |   |   |   |   |   |   |   |   |   |   |   |   |    intstructions2 > 9.42: non (7.0)
|   |   |   |   |   |   |   |   |   |   |   |   |   |   |   |   |   |   |   Ch182 > 10.98
|   |   |   |   |   |   |   |   |   |   |   |   |   |   |   |   |   |   |   |    parsing2 <= 5.45
|   |   |   |   |   |   |   |   |   |   |   |   |   |   |   |   |   |   |   |   |   Ch181 <= 8.38: dup (8.0)
|   |   |   |   |   |   |   |   |   |   |   |   |   |   |   |   |   |   |   |   |   Ch181 > 8.38: non (6.0)
|   |   |   |   |   |   |   |   |   |   |   |   |   |   |   |   |   |   |   |    parsing2 > 5.45
|   |   |   |   |   |   |   |   |   |   |   |   |   |   |   |   |   |   |   |   |   Ch172 <= 16.65: dup (37.0/1.0)
|   |   |   |   |   |   |   |   |   |   |   |   |   |   |   |   |   |   |   |   |   Ch172 > 16.65: non (3.0/1.0)
|   |   |   |   |   |   |   |   |   |   |   |   |   |   Ch191 > 8.2: dup (83.0/4.0)
|   |   |   |   |   bmfu > 15.21
|   |   |   |   |   |    hueristics1 <= 1.98
|   |   |   |   |   |   |   bmfu <= 17.89: dup (10.0)
|   |   |   |   |   |   |   bmfu > 17.89
|   |   |   |   |   |   |   |    parsing2 <= 1.18: non (16.0)
|   |   |   |   |   |   |   |    parsing2 > 1.18: dup (2.0)
|   |   |   |   |   |    hueristics1 > 1.98
|   |   |   |   |   |   |    intermediate1 <= 13.39
|   |   |   |   |   |   |   |   Ch192 <= 1.71
|   |   |   |   |   |   |   |   |   Ch172 <= 3.87
|   |   |   |   |   |   |   |   |   |   Ch152 <= 1.47: dup (4.0)
|   |   |   |   |   |   |   |   |   |   Ch152 > 1.47
|   |   |   |   |   |   |   |   |   |   |   Ch32 <= 3.36
|   |   |   |   |   |   |   |   |   |   |   |   cosine_similarity <= 0.996: dup (2.0)
|   |   |   |   |   |   |   |   |   |   |   |   cosine_similarity > 0.996
|   |   |   |   |   |   |   |   |   |   |   |   |    introLexical1 <= 4.88: non (2.0)
|   |   |   |   |   |   |   |   |   |   |   |   |    introLexical1 > 4.88
|   |   |   |   |   |   |   |   |   |   |   |   |   |   comp <= 0: non (3.0/1.0)
|   |   |   |   |   |   |   |   |   |   |   |   |   |   comp > 0: dup (2.0)
|   |   |   |   |   |   |   |   |   |   |   Ch32 > 3.36: non (11.0)
|   |   |   |   |   |   |   |   |   Ch172 > 3.87: dup (6.0)
|   |   |   |   |   |   |   |   Ch192 > 1.71
|   |   |   |   |   |   |   |   |   Ch62 <= 7.07
|   |   |   |   |   |   |   |   |   |    garbage1 <= 7.93
|   |   |   |   |   |   |   |   |   |   |   Ch161 <= 11.28
|   |   |   |   |   |   |   |   |   |   |   |   cosine_similarity <= 0.95
|   |   |   |   |   |   |   |   |   |   |   |   |   Ch132 <= 3.82
|   |   |   |   |   |   |   |   |   |   |   |   |   |   Ch31 <= 5.15: dup (36.0)
|   |   |   |   |   |   |   |   |   |   |   |   |   |   Ch31 > 5.15
|   |   |   |   |   |   |   |   |   |   |   |   |   |   |    intstructions1 <= 6.49: non (4.0/1.0)
|   |   |   |   |   |   |   |   |   |   |   |   |   |   |    intstructions1 > 6.49: dup (9.0)
|   |   |   |   |   |   |   |   |   |   |   |   |   Ch132 > 3.82
|   |   |   |   |   |   |   |   |   |   |   |   |   |    ssa1 <= 7.88
|   |   |   |   |   |   |   |   |   |   |   |   |   |   |   Ch132 <= 4.47: non (2.0)
|   |   |   |   |   |   |   |   |   |   |   |   |   |   |   Ch132 > 4.47
|   |   |   |   |   |   |   |   |   |   |   |   |   |   |   |   Ch51 <= 11.67: dup (7.0)
|   |   |   |   |   |   |   |   |   |   |   |   |   |   |   |   Ch51 > 11.67: non (3.0/1.0)
|   |   |   |   |   |   |   |   |   |   |   |   |   |    ssa1 > 7.88: non (4.0)
|   |   |   |   |   |   |   |   |   |   |   |   cosine_similarity > 0.95
|   |   |   |   |   |   |   |   |   |   |   |   |   Ch41 <= 6.71
|   |   |   |   |   |   |   |   |   |   |   |   |   |    polymorhic1 <= 4.96
|   |   |   |   |   |   |   |   |   |   |   |   |   |   |   Ch21 <= 0.89
|   |   |   |   |   |   |   |   |   |   |   |   |   |   |   |   Ch111 <= 2.54: non (4.0)
|   |   |   |   |   |   |   |   |   |   |   |   |   |   |   |   Ch111 > 2.54: dup (5.0)
|   |   |   |   |   |   |   |   |   |   |   |   |   |   |   Ch21 > 0.89
|   |   |   |   |   |   |   |   |   |   |   |   |   |   |   |   Ch161 <= 4.41: dup (94.0)
|   |   |   |   |   |   |   |   |   |   |   |   |   |   |   |   Ch161 > 4.41
|   |   |   |   |   |   |   |   |   |   |   |   |   |   |   |   |    garbage1 <= 2.54
|   |   |   |   |   |   |   |   |   |   |   |   |   |   |   |   |   |    introLexical1 <= 2.6: dup (2.0)
|   |   |   |   |   |   |   |   |   |   |   |   |   |   |   |   |   |    introLexical1 > 2.6: non (4.0)
|   |   |   |   |   |   |   |   |   |   |   |   |   |   |   |   |    garbage1 > 2.54: dup (30.0)
|   |   |   |   |   |   |   |   |   |   |   |   |   |    polymorhic1 > 4.96
|   |   |   |   |   |   |   |   |   |   |   |   |   |   |   Ch161 <= 4.04: non (6.0)
|   |   |   |   |   |   |   |   |   |   |   |   |   |   |   Ch161 > 4.04: dup (8.0/1.0)
|   |   |   |   |   |   |   |   |   |   |   |   |   Ch41 > 6.71
|   |   |   |   |   |   |   |   |   |   |   |   |   |   prior <= 0.5: dup (72.0)
|   |   |   |   |   |   |   |   |   |   |   |   |   |   prior > 0.5
|   |   |   |   |   |   |   |   |   |   |   |   |   |   |    polymorhic2 <= 5.75: dup (750.0/8.0)
|   |   |   |   |   |   |   |   |   |   |   |   |   |   |    polymorhic2 > 5.75
|   |   |   |   |   |   |   |   |   |   |   |   |   |   |   |   Ch172 <= 4.4
|   |   |   |   |   |   |   |   |   |   |   |   |   |   |   |   |    semantics2 <= 6.96
|   |   |   |   |   |   |   |   |   |   |   |   |   |   |   |   |   |   Ch92 <= 6.13: dup (6.0/1.0)
|   |   |   |   |   |   |   |   |   |   |   |   |   |   |   |   |   |   Ch92 > 6.13: non (8.0)
|   |   |   |   |   |   |   |   |   |   |   |   |   |   |   |   |    semantics2 > 6.96: dup (13.0)
|   |   |   |   |   |   |   |   |   |   |   |   |   |   |   |   Ch172 > 4.4
|   |   |   |   |   |   |   |   |   |   |   |   |   |   |   |   |   cosine_similarity <= 0.987
|   |   |   |   |   |   |   |   |   |   |   |   |   |   |   |   |   |    parsing2 <= 4.14
|   |   |   |   |   |   |   |   |   |   |   |   |   |   |   |   |   |   |   Ch41 <= 12.06: dup (9.0)
|   |   |   |   |   |   |   |   |   |   |   |   |   |   |   |   |   |   |   Ch41 > 12.06
|   |   |   |   |   |   |   |   |   |   |   |   |   |   |   |   |   |   |   |   Ch101 <= 6.3: dup (2.0)
|   |   |   |   |   |   |   |   |   |   |   |   |   |   |   |   |   |   |   |   Ch101 > 6.3: non (5.0)
|   |   |   |   |   |   |   |   |   |   |   |   |   |   |   |   |   |    parsing2 > 4.14
|   |   |   |   |   |   |   |   |   |   |   |   |   |   |   |   |   |   |    functional1 <= 7.12: dup (108.0/1.0)
|   |   |   |   |   |   |   |   |   |   |   |   |   |   |   |   |   |   |    functional1 > 7.12
|   |   |   |   |   |   |   |   |   |   |   |   |   |   |   |   |   |   |   |   Ch61 <= 2.73: non (3.0)
|   |   |   |   |   |   |   |   |   |   |   |   |   |   |   |   |   |   |   |   Ch61 > 2.73: dup (16.0)
|   |   |   |   |   |   |   |   |   |   |   |   |   |   |   |   |   cosine_similarity > 0.987: dup (162.0)
|   |   |   |   |   |   |   |   |   |   |   Ch161 > 11.28
|   |   |   |   |   |   |   |   |   |   |   |   Ch52 <= 12.63: non (8.0/1.0)
|   |   |   |   |   |   |   |   |   |   |   |   Ch52 > 12.63
|   |   |   |   |   |   |   |   |   |   |   |   |    oops1 <= 11.53: dup (24.0)
|   |   |   |   |   |   |   |   |   |   |   |   |    oops1 > 11.53
|   |   |   |   |   |   |   |   |   |   |   |   |   |   bmfu <= 29.67: dup (3.0)
|   |   |   |   |   |   |   |   |   |   |   |   |   |   bmfu > 29.67: non (2.0)
|   |   |   |   |   |   |   |   |   |    garbage1 > 7.93
|   |   |   |   |   |   |   |   |   |   |   Ch51 <= 9.33: non (6.0)
|   |   |   |   |   |   |   |   |   |   |   Ch51 > 9.33
|   |   |   |   |   |   |   |   |   |   |   |   cosine_similarity <= 0.997
|   |   |   |   |   |   |   |   |   |   |   |   |   Ch12 <= 7.59
|   |   |   |   |   |   |   |   |   |   |   |   |   |   Ch141 <= 3.35
|   |   |   |   |   |   |   |   |   |   |   |   |   |   |    intermediate1 <= 9.1: non (3.0)
|   |   |   |   |   |   |   |   |   |   |   |   |   |   |    intermediate1 > 9.1: dup (2.0)
|   |   |   |   |   |   |   |   |   |   |   |   |   |   Ch141 > 3.35: dup (29.0)
|   |   |   |   |   |   |   |   |   |   |   |   |   Ch12 > 7.59
|   |   |   |   |   |   |   |   |   |   |   |   |   |    liveRegisters1 <= 12.03
|   |   |   |   |   |   |   |   |   |   |   |   |   |   |    garbage1 <= 9.73: non (11.0)
|   |   |   |   |   |   |   |   |   |   |   |   |   |   |    garbage1 > 9.73: dup (2.0)
|   |   |   |   |   |   |   |   |   |   |   |   |   |    liveRegisters1 > 12.03: dup (5.0)
|   |   |   |   |   |   |   |   |   |   |   |   cosine_similarity > 0.997: dup (49.0)
|   |   |   |   |   |   |   |   |   Ch62 > 7.07
|   |   |   |   |   |   |   |   |   |    intstructions1 <= 4.52
|   |   |   |   |   |   |   |   |   |   |   Ch151 <= 6.57: non (11.0)
|   |   |   |   |   |   |   |   |   |   |   Ch151 > 6.57: dup (3.0)
|   |   |   |   |   |   |   |   |   |    intstructions1 > 4.52
|   |   |   |   |   |   |   |   |   |   |   Ch112 <= 16.2
|   |   |   |   |   |   |   |   |   |   |   |   Ch62 <= 9.65
|   |   |   |   |   |   |   |   |   |   |   |   |    hueristics2 <= 7.67: dup (20.0)
|   |   |   |   |   |   |   |   |   |   |   |   |    hueristics2 > 7.67
|   |   |   |   |   |   |   |   |   |   |   |   |   |   Ch32 <= 13.79
|   |   |   |   |   |   |   |   |   |   |   |   |   |   |    hueristics2 <= 14.89
|   |   |   |   |   |   |   |   |   |   |   |   |   |   |   |   Ch92 <= 12.98
|   |   |   |   |   |   |   |   |   |   |   |   |   |   |   |   |    hueristics2 <= 9.34: non (4.0)
|   |   |   |   |   |   |   |   |   |   |   |   |   |   |   |   |    hueristics2 > 9.34: dup (6.0)
|   |   |   |   |   |   |   |   |   |   |   |   |   |   |   |   Ch92 > 12.98: non (10.0)
|   |   |   |   |   |   |   |   |   |   |   |   |   |   |    hueristics2 > 14.89: dup (6.0)
|   |   |   |   |   |   |   |   |   |   |   |   |   |   Ch32 > 13.79: dup (12.0)
|   |   |   |   |   |   |   |   |   |   |   |   Ch62 > 9.65: non (5.0)
|   |   |   |   |   |   |   |   |   |   |   Ch112 > 16.2: dup (36.0)
|   |   |   |   |   |   |    intermediate1 > 13.39
|   |   |   |   |   |   |   |   cosine_similarity <= 0.991
|   |   |   |   |   |   |   |   |   Ch182 <= 8.6: dup (6.0)
|   |   |   |   |   |   |   |   |   Ch182 > 8.6
|   |   |   |   |   |   |   |   |   |   bmfb <= 5.24: dup (5.0)
|   |   |   |   |   |   |   |   |   |   bmfb > 5.24
|   |   |   |   |   |   |   |   |   |   |    liveRegisters1 <= 12.51: non (14.0)
|   |   |   |   |   |   |   |   |   |   |    liveRegisters1 > 12.51
|   |   |   |   |   |   |   |   |   |   |   |    intstructions1 <= 15.79
|   |   |   |   |   |   |   |   |   |   |   |   |   Ch91 <= 13.32: non (5.0/1.0)
|   |   |   |   |   |   |   |   |   |   |   |   |   Ch91 > 13.32: dup (10.0)
|   |   |   |   |   |   |   |   |   |   |   |    intstructions1 > 15.79: non (7.0)
|   |   |   |   |   |   |   |   cosine_similarity > 0.991
|   |   |   |   |   |   |   |   |   Ch81 <= 6.75: non (2.0)
|   |   |   |   |   |   |   |   |   Ch81 > 6.75: dup (25.0/1.0)

Number of Leaves  : 	619

Size of the tree : 	1237


Time taken to build model: 12.66 seconds
Time taken to test model on training data: 0.77 seconds

=== Error on training data ===

Correctly Classified Instances       27439               99.1293 %
Incorrectly Classified Instances       241                0.8707 %
Kappa statistic                          0.9726
Mean absolute error                      0.016 
Root mean squared error                  0.0895
Relative absolute error                  5.0054 %
Root relative squared error             22.3732 %
Total Number of Instances            27680     


=== Confusion Matrix ===

     a     b   <-- classified as
  5377   159 |     a = dup
    82 22062 |     b = non



=== Stratified cross-validation ===

Correctly Classified Instances       25724               92.9335 %
Incorrectly Classified Instances      1956                7.0665 %
Kappa statistic                          0.7777
Mean absolute error                      0.0759
Root mean squared error                  0.2587
Relative absolute error                 23.7035 %
Root relative squared error             64.6789 %
Total Number of Instances            27680     


=== Confusion Matrix ===

     a     b   <-- classified as
  4510  1026 |     a = dup
   930 21214 |     b = non

